<?xml version="1.0" encoding="UTF-8" standalone="no"?>
<svg
   xmlns:dc="http://purl.org/dc/elements/1.1/"
   xmlns:cc="http://creativecommons.org/ns#"
   xmlns:rdf="http://www.w3.org/1999/02/22-rdf-syntax-ns#"
   xmlns:svg="http://www.w3.org/2000/svg"
   xmlns="http://www.w3.org/2000/svg"
   viewBox="0 0 259.33636 335.69547"
   height="335.69547"
   width="259.33636"
   id="svg2"
   version="1.1">
  <metadata
     id="metadata8">
    <rdf:RDF>
      <cc:Work
         rdf:about="">
        <dc:format>image/svg+xml</dc:format>
        <dc:type
           rdf:resource="http://purl.org/dc/dcmitype/StillImage" />
        <dc:title></dc:title>
      </cc:Work>
    </rdf:RDF>
  </metadata>
  <defs
     id="defs6" />
  <g
     style="fill:#000000;stroke:none"
     id="g38"
     transform="matrix(0.13333334,0,0,-0.13333334,91.722821,135.35821)">
    <path
       id="path4"
       d="M 6,932 C -3,917 4,305 14,298 20,294 19,286 11,276 0,263 0,257 11,244 21,231 21,227 9,220 -2,212 -3,207 7,192 c 9,-15 9,-22 0,-31 -9,-9 -9,-16 0,-30 8,-12 8,-22 1,-29 C 2,96 3,85 12,70 22,52 22,46 12,43 -7,36 -2,12 20,5 32,1 47,4 55,10 c 11,9 15,9 15,1 0,-15 27,-14 33,2 4,9 8,8 16,-3 8,-12 14,-13 29,-3 13,8 23,8 30,1 6,-6 17,-5 31,4 15,9 24,10 29,2 8,-11 227,-13 238,-1 4,4 14,2 21,-5 11,-9 17,-9 23,3 8,12 13,12 30,1 15,-9 25,-10 34,-3 9,7 16,7 25,-2 9,-9 14,-9 21,3 8,13 13,13 31,1 20,-12 24,-11 36,5 9,12 10,21 3,28 -5,5 -10,32 -10,58 0,26 -4,48 -10,48 -5,0 -10,-22 -10,-50 0,-42 -3,-50 -19,-50 -14,0 -19,7 -18,28 5,132 -5,402 -14,402 -7,0 -10,-49 -9,-157 3,-189 4,-178 -15,-163 -11,9 -15,34 -15,98 0,92 -10,106 -15,21 -6,-74 -32,-96 -39,-33 -2,16 -5,31 -6,34 -1,3 -1,49 0,104 1,68 -2,96 -9,92 -7,-4 -11,-43 -11,-96 0,-80 -12,-123 -25,-88 -3,7 -7,126 -9,263 -2,138 -5,265 -5,283 -1,17 -5,32 -10,32 -5,0 -8,-115 -7,-267 1,-190 -2,-267 -10,-270 -17,-6 -23,87 -26,365 -1,133 -6,242 -10,242 -4,0 -9,-110 -10,-245 -2,-157 -7,-244 -13,-243 -12,4 -14,30 -15,286 0,140 -4,202 -12,202 -7,0 -9,-61 -6,-210 2,-115 1,-215 -3,-222 -21,-34 -29,18 -30,209 -1,110 -5,207 -10,214 -6,9 -8,-62 -7,-173 1,-104 -1,-190 -4,-193 -3,-3 -13,-3 -22,1 -17,7 -16,-2 -17,246 0,65 -4,120 -10,123 -5,4 -9,-57 -9,-154 0,-156 -1,-161 -21,-161 -15,0 -20,6 -19,23 6,74 -1,297 -10,297 -6,0 -10,-50 -10,-130 0,-100 -3,-130 -13,-130 -13,0 -15,31 -17,208 0,28 -5,52 -10,52 -7,0 -10,-28 -8,-72 3,-62 0,-73 -14,-76 -20,-4 -32,45 -26,108 2,24 -1,40 -7,40 -7,0 -9,-14 -7,-35 2,-19 2,-42 -2,-50 -6,-17 -37,-9 -35,9 6,53 -9,94 -25,68 z M 65,800 c 3,-5 -3,-10 -14,-10 -12,0 -21,5 -21,10 0,6 6,10 14,10 8,0 18,-4 21,-10 z m 60,-50 c 0,-18 -16,-22 -35,-10 -13,9 -13,11 0,20 19,12 35,8 35,-10 z m -67,-1 c -2,-6 -8,-10 -13,-10 -5,0 -11,4 -13,10 -2,6 4,11 13,11 9,0 15,-5 13,-11 z m 2,-59 c 0,-5 -4,-10 -10,-10 -5,0 -10,5 -10,10 0,6 5,10 10,10 6,0 10,-4 10,-10 z m 55,0 c 3,-5 -1,-10 -10,-10 -9,0 -13,5 -10,10 3,6 8,10 10,10 2,0 7,-4 10,-10 z M 60,636 c 0,-8 -4,-17 -9,-21 -12,-7 -24,12 -16,25 9,15 25,12 25,-4 z m 58,2 c -6,-18 -28,-21 -28,-4 0,9 7,16 16,16 9,0 14,-5 12,-12 z m 52,-9 c 0,-5 -7,-9 -15,-9 -9,0 -12,6 -9,15 6,15 24,11 24,-6 z M 64,581 c 3,-5 -1,-14 -8,-20 -16,-13 -32,2 -21,19 8,12 22,13 29,1 z m 54,-9 c 2,-7 -3,-12 -12,-12 -9,0 -16,7 -16,16 0,17 22,14 28,-4 z m 52,3 c 0,-8 -4,-15 -10,-15 -5,0 -10,7 -10,15 0,8 5,15 10,15 6,0 10,-7 10,-15 z m 50,0 c 0,-8 -4,-15 -10,-15 -5,0 -10,7 -10,15 0,8 5,15 10,15 6,0 10,-7 10,-15 z M 60,515 c 0,-8 -4,-15 -9,-15 -13,0 -22,16 -14,24 11,11 23,6 23,-9 z m 56,-12 c -10,-10 -19,5 -10,18 6,11 8,11 12,0 2,-7 1,-15 -2,-18 z m 54,19 c 0,-13 -12,-22 -22,-16 -10,6 -1,24 13,24 5,0 9,-4 9,-8 z m 50,-2 c 0,-5 -4,-10 -10,-10 -5,0 -10,5 -10,10 0,6 5,10 10,10 6,0 10,-4 10,-10 z m 61,-5 c -1,-15 -24,-12 -29,3 -3,9 2,13 12,10 10,-1 17,-7 17,-13 z m -4,-61 c -9,-9 -28,6 -21,18 4,6 10,6 17,-1 6,-6 8,-13 4,-17 z m -217,6 c 0,-5 -4,-10 -10,-10 -5,0 -10,5 -10,10 0,6 5,10 10,10 6,0 10,-4 10,-10 z m 55,0 c -3,-5 -10,-10 -16,-10 -5,0 -9,5 -9,10 0,6 7,10 16,10 8,0 12,-4 9,-10 z m 55,0 c 0,-5 -4,-10 -10,-10 -5,0 -10,5 -10,10 0,6 5,10 10,10 6,0 10,-4 10,-10 z m 55,0 c -3,-5 -10,-10 -16,-10 -5,0 -9,5 -9,10 0,6 7,10 16,10 8,0 12,-4 9,-10 z M 68,408 c -6,-18 -28,-21 -28,-4 0,9 7,16 16,16 9,0 14,-5 12,-12 z m 52,-4 c 0,-17 -22,-14 -28,4 -2,7 3,12 12,12 9,0 16,-7 16,-16 z m 50,1 c 0,-8 -4,-15 -10,-15 -5,0 -10,7 -10,15 0,8 5,15 10,15 6,0 10,-7 10,-15 z m 60,5 c 0,-5 -7,-10 -15,-10 -8,0 -15,5 -15,10 0,6 7,10 15,10 8,0 15,-4 15,-10 z m 50,-5 c 0,-8 -4,-15 -9,-15 -13,0 -22,16 -14,24 11,11 23,6 23,-9 z m 60,5 c 0,-5 -4,-10 -10,-10 -5,0 -10,5 -10,10 0,6 5,10 10,10 6,0 10,-4 10,-10 z m 50,-5 c 0,-9 -6,-12 -15,-9 -8,4 -12,10 -9,15 8,14 24,10 24,-6 z M 65,350 c 3,-5 -1,-10 -10,-10 -9,0 -13,5 -10,10 3,6 8,10 10,10 2,0 7,-4 10,-10 z m 56,-5 c -1,-15 -24,-12 -29,3 -3,9 2,13 12,10 10,-1 17,-7 17,-13 z m 44,5 c 3,-5 1,-10 -4,-10 -6,0 -11,5 -11,10 0,6 2,10 4,10 3,0 8,-4 11,-10 z m 63,-2 c -6,-18 -28,-21 -28,-4 0,9 7,16 16,16 9,0 14,-5 12,-12 z m 52,4 c 0,-13 -12,-22 -22,-16 -10,6 -1,24 13,24 5,0 9,-4 9,-8 z m 60,-1 c 0,-6 -4,-13 -10,-16 -5,-3 -10,1 -10,9 0,9 5,16 10,16 6,0 10,-4 10,-9 z M 166,283 c -10,-10 -19,5 -10,18 6,11 8,11 12,0 2,-7 1,-15 -2,-18 z m -96,7 c 0,-5 -7,-10 -15,-10 -8,0 -15,5 -15,10 0,6 7,10 15,10 8,0 15,-4 15,-10 z m 50,-6 c 0,-8 -4,-12 -10,-9 -5,3 -10,10 -10,16 0,5 5,9 10,9 6,0 10,-7 10,-16 z m 110,8 c 0,-14 -11,-21 -26,-15 -8,3 -11,9 -8,14 7,11 34,12 34,1 z m 60,-2 c 0,-5 -4,-10 -9,-10 -6,0 -13,5 -16,10 -3,6 1,10 9,10 9,0 16,-4 16,-10 z m 50,0 c 0,-5 -4,-10 -10,-10 -5,0 -10,5 -10,10 0,6 5,10 10,10 6,0 10,-4 10,-10 z m 50,0 c 0,-5 -4,-10 -10,-10 -5,0 -10,5 -10,10 0,6 5,10 10,10 6,0 10,-4 10,-10 z M 68,232 c 2,-7 -3,-12 -12,-12 -9,0 -16,7 -16,16 0,17 22,14 28,-4 z m 52,3 c 0,-8 -7,-15 -15,-15 -16,0 -20,12 -8,23 11,12 23,8 23,-8 z m 44,-6 c -3,-5 -10,-7 -15,-3 -5,3 -7,10 -3,15 3,5 10,7 15,3 5,-3 7,-10 3,-15 z m 66,6 c 0,-8 -7,-15 -15,-15 -16,0 -20,12 -8,23 11,12 23,8 23,-8 z m 60,0 c 0,-8 -4,-15 -9,-15 -13,0 -22,16 -14,24 11,11 23,6 23,-9 z m 50,0 c 0,-8 -4,-15 -10,-15 -5,0 -10,7 -10,15 0,8 5,15 10,15 6,0 10,-7 10,-15 z m 50,-6 c 0,-5 -4,-9 -10,-9 -5,0 -10,7 -10,16 0,8 5,12 10,9 6,-3 10,-10 10,-16 z m 55,11 c 3,-5 -1,-10 -9,-10 -9,0 -16,5 -16,10 0,6 4,10 9,10 6,0 13,-4 16,-10 z m 46,-3 c -1,-12 -15,-9 -19,4 -3,6 1,10 8,8 6,-3 11,-8 11,-12 z M 68,172 c 2,-7 -3,-12 -12,-12 -9,0 -16,7 -16,16 0,17 22,14 28,-4 z m 55,3 c 1,-5 -6,-11 -15,-13 -11,-2 -18,3 -18,13 0,17 30,18 33,0 z m 47,5 c 0,-5 -4,-10 -10,-10 -5,0 -10,5 -10,10 0,6 5,10 10,10 6,0 10,-4 10,-10 z m 58,-9 c 3,-8 -1,-12 -9,-9 -7,2 -15,10 -17,17 -3,8 1,12 9,9 7,-2 15,-10 17,-17 z m 62,4 c 0,-8 -4,-15 -9,-15 -13,0 -22,16 -14,24 11,11 23,6 23,-9 z m 50,0 c 0,-8 -4,-15 -9,-15 -13,0 -22,16 -14,24 11,11 23,6 23,-9 z m 50,0 c 0,-8 -4,-15 -10,-15 -5,0 -10,7 -10,15 0,8 5,15 10,15 6,0 10,-7 10,-15 z m 58,4 c -2,-6 -8,-10 -13,-10 -5,0 -11,4 -13,10 -2,6 4,11 13,11 9,0 15,-5 13,-11 z m 122,1 c 0,-5 -9,-10 -20,-10 -11,0 -20,5 -20,10 0,6 9,10 20,10 11,0 20,-4 20,-10 z M 124,109 c -8,-14 -34,-11 -34,4 0,8 3,17 7,20 9,9 34,-13 27,-24 z m 486,16 c 0,-8 -7,-15 -15,-15 -16,0 -20,12 -8,23 11,12 23,8 23,-8 z M 70,114 c 0,-8 -4,-12 -10,-9 -5,3 -10,10 -10,16 0,5 5,9 10,9 6,0 10,-7 10,-16 z m 100,1 c 0,-8 -4,-15 -10,-15 -5,0 -10,7 -10,15 0,8 5,15 10,15 6,0 10,-7 10,-15 z m 120,5 c 0,-5 -4,-10 -10,-10 -5,0 -10,5 -10,10 0,6 5,10 10,10 6,0 10,-4 10,-10 z m 50,1 c 0,-6 -4,-13 -10,-16 -5,-3 -10,1 -10,9 0,9 5,16 10,16 6,0 10,-4 10,-9 z m 50,-1 c 0,-5 -4,-10 -10,-10 -5,0 -10,5 -10,10 0,6 5,10 10,10 6,0 10,-4 10,-10 z m 58,-1 c -2,-6 -8,-10 -13,-10 -5,0 -11,4 -13,10 -2,6 4,11 13,11 9,0 15,-5 13,-11 z m 52,1 c 0,-5 -4,-10 -10,-10 -5,0 -10,5 -10,10 0,6 5,10 10,10 6,0 10,-4 10,-10 z m 50,-5 c 0,-8 -4,-15 -9,-15 -13,0 -22,16 -14,24 11,11 23,6 23,-9 z M 70,60 C 70,49 66,40 61,40 47,40 38,58 45,70 55,87 70,81 70,60 Z m 105,2 c 0,-18 -20,-15 -23,4 -3,10 1,15 10,12 7,-3 13,-10 13,-16 z M 442,48 c -15,-15 -26,-4 -18,18 5,13 9,15 18,6 9,-9 9,-15 0,-24 z m 58,11 c 0,-5 -7,-9 -15,-9 -15,0 -20,12 -9,23 8,8 24,-1 24,-14 z m 58,3 c 2,-7 -6,-12 -17,-12 -21,0 -27,11 -14,24 9,9 26,2 31,-12 z M 120,54 c 0,-8 -4,-12 -10,-9 -5,3 -10,10 -10,16 0,5 5,9 10,9 6,0 10,-7 10,-16 z m 111,1 c -1,-15 -24,-12 -29,3 -3,9 2,13 12,10 10,-1 17,-7 17,-13 z m 59,5 c 0,-5 -5,-10 -11,-10 -5,0 -7,5 -4,10 3,6 8,10 11,10 2,0 4,-4 4,-10 z m 60,0 c 0,-5 -7,-10 -16,-10 -8,0 -12,5 -9,10 3,6 10,10 16,10 5,0 9,-4 9,-10 z m 40,0 c 0,-5 -4,-10 -10,-10 -5,0 -10,5 -10,10 0,6 5,10 10,10 6,0 10,-4 10,-10 z m 210,0 c 0,-5 -2,-10 -4,-10 -3,0 -8,5 -11,10 -3,6 -1,10 4,10 6,0 11,-4 11,-10 z" />
    <path
       id="path6"
       d="m 440,916 c 0,-14 5,-28 10,-31 6,-4 10,7 10,24 0,17 -4,31 -10,31 -5,0 -10,-11 -10,-24 z" />
    <path
       id="path8"
       d="m 495,823 c 2,-65 4,-149 4,-187 1,-38 4,-66 7,-63 6,6 7,45 5,280 -1,49 -5,87 -11,87 -6,0 -8,-45 -5,-117 z" />
    <path
       id="path10"
       d="m 556,930 c -3,-8 -4,-49 -2,-90 2,-41 4,-139 5,-217 1,-95 5,-143 12,-143 7,0 10,67 7,221 -3,205 -9,266 -22,229 z" />
    <path
       id="path12"
       d="m 606,823 c 0,-65 2,-167 3,-226 0,-66 5,-106 11,-102 5,3 7,70 5,163 -2,86 -4,185 -4,220 -1,34 -5,62 -9,62 -4,0 -7,-53 -6,-117 z" />
    <path
       id="path14"
       d="m 664,765 c 3,-99 5,-271 6,-382 0,-139 3,-203 11,-203 14,0 1,740 -13,755 -7,7 -8,-50 -4,-170 z" />
    <path
       id="path16"
       d="m 717,914 c -5,-30 2,-64 13,-64 5,0 8,20 8,45 -1,49 -13,60 -21,19 z" />
    <path
       id="path18"
       d="m 777,478 c 3,-255 9,-467 14,-473 6,-5 8,111 5,285 -2,162 -5,375 -5,473 -1,104 -5,177 -10,177 -6,0 -8,-175 -4,-462 z" />
    <path
       id="path20"
       d="m 825,643 c 3,-164 5,-306 5,-316 0,-10 4,-16 8,-13 8,5 9,198 4,509 -1,69 -6,117 -12,117 -6,0 -8,-104 -5,-297 z" />
    <path
       id="path22"
       d="m 875,896 c -4,-25 -4,-49 -1,-54 3,-6 9,-189 12,-408 7,-463 6,-434 16,-434 5,0 6,102 3,227 -4,126 -6,235 -6,243 2,48 2,194 1,323 -2,146 -13,188 -25,103 z" />
    <path
       id="path24"
       d="m 929,923 c -1,-23 1,-138 6,-323 3,-80 5,-247 5,-372 0,-149 4,-228 10,-228 7,0 9,99 5,303 -3,166 -5,377 -6,470 -1,92 -5,167 -10,167 -5,0 -9,-8 -10,-17 z" />
    <path
       id="path26"
       d="m 981,798 c 1,-79 5,-172 8,-208 7,-63 8,-64 15,-28 5,21 6,45 2,53 -3,9 -6,86 -7,170 0,94 -4,155 -10,155 -6,0 -9,-55 -8,-142 z" />
    <path
       id="path28"
       d="m 725,423 c 3,-255 8,-419 14,-421 6,-2 8,104 6,290 -3,161 -5,350 -5,421 0,78 -4,127 -10,127 -7,0 -8,-142 -5,-417 z" />
    <path
       id="path30"
       d="m 500,532 c 0,-18 5,-32 10,-32 6,0 8,11 4,28 -10,39 -14,40 -14,4 z" />
    <path
       id="path32"
       d="m 992,276 c 1,-129 6,-245 10,-258 3,-13 6,93 7,235 0,171 -4,257 -11,257 -6,0 -9,-77 -6,-234 z" />
    <path
       id="path34"
       d="m 564,435 c -3,-8 -2,-32 4,-52 l 10,-38 1,53 c 1,52 -5,65 -15,37 z" />
    <path
       id="path36"
       d="M 830,150 C 830,21 832,0 846,0 c 8,0 13,4 10,9 -3,4 -6,72 -7,150 0,77 -5,141 -10,141 -5,0 -9,-67 -9,-150 z" />
  </g>
  <g
     style="fill:#000000;stroke:none"
     transform="matrix(-0.08024794,-0.10648027,-0.10648027,0.08024794,249.86395,223.05682)"
     id="g1068">
    <path
       d="m 0,1276 c 0,-8 12,-17 28,-21 l 27,-7 -27,-14 -27,-14 1,-159 C 2,922 4,901 18,895 c 15,-6 15,-8 -2,-21 -21,-15 -21,-15 9,-32 20,-11 20,-12 -3,-18 -28,-8 -29,-31 -1,-30 12,1 24,-5 26,-11 3,-8 -5,-13 -22,-13 -25,0 -26,-1 -23,-67 1,-42 7,-73 16,-82 12,-13 12,-16 -2,-26 -21,-16 -20,-22 5,-28 24,-7 20,-33 -5,-29 -9,2 -16,-4 -16,-13 0,-8 8,-15 19,-15 19,0 51,-29 35,-31 -5,-1 -13,-2 -19,-4 -5,-1 -16,-3 -22,-3 -26,-4 -12,-21 19,-24 22,-2 34,-9 36,-21 3,-14 -4,-17 -32,-17 -36,0 -36,0 -36,-44 0,-50 10,-62 40,-46 24,13 60,-2 60,-25 0,-17 -55,-21 -65,-5 -8,13 -35,1 -35,-16 0,-8 5,-14 10,-14 14,0 12,-38 -3,-43 -35,-12 17,-20 145,-21 79,0 148,-4 155,-9 6,-4 14,-3 18,3 8,13 62,13 70,0 3,-5 14,-6 25,-2 33,12 170,2 170,-13 0,-17 -43,-22 -121,-15 -35,4 -69,3 -75,-1 -6,-5 -13,-6 -16,-4 -3,3 -89,7 -192,9 L 0,168 V 140 C 0,124 6,109 13,106 23,101 23,99 13,94 6,91 0,82 0,75 0,68 6,60 13,57 22,54 22,48 12,31 6,20 0,8 0,5 0,2 197,0 437,0 h 438 l 145,56 c 80,31 171,66 202,78 32,11 58,27 58,34 0,17 -5,16 -90,-19 C 1026,83 848,18 842,24 c -3,4 1,13 9,20 15,15 236,105 357,146 43,15 72,30 72,38 0,9 -7,12 -17,9 -37,-11 -169,-59 -198,-72 -54,-25 -148,-55 -154,-49 -10,10 39,39 107,63 142,50 262,104 262,117 0,11 -4,12 -17,4 -10,-6 -47,-21 -83,-34 -36,-13 -103,-38 -149,-55 -81,-31 -83,-31 -69,-9 8,12 28,25 44,29 16,3 49,15 74,26 55,25 159,68 183,76 9,4 17,13 17,21 0,11 -24,5 -101,-25 -55,-21 -109,-43 -119,-49 -39,-21 -54,-5 -24,24 8,9 26,16 40,16 13,0 24,4 24,9 0,5 13,11 29,14 16,4 49,15 73,26 24,10 51,21 61,25 9,3 17,12 17,20 0,16 -10,15 -65,-9 -58,-26 -136,-55 -146,-55 -5,0 -2,11 7,25 9,14 22,25 28,25 7,0 35,11 63,25 28,13 63,27 77,31 27,6 42,21 33,31 -3,3 -39,-8 -79,-23 -40,-16 -77,-31 -83,-33 -5,-2 1,8 15,21 14,14 53,35 88,49 44,17 62,29 62,42 0,16 -2,16 -30,2 -16,-8 -36,-15 -45,-15 -29,0 -11,24 33,45 23,11 42,25 42,32 0,7 -7,10 -15,7 -9,-4 -15,0 -15,10 0,9 7,16 15,16 13,0 15,43 15,324 v 324 l -135,1 c -74,0 -134,-3 -132,-7 1,-4 -3,-7 -8,-7 -5,0 -9,3 -8,8 5,12 -82,8 -133,-8 -60,-18 -57,-18 -50,0 4,11 -1,15 -18,15 -13,0 -43,-7 -66,-15 -23,-8 -49,-15 -57,-15 -9,0 -13,6 -9,15 6,18 -34,21 -63,5 -43,-22 -126,-22 -90,1 10,6 6,9 -13,9 -15,0 -30,-4 -33,-10 -3,-5 -26,-10 -51,-10 -31,0 -43,4 -38,11 5,8 -5,10 -32,6 -133,-19 -147,-20 -139,-7 6,10 -1,11 -31,6 -96,-16 -112,-17 -118,-7 -10,16 -56,14 -56,-3 z m 1140,-6 c 0,-5 -4,-10 -10,-10 -5,0 -10,5 -10,10 0,6 5,10 10,10 6,0 10,-4 10,-10 z m 130,-10 c 0,-13 -7,-20 -20,-20 -25,0 -27,27 -2,33 9,3 18,5 20,6 1,0 2,-8 2,-19 z m -310,1 c 0,-14 -18,-23 -31,-15 -8,4 -7,9 2,15 18,11 29,11 29,0 z m 130,-10 c 0,-12 -28,-22 -34,-12 -3,5 -3,11 1,15 9,9 33,7 33,-3 z m -885,-11 c -3,-5 -14,-10 -24,-10 -9,0 -21,-4 -26,-9 -6,-6 -30,-14 -55,-20 -53,-12 -79,3 -34,19 16,5 36,14 44,19 21,13 103,14 95,1 z m 135,0 c 0,-16 -93,-51 -125,-48 -29,4 -28,5 25,31 56,27 100,35 100,17 z m 150,0 c 0,-5 -9,-10 -20,-10 -11,0 -34,-9 -52,-20 -18,-11 -46,-20 -63,-19 h -30 l 24,17 c 42,29 141,52 141,32 z m 140,1 c 0,-13 -150,-63 -169,-56 -18,8 -6,15 84,46 56,20 85,23 85,10 z m 580,-5 c 0,-20 -19,-31 -32,-18 -6,6 -7,15 -4,21 10,16 36,13 36,-3 z m -485,-16 c -55,-22 -75,-25 -75,-11 0,12 45,27 89,29 36,2 35,1 -14,-18 z m 295,5 c 0,-8 -7,-15 -15,-15 -16,0 -20,12 -8,23 11,12 23,8 23,-8 z m 120,-15 c 0,-11 -7,-20 -15,-20 -17,0 -18,2 -9,24 9,23 24,20 24,-4 z m -310,6 c 0,-11 -19,-15 -25,-6 -3,5 1,10 9,10 9,0 16,-2 16,-4 z m 130,-11 c 0,-8 -7,-15 -15,-15 -16,0 -20,12 -8,23 11,12 23,8 23,-8 z m 120,-14 c 0,-23 -16,-36 -25,-21 -9,14 1,40 15,40 5,0 10,-9 10,-19 z m 190,-1 c 0,-13 -7,-20 -20,-20 -19,0 -27,20 -13,33 13,14 33,6 33,-13 z m -652,-1 c -2,-6 -26,-20 -53,-31 -28,-11 -59,-24 -70,-28 -33,-14 -87,-30 -99,-30 -24,0 23,28 74,44 30,9 73,26 95,36 46,22 58,24 53,9 z m 152,7 c 0,-3 -4,-8 -10,-11 -5,-3 -10,-1 -10,4 0,6 5,11 10,11 6,0 10,-2 10,-4 z m 130,-15 c 0,-5 -7,-11 -15,-15 -9,-3 -15,0 -15,9 0,8 7,15 15,15 8,0 15,-4 15,-9 z m 306,-6 c 6,-16 -12,-45 -27,-45 -10,0 -12,44 -2,53 11,11 23,8 29,-8 z m -188,-12 c -2,-10 -11,-19 -20,-21 -12,-2 -15,2 -11,17 7,25 36,28 31,4 z m -858,-3 c 0,-5 -5,-10 -10,-10 -6,0 -30,-9 -52,-20 -45,-21 -100,-28 -82,-10 14,14 104,49 127,50 9,0 17,-4 17,-10 z m 118,-2 c -3,-7 -17,-15 -32,-19 -15,-4 -33,-15 -39,-23 -9,-12 -19,-14 -42,-7 l -30,8 25,11 c 14,6 41,17 60,26 42,19 63,20 58,4 z m 136,3 c 4,-5 -15,-17 -41,-27 -27,-10 -53,-21 -60,-26 -6,-5 -27,-8 -45,-6 l -33,4 30,13 c 39,17 128,50 137,51 4,0 9,-4 12,-9 z m 256,-1 c 0,-5 -4,-10 -10,-10 -5,0 -10,5 -10,10 0,6 5,10 10,10 6,0 10,-4 10,-10 z m 165,1 c 7,-12 -12,-24 -25,-16 -11,7 -4,25 10,25 5,0 11,-4 15,-9 z m 125,-5 c 0,-16 -14,-36 -26,-36 -14,0 -19,22 -7,33 7,8 33,10 33,3 z m 178,-18 c -5,-32 -28,-35 -28,-4 0,17 5,26 16,26 10,0 14,-7 12,-22 z m -508,2 c 0,-5 -4,-10 -10,-10 -5,0 -10,5 -10,10 0,6 5,10 10,10 6,0 10,-4 10,-10 z m 148,-1 c -2,-6 -8,-10 -13,-10 -5,0 -11,4 -13,10 -2,6 4,11 13,11 9,0 15,-5 13,-11 z m 302,-24 c 0,-16 -6,-25 -15,-25 -16,0 -19,9 -9,34 9,25 24,19 24,-9 z m 190,0 c 0,-18 -5,-25 -20,-25 -20,0 -28,28 -13,43 15,16 33,6 33,-18 z m -550,0 c 0,-8 -4,-15 -10,-15 -5,0 -10,7 -10,15 0,8 5,15 10,15 6,0 10,-7 10,-15 z m 170,6 c 0,-5 -7,-14 -15,-21 -12,-10 -15,-10 -15,2 0,8 3,18 7,21 9,10 23,9 23,-2 z m -220,-17 c 0,-8 -5,-12 -10,-9 -6,4 -8,11 -5,16 9,14 15,11 15,-7 z m 157,-21 c -3,-3 -11,-2 -17,2 -8,5 -7,11 2,22 12,15 13,14 16,-1 2,-10 1,-20 -1,-23 z m 193,7 c 0,-11 -2,-20 -4,-20 -2,0 -12,-3 -20,-6 -14,-6 -17,10 -7,44 1,1 8,2 16,2 8,0 15,-9 15,-20 z m 183,14 c 9,-10 -4,-34 -19,-34 -8,0 -14,9 -14,20 0,19 19,27 33,14 z m -573,-20 c 0,-8 -5,-12 -10,-9 -6,4 -8,11 -5,16 9,14 15,11 15,-7 z m 146,-20 c -5,-13 -10,-14 -18,-6 -6,6 -8,18 -4,28 5,13 10,14 18,6 6,-6 8,-18 4,-28 z m 178,18 c 2,-4 1,-14 -4,-21 -11,-19 -41,-6 -34,14 6,16 29,20 38,7 z m 184,-14 c -4,-27 -28,-36 -28,-10 0,20 8,32 22,32 5,0 8,-10 6,-22 z m -418,-8 c 0,-11 -4,-20 -10,-20 -5,0 -10,9 -10,20 0,11 5,20 10,20 6,0 10,-9 10,-20 z m -188,-5 c 0,-5 -5,-11 -11,-13 -6,-2 -11,4 -11,13 0,9 5,15 11,13 6,-2 11,-8 11,-13 z m 358,-10 c 0,-26 -14,-33 -25,-15 -9,14 1,40 15,40 5,0 10,-11 10,-25 z m 190,6 c 0,-24 -18,-37 -32,-23 -8,8 -7,16 2,27 17,21 30,19 30,-4 z m -414,-18 c -10,-10 -19,5 -10,18 6,11 8,11 12,0 2,-7 1,-15 -2,-18 z m 602,5 c -5,-34 -38,-37 -38,-4 0,20 5,26 21,26 15,0 20,-5 17,-22 z m -435,-3 c 8,-18 -11,-31 -25,-17 -11,11 -3,32 12,32 4,0 10,-7 13,-15 z m -793,1 c 0,-11 -19,-15 -25,-6 -3,5 1,10 9,10 9,0 16,-2 16,-4 z m 60,-6 c 0,-5 -4,-10 -9,-10 -6,0 -13,5 -16,10 -3,6 1,10 9,10 9,0 16,-4 16,-10 z m 245,0 c 3,-5 -1,-10 -10,-10 -9,0 -13,5 -10,10 3,6 8,10 10,10 2,0 7,-4 10,-10 z m 675,6 c 0,-2 -3,-11 -6,-20 -9,-23 -34,-20 -34,4 0,13 7,20 20,20 11,0 20,-2 20,-4 z m 180,-21 c 0,-19 -5,-25 -21,-25 -11,0 -18,3 -16,8 2,4 7,15 10,25 9,26 27,21 27,-8 z m -425,-10 c 0,-10 -6,-20 -12,-22 -8,-3 -13,5 -13,22 0,17 5,25 13,23 6,-3 12,-13 12,-23 z m -195,5 c 0,-5 -5,-10 -11,-10 -5,0 -7,5 -4,10 3,6 8,10 11,10 2,0 4,-4 4,-10 z m 370,-9 c 0,-21 -26,-36 -36,-20 -6,11 13,39 27,39 5,0 9,-9 9,-19 z m 188,-3 c -4,-29 -38,-38 -38,-10 0,22 8,32 27,32 9,0 13,-8 11,-22 z M 530,988 c 0,-16 -3,-19 -11,-11 -6,6 -8,16 -5,22 11,17 16,13 16,-11 z m 186,-15 c -5,-12 -10,-13 -18,-5 -8,8 -8,15 3,28 15,18 25,4 15,-23 z M 55,990 c 3,-5 -1,-10 -9,-10 -9,0 -16,5 -16,10 0,6 4,10 9,10 6,0 13,-4 16,-10 z m 60,0 c 3,-5 -3,-10 -14,-10 -11,0 -23,5 -26,10 -3,6 3,10 14,10 11,0 23,-4 26,-10 z m 50,0 c 3,-5 -1,-10 -9,-10 -9,0 -16,5 -16,10 0,6 4,10 9,10 6,0 13,-4 16,-10 z m 75,-10 c 0,-4 -9,-6 -21,-3 -15,4 -17,8 -8,14 14,8 29,3 29,-11 z m 58,11 c 11,-7 11,-9 -1,-14 -16,-6 -27,0 -27,15 0,10 11,10 28,-1 z m 67,-2 c 10,-14 1,-21 -19,-13 -9,3 -13,10 -10,15 7,12 21,11 29,-2 z m 523,-6 c -5,-25 -28,-28 -28,-4 0,12 6,21 16,21 9,0 14,-7 12,-17 z m 190,-5 c -4,-29 -38,-38 -38,-10 0,22 8,32 27,32 9,0 13,-8 11,-22 z m -632,3 c -3,-5 -15,-7 -26,-4 -28,7 -25,13 6,13 14,0 23,-4 20,-9 z m 224,-11 c 0,-11 -4,-20 -10,-20 -5,0 -10,9 -10,20 0,11 5,20 10,20 6,0 10,-9 10,-20 z m 594,3 c 7,-17 -9,-33 -31,-33 -29,0 -11,46 18,49 4,1 10,-7 13,-16 z m -249,-3 c 7,-12 -12,-40 -26,-40 -10,0 -12,34 -2,43 9,10 21,9 28,-3 z M 830,955 c 0,-8 -4,-15 -10,-15 -5,0 -10,7 -10,15 0,8 5,15 10,15 6,0 10,-7 10,-15 z m -52,-12 c -5,-25 -28,-28 -28,-4 0,12 6,21 16,21 9,0 14,-7 12,-17 z m 175,11 c 8,-9 -11,-44 -23,-44 -6,0 -10,8 -10,18 0,27 18,41 33,26 z m 247,-8 c 0,-20 -19,-31 -32,-18 -6,6 -7,15 -4,21 10,16 36,13 36,-3 z M 70,935 c 0,-17 -2,-18 -24,-9 -23,9 -20,24 4,24 11,0 20,-7 20,-15 z m 63,0 c -4,-15 -36,-12 -41,3 -3,9 3,13 19,10 13,-1 23,-7 22,-13 z m 52,4 c 10,-15 -1,-23 -20,-15 -9,3 -13,10 -10,16 8,13 22,13 30,-1 z m 73,-7 c 3,-10 -10,-11 -46,-3 -2,1 0,6 3,12 9,13 37,8 43,-9 z m 72,2 c 0,-9 -7,-14 -17,-12 -25,5 -28,28 -4,28 12,0 21,-6 21,-16 z m 61,1 c -1,-15 -24,-12 -29,3 -3,9 2,13 12,10 10,-1 17,-7 17,-13 z m 68,6 c 9,-6 10,-10 2,-16 -16,-9 -44,2 -36,15 8,12 16,12 34,1 z m 121,-6 c 0,-8 -4,-15 -9,-15 -13,0 -22,16 -14,24 11,11 23,6 23,-9 z m 140,-9 c 0,-16 -18,-31 -27,-22 -8,8 5,36 17,36 5,0 10,-6 10,-14 z m 167,-20 c -4,-9 -11,-16 -17,-16 -11,0 -14,33 -3,44 11,10 26,-11 20,-28 z m 250,17 c 4,-11 -26,-27 -35,-19 -2,3 -2,12 2,21 6,18 27,16 33,-2 z m -72,-29 c -18,-13 -20,-13 -23,2 -5,21 19,37 33,23 7,-7 4,-15 -10,-25 z m -395,11 c 0,-8 -4,-15 -10,-15 -5,0 -10,7 -10,15 0,8 5,15 10,15 6,0 10,-7 10,-15 z m 593,-7 c 8,-27 1,-38 -24,-38 -13,0 -19,7 -19,23 0,41 34,53 43,15 z m -435,-5 c -5,-25 -28,-28 -28,-4 0,12 6,21 16,21 9,0 14,-7 12,-17 z m 189,1 c 3,-9 0,-20 -8,-25 -21,-13 -29,-11 -29,9 0,33 26,44 37,16 z M 80,879 c 0,-5 -7,-9 -15,-9 -15,0 -20,12 -9,23 8,8 24,-1 24,-14 z m 68,4 c 2,-8 -5,-13 -17,-13 -12,0 -21,6 -21,16 0,18 31,15 38,-3 z m 57,8 c 7,-12 -12,-24 -25,-16 -11,7 -4,25 10,25 5,0 11,-4 15,-9 z m 59,3 c 22,-9 20,-24 -3,-24 -21,0 -34,13 -24,24 8,7 8,7 27,0 z m 84,-11 c 2,-8 -5,-13 -17,-13 -21,0 -35,13 -24,24 10,10 36,3 41,-11 z m 70,0 c 2,-8 -5,-13 -17,-13 -12,0 -21,6 -21,16 0,18 31,15 38,-3 z m 72,2 c 11,-13 8,-15 -14,-15 -16,0 -26,5 -26,15 0,8 6,15 14,15 7,0 19,-7 26,-15 z m 130,0 c 0,-8 -4,-15 -10,-15 -5,0 -10,7 -10,15 0,8 5,15 10,15 6,0 10,-7 10,-15 z m 578,-12 c -4,-37 -38,-45 -38,-10 0,23 10,34 33,36 5,1 7,-11 5,-26 z m -618,-9 c 0,-8 -4,-14 -10,-14 -5,0 -10,9 -10,21 0,11 5,17 10,14 6,-3 10,-13 10,-21 z m 192,11 c 0,-5 -5,-11 -11,-13 -6,-2 -11,4 -11,13 0,9 5,15 11,13 6,-2 11,-8 11,-13 z m 178,-10 c 0,-8 -9,-15 -20,-15 -20,0 -26,11 -13,23 12,13 33,7 33,-8 z M 720,855 c 0,-8 -4,-15 -9,-15 -13,0 -22,16 -14,24 11,11 23,6 23,-9 z m 415,-10 c 0,-11 -8,-21 -17,-23 -14,-3 -18,3 -18,23 0,20 4,26 18,23 9,-2 17,-12 17,-23 z M 662,828 c -9,-9 -12,-7 -12,12 0,19 3,21 12,12 9,-9 9,-15 0,-24 z m 228,17 c 0,-8 -7,-15 -15,-15 -8,0 -15,7 -15,15 0,8 7,15 15,15 8,0 15,-7 15,-15 z m 185,5 c 3,-5 1,-19 -6,-32 -11,-21 -12,-21 -25,-3 -10,14 -11,22 -3,32 13,15 26,17 34,3 z M 95,839 c 10,-15 -1,-23 -20,-15 -9,3 -13,10 -10,16 8,13 22,13 30,-1 z m 119,5 c 22,-9 20,-24 -3,-24 -21,0 -34,13 -24,24 8,7 8,7 27,0 z m 70,0 c 22,-9 20,-24 -3,-24 -21,0 -34,13 -24,24 8,7 8,7 27,0 z m 164,-11 c 2,-8 -5,-13 -17,-13 -21,0 -35,13 -24,24 10,10 36,3 41,-11 z m 70,-1 c 2,-7 -6,-12 -17,-12 -21,0 -27,11 -14,24 9,9 26,2 31,-12 z m 312,-2 c 0,-11 -7,-20 -15,-20 -8,0 -15,9 -15,20 0,11 7,20 15,20 8,0 15,-9 15,-20 z m -665,0 c -3,-5 -12,-10 -20,-10 -8,0 -17,5 -20,10 -4,6 5,10 20,10 15,0 24,-4 20,-10 z m 215,0 c 0,-5 -11,-10 -24,-10 -14,0 -28,5 -31,10 -4,6 7,10 24,10 17,0 31,-4 31,-10 z m 240,-5 c 0,-8 -4,-15 -10,-15 -5,0 -10,7 -10,15 0,8 5,15 10,15 6,0 10,-7 10,-15 z m 394,-1 c 8,-20 -1,-34 -20,-34 -8,0 -14,10 -14,25 0,28 24,34 34,9 z m 246,-19 c 0,-24 -5,-35 -14,-35 -21,0 -29,17 -22,46 10,38 36,30 36,-11 z m -485,5 c 0,-7 -6,-15 -12,-17 -8,-3 -13,4 -13,17 0,13 5,20 13,18 6,-3 12,-11 12,-18 z m -55,-16 c 0,-8 -7,-14 -15,-14 -15,0 -21,21 -9,33 10,9 24,-2 24,-19 z m 228,4 c -5,-34 -38,-37 -38,-4 0,20 5,26 21,26 15,0 20,-5 17,-22 z m 247,-9 c 0,-15 -7,-25 -17,-27 -13,-3 -18,3 -18,21 0,13 3,27 7,31 13,12 28,-1 28,-25 z M 120,785 c 0,-9 -9,-15 -25,-15 -24,0 -32,10 -18,23 12,13 43,7 43,-8 z m 65,6 c 8,-14 -13,-24 -33,-16 -14,5 -14,7 -2,15 19,12 27,12 35,1 z m 63,-8 c 2,-8 -5,-13 -17,-13 -12,0 -21,6 -21,16 0,18 31,15 38,-3 z m 60,11 c 32,-9 27,-24 -8,-24 -20,0 -30,5 -30,15 0,17 4,18 38,9 z m 100,-12 c 2,-7 -7,-12 -22,-12 -25,0 -41,12 -29,23 9,10 47,1 51,-11 z m 70,1 c 2,-8 -6,-13 -22,-13 -26,0 -40,12 -29,24 11,11 46,2 51,-11 z m 192,2 c 0,-8 -4,-15 -10,-15 -5,0 -10,7 -10,15 0,8 5,15 10,15 6,0 10,-7 10,-15 z m 220,1 c 0,-7 -7,-19 -15,-26 -13,-11 -15,-8 -15,14 0,16 5,26 15,26 8,0 15,-6 15,-14 z m 240,-16 c 0,-23 -4,-30 -20,-30 -14,0 -20,7 -20,23 0,27 7,37 27,37 8,0 13,-12 13,-30 z m -576,11 c 11,-16 -27,-22 -43,-6 -14,13 -13,15 11,15 15,0 29,-4 32,-9 z m 276,-10 c 0,-23 -16,-36 -25,-21 -9,14 1,40 15,40 5,0 10,-9 10,-19 z m -210,-1 c 0,-5 -5,-10 -11,-10 -5,0 -7,5 -4,10 3,6 8,10 11,10 2,0 4,-4 4,-10 z m 448,-17 c -4,-39 -28,-42 -28,-4 0,21 5,31 16,31 11,0 14,-8 12,-27 z m -292,6 c 10,-17 -13,-36 -27,-22 -12,12 -4,33 11,33 5,0 12,-5 16,-11 z m 232,-21 c -2,-21 -8,-33 -18,-33 -19,0 -25,32 -10,50 20,24 31,17 28,-17 z M 68,727 c 2,-11 -3,-17 -17,-17 -23,0 -35,15 -26,31 10,15 39,6 43,-14 z m 74,-1 c 10,-16 -30,-20 -47,-6 -8,7 -12,16 -9,22 7,11 46,0 56,-16 z m 578,4 c 0,-11 -6,-20 -14,-20 -9,0 -14,9 -13,20 1,11 7,20 14,20 7,0 13,-9 13,-20 z m 226,-7 c -4,-36 -36,-45 -36,-10 0,27 7,37 26,37 8,0 12,-10 10,-27 z m 314,-1 c 0,-29 -26,-75 -38,-68 -4,2 -6,25 -4,50 3,37 8,46 23,46 14,0 19,-7 19,-28 z m -1055,9 c 3,-5 1,-13 -5,-16 -15,-9 -43,3 -35,15 8,13 32,13 40,1 z m 65,-7 c 0,-10 -7,-14 -22,-12 -32,5 -35,28 -4,28 17,0 26,-5 26,-16 z m 80,1 c 0,-16 -45,-21 -54,-6 -8,12 4,21 31,21 14,0 23,-6 23,-15 z m 80,0 c 0,-16 -45,-21 -54,-6 -8,12 4,21 31,21 14,0 23,-6 23,-15 z m 83,1 c 3,-8 1,-17 -6,-19 -15,-5 -47,10 -47,23 0,16 47,12 53,-4 z m 80,0 c 10,-8 14,-17 8,-20 -11,-7 -56,9 -66,23 -9,16 37,13 58,-3 z m 69,-18 c -15,-15 -26,-4 -18,18 5,13 9,15 18,6 9,-9 9,-15 0,-24 z m 536,4 c 2,-13 -4,-25 -17,-32 -19,-10 -21,-8 -21,18 0,46 32,58 38,14 z m -308,-1 c 0,-10 -7,-24 -15,-31 -12,-10 -16,-9 -21,4 -3,9 -4,23 0,31 8,21 36,19 36,-4 z m -60,-21 c 0,-20 -5,-30 -15,-30 -15,0 -21,40 -8,53 14,15 23,6 23,-23 z m 298,3 c -4,-36 -38,-45 -38,-10 0,27 7,37 27,37 10,0 13,-9 11,-27 z m -58,-17 c 0,-27 -28,-43 -36,-21 -9,21 3,45 21,45 9,0 15,-9 15,-24 z M 141,662 c -28,-4 -40,6 -21,18 9,6 20,4 29,-3 12,-10 11,-13 -8,-15 z m 77,10 c 2,-7 -6,-12 -17,-12 -21,0 -27,11 -14,24 9,9 26,2 31,-12 z m 500,-18 c -5,-28 -28,-29 -28,-1 0,13 3,27 7,31 10,10 25,-10 21,-30 z m 60,18 c 2,-7 -4,-15 -13,-18 -20,-8 -27,-1 -19,20 7,18 25,17 32,-2 z m 230,-18 c -2,-10 -11,-20 -21,-22 -12,-3 -17,3 -17,21 0,26 18,41 33,27 5,-4 7,-16 5,-26 z M 90,670 c 0,-5 -4,-11 -10,-11 -34,-4 -44,-3 -47,9 -3,8 6,12 26,12 17,0 31,-4 31,-10 z m 200,0 c 0,-5 -11,-10 -25,-10 -14,0 -25,5 -25,10 0,6 11,10 25,10 14,0 25,-4 25,-10 z m 90,0 c 0,-5 -13,-10 -30,-10 -16,0 -30,5 -30,10 0,6 14,10 30,10 17,0 30,-4 30,-10 z m 80,-5 c -7,-14 -53,-11 -58,4 -3,9 6,11 29,9 19,-2 32,-7 29,-13 z m 80,0 c 0,-15 -43,-12 -48,3 -3,10 4,13 22,10 15,-2 26,-7 26,-13 z m 75,5 c 11,-18 -26,-23 -43,-6 -15,15 -14,16 10,16 15,0 30,-5 33,-10 z m 333,-27 c -4,-36 -38,-45 -38,-10 0,27 7,37 27,37 10,0 13,-9 11,-27 z m -58,-12 c 0,-10 -7,-24 -15,-31 -12,-10 -15,-7 -21,15 -4,18 -2,30 7,35 17,11 29,3 29,-19 z m 304,-8 c -1,-18 -10,-45 -20,-60 -16,-25 -19,-26 -22,-8 -2,10 1,21 7,23 9,3 9,8 1,17 -16,19 -1,67 19,63 11,-2 15,-13 15,-35 z M 175,614 c 0,-14 -7,-19 -25,-19 -30,0 -40,31 -13,38 28,7 38,2 38,-19 z m 655,-4 c 0,-31 -16,-41 -26,-15 -8,19 2,45 16,45 5,0 10,-13 10,-30 z m 306,15 c 7,-18 -12,-45 -32,-45 -9,0 -14,11 -14,30 0,23 4,30 20,30 11,0 23,-7 26,-15 z M 98,608 c 4,-21 -27,-25 -46,-6 -20,20 -14,30 15,26 17,-2 29,-10 31,-20 z m 142,1 c 0,-25 -33,-22 -38,4 -2,12 3,17 17,17 15,0 21,-6 21,-21 z m 78,-2 c 3,-15 -2,-18 -25,-15 -17,2 -29,10 -31,21 -3,15 2,18 25,15 17,-2 29,-10 31,-21 z m 82,8 c 10,-12 9,-16 -3,-21 -25,-9 -51,0 -55,19 -4,22 40,24 58,2 z m 88,-8 c 3,-15 -2,-18 -30,-15 -22,2 -34,9 -36,21 -3,15 2,18 30,15 22,-2 34,-9 36,-21 z m 82,19 c 0,-2 3,-11 6,-20 5,-13 -1,-16 -25,-16 -17,0 -31,2 -31,4 0,2 -3,11 -6,20 -5,13 1,16 25,16 17,0 31,-2 31,-4 z m 83,-15 c 6,-26 -15,-33 -42,-15 -29,21 -26,34 8,34 20,0 30,-6 34,-19 z m 120,2 c 8,-13 -12,-55 -23,-48 -16,10 -12,55 4,55 8,0 17,-3 19,-7 z m 297,-17 c 0,-20 -16,-36 -36,-36 -2,0 -4,14 -4,30 0,23 4,30 20,30 14,0 20,-7 20,-24 z m -60,-16 c 0,-16 -2,-30 -4,-30 -2,0 -11,-3 -20,-6 -12,-5 -16,1 -16,23 0,33 6,43 27,43 8,0 13,-12 13,-30 z m -65,-20 c 0,-16 -6,-26 -17,-28 -14,-3 -18,3 -18,28 0,25 4,31 18,28 11,-2 17,-12 17,-28 z M 115,550 c 0,-21 -49,-20 -53,1 -2,12 5,16 25,15 18,-1 28,-6 28,-16 z m 80,0 c 0,-9 -11,-16 -27,-18 -23,-3 -28,1 -28,18 0,17 5,21 28,18 16,-2 27,-9 27,-18 z m 61,9 c 9,-16 -18,-30 -33,-17 -7,6 -10,14 -7,19 7,13 31,11 40,-2 z m 79,-9 c 0,-10 -8,-14 -24,-12 -30,3 -35,7 -26,22 10,16 50,8 50,-10 z m 84,6 c 9,-11 8,-14 -6,-18 -28,-6 -53,2 -53,18 0,18 44,19 59,0 z m 100,0 c 7,-9 8,-17 3,-20 -17,-10 -72,6 -72,20 0,19 54,18 69,0 z m 81,-1 c 10,-12 9,-16 -3,-21 -17,-6 -57,12 -57,26 0,16 46,12 60,-5 z m 95,6 c 10,-17 -34,-34 -51,-21 -7,7 -11,16 -8,21 7,12 51,11 59,0 z m 191,-6 c 4,-8 0,-22 -7,-31 -12,-14 -14,-13 -21,6 -9,23 -3,40 13,40 5,0 12,-7 15,-15 z m -56,-25 c 0,-19 -5,-30 -14,-30 -21,0 -25,11 -15,38 12,32 29,27 29,-8 z m 305,0 c 0,-18 -6,-26 -22,-28 -20,-3 -23,1 -23,28 0,27 3,31 23,28 16,-2 22,-10 22,-28 z M 770,519 c 0,-18 -2,-19 -15,-9 -8,7 -15,16 -15,21 0,5 7,9 15,9 9,0 15,-9 15,-21 z m 300,-3 c 0,-20 -16,-36 -36,-36 -2,0 -4,14 -4,30 0,23 4,30 20,30 14,0 20,-7 20,-24 z m -60,-15 c 0,-21 -23,-45 -33,-34 -4,3 -7,17 -7,30 0,16 6,23 20,23 13,0 20,-7 20,-19 z m -873,-7 c 2,-6 -3,-14 -11,-17 -22,-9 -56,4 -56,20 0,17 61,14 67,-3 z m 73,6 c 21,-13 -1,-33 -31,-28 -32,4 -39,38 -7,38 13,0 30,-5 38,-10 z m 73,-4 c 7,-17 -1,-26 -24,-26 -21,0 -33,15 -24,30 9,15 42,12 48,-4 z m 164,2 c 7,-6 10,-14 7,-19 -8,-13 -48,-11 -62,3 -8,8 -15,9 -22,2 -14,-14 -70,-5 -70,11 0,16 128,19 147,3 z m 103,-3 c 0,-20 -23,-29 -55,-21 -42,11 -31,36 15,36 29,0 40,-4 40,-15 z m 88,-8 c 3,-15 -2,-18 -30,-15 -22,2 -34,9 -36,21 -3,15 2,18 30,15 22,-2 34,-9 36,-21 z m 80,6 c -2,-12 -12,-18 -28,-18 -16,0 -26,6 -28,18 -3,13 3,17 28,17 25,0 31,-4 28,-17 z m 230,-10 c -4,-37 -34,-43 -40,-9 -5,25 3,34 30,35 9,1 12,-9 10,-26 z m -60,-20 c 4,-24 -26,-40 -34,-18 -8,21 3,47 19,43 6,-3 13,-14 15,-25 z m 217,-2 c -3,-6 -11,-8 -17,-5 -6,4 -5,9 3,15 16,10 23,4 14,-10 z m -275,-9 c 0,-26 -11,-34 -27,-21 -20,17 -16,39 7,39 13,0 20,-7 20,-18 z m 238,-14 c -5,-34 -38,-37 -38,-4 0,20 5,26 21,26 15,0 20,-5 17,-22 z m -915,-7 c 3,-13 -1,-21 -15,-24 -28,-8 -48,2 -48,24 0,27 56,27 63,0 z m 79,9 c 4,-29 1,-33 -24,-36 -30,-3 -43,9 -34,31 6,17 55,21 58,5 z m 76,-17 c 3,-17 -2,-23 -15,-23 -22,0 -43,18 -43,38 0,9 9,12 28,10 19,-2 28,-9 30,-25 z m 82,2 c 0,-20 -5,-25 -25,-25 -24,0 -51,31 -38,44 3,3 19,6 35,6 23,0 28,-4 28,-25 z m 90,5 c 12,-23 13,-22 -20,-25 -24,-3 -60,19 -60,37 0,4 16,8 35,8 24,0 37,-6 45,-20 z m 104,4 c 9,-22 -1,-34 -29,-34 -36,0 -55,10 -55,31 0,15 7,19 39,19 26,0 41,-5 45,-16 z m 89,-2 c 21,-23 13,-32 -29,-32 -29,0 -44,13 -44,41 0,16 57,9 73,-9 z m 92,-7 c 0,-26 -31,-31 -56,-10 -25,23 -15,37 24,33 24,-2 32,-8 32,-23 z m 245,1 c 0,-7 -7,-19 -15,-26 -19,-16 -41,1 -32,24 8,20 47,21 47,2 z m -70,-20 c 0,-27 -28,-43 -36,-21 -9,21 3,45 21,45 9,0 15,-9 15,-24 z m -60,-21 c 0,-16 -6,-25 -15,-25 -9,0 -15,9 -15,25 0,16 6,25 15,25 9,0 15,-9 15,-25 z M 86,369 c 3,-6 0,-15 -7,-20 -21,-14 -53,-6 -57,14 -3,13 3,17 27,17 16,0 33,-5 37,-11 z m 84,-3 c 0,-15 -25,-24 -52,-18 -34,7 -20,32 17,32 23,0 35,-5 35,-14 z m 84,-1 c 8,-21 -20,-30 -50,-17 -34,16 -30,32 10,32 21,0 36,-6 40,-15 z m 72,4 c 3,-6 1,-16 -5,-22 -13,-13 -42,0 -49,21 -5,15 44,16 54,1 z m 94,-4 c 0,-20 -46,-30 -65,-15 -21,18 -9,30 31,30 23,0 34,-5 34,-15 z m 90,0 c 0,-9 -9,-15 -25,-15 -14,0 -28,0 -32,-1 -5,0 -9,7 -11,15 -3,12 5,16 32,16 25,0 36,-4 36,-15 z m 105,-5 c 0,-24 -79,-21 -83,3 -3,16 2,18 40,15 30,-2 43,-7 43,-18 z m 100,0 c 0,-17 -52,-21 -72,-6 -25,17 -12,27 30,24 29,-2 42,-8 42,-18 z m 93,-2 c 3,-13 -3,-18 -20,-18 -31,0 -52,15 -43,29 11,18 59,9 63,-11 z m 228,-5 c -10,-10 -19,5 -10,18 6,11 8,11 12,0 2,-7 1,-15 -2,-18 z m -33,-2 c 6,-24 0,-31 -25,-31 -11,0 -18,7 -18,18 0,36 34,45 43,13 z m -61,-23 c -11,-44 -42,-45 -42,-2 0,19 5,24 24,24 20,0 23,-4 18,-22 z m -62,-9 c 0,-11 -4,-17 -10,-14 -5,3 -10,13 -10,21 0,8 5,14 10,14 6,0 10,-9 10,-21 z m -692,-3 c 13,-14 -10,-36 -38,-36 -16,0 -30,2 -30,4 0,2 -3,11 -6,19 -3,10 1,17 13,19 20,5 53,1 61,-6 z m 84,-9 c 14,-22 8,-27 -26,-27 -38,0 -51,12 -42,37 7,17 55,10 68,-10 z m 486,-8 c 11,-17 9,-19 -15,-20 -64,-3 -90,8 -80,33 7,21 80,11 95,-13 z m -408,17 c 0,-2 3,-12 6,-21 6,-14 1,-16 -27,-13 -46,4 -55,38 -10,38 17,0 31,-2 31,-4 z m 93,-16 c 4,-17 0,-20 -34,-20 -32,0 -39,3 -39,20 0,16 7,20 34,20 25,0 35,-5 39,-20 z m 87,16 c 0,-2 3,-12 6,-21 6,-14 1,-16 -32,-13 -27,2 -40,8 -42,21 -3,14 4,17 32,17 20,0 36,-2 36,-4 z m 108,-8 c 21,-21 13,-28 -33,-28 -25,0 -45,2 -45,4 0,2 -3,11 -6,20 -5,13 1,16 33,16 21,0 44,-5 51,-12 z m 200,0 c 18,-18 15,-25 -13,-31 -23,-4 -45,14 -45,37 0,11 46,6 58,-6 z m 152,-17 c 0,-5 -7,-14 -15,-21 -12,-10 -15,-10 -15,2 0,8 3,18 7,21 9,10 23,9 23,-2 z m -52,-36 c -4,-33 -22,-33 -26,0 -2,18 1,25 13,25 12,0 15,-7 13,-25 z m -828,1 c 0,-2 3,-12 6,-21 6,-14 1,-16 -32,-13 -27,2 -40,8 -42,21 -3,14 4,17 32,17 20,0 36,-2 36,-4 z m 94,-8 c 5,-10 7,-10 12,0 12,25 84,8 84,-20 0,-12 -158,-10 -165,2 -3,6 -3,15 0,20 9,14 62,12 69,-2 z m 174,-10 c 3,-15 -4,-18 -32,-18 -30,0 -36,4 -36,21 0,17 5,20 32,17 22,-2 34,-9 36,-20 z m 89,6 c 5,-15 7,-15 15,0 13,23 65,21 78,-4 12,-22 18,-21 -86,-25 -68,-3 -90,5 -81,29 8,22 66,21 74,0 z m 203,1 c 18,-21 7,-28 -42,-29 -37,-1 -43,2 -46,22 -3,20 1,22 36,22 23,0 45,-6 52,-15 z m 130,-4 c 5,-11 10,-22 10,-25 0,-11 -96,-6 -108,6 -25,25 -13,38 38,38 38,0 52,-4 60,-19 z m 92,-19 c 23,-34 24,-39 10,-60 -18,-27 -76,-31 -90,-6 -8,14 -12,14 -31,3 -22,-15 -51,-5 -59,20 -3,9 14,12 67,10 44,-1 76,2 83,9 9,9 7,12 -9,12 -29,0 -52,28 -32,41 24,15 36,10 61,-29 z M 713,168 c 8,-30 5,-32 -50,-22 -33,6 -49,15 -51,27 -3,14 4,17 46,17 43,0 50,-3 55,-22 z M 110,100 c 0,-5 -13,-10 -30,-10 -16,0 -30,5 -30,10 0,6 14,10 30,10 17,0 30,-4 30,-10 z m 100,0 c 0,-5 -13,-10 -30,-10 -16,0 -30,5 -30,10 0,6 14,10 30,10 17,0 30,-4 30,-10 z m 80,0 c 0,-5 -9,-10 -19,-10 -11,0 -23,5 -26,10 -4,6 5,10 19,10 14,0 26,-4 26,-10 z m 50,0 c 0,-5 -8,-10 -17,-10 -15,0 -16,2 -3,10 19,12 20,12 20,0 z m 105,0 c 4,-6 -7,-10 -25,-10 -18,0 -29,4 -25,10 3,6 15,10 25,10 10,0 22,-4 25,-10 z m 95,0 c 0,-5 -14,-10 -31,-10 -17,0 -28,4 -24,10 3,6 17,10 31,10 13,0 24,-4 24,-10 z m 90,0 c 0,-5 -12,-10 -26,-10 -14,0 -23,4 -19,10 3,6 15,10 26,10 10,0 19,-4 19,-10 z m 80,-6 c 0,-11 -5,-14 -16,-10 -9,3 -23,6 -32,7 -14,0 -13,2 3,9 31,13 45,11 45,-6 z m 70,7 c 0,-14 -18,-23 -30,-16 -6,4 -8,11 -5,16 8,12 35,12 35,0 z m 78,-8 c 2,-8 -6,-13 -22,-13 -25,0 -33,10 -19,24 10,10 36,3 41,-11 z M 107,44 C 112,29 68,18 55,31 c -7,7 -5,13 5,19 18,12 42,9 47,-6 z m 92,7 c 12,-8 9,-11 -12,-17 -30,-7 -43,-1 -32,15 8,13 25,14 44,2 z m 85,0 c 7,-10 -43,-25 -52,-16 -7,7 18,25 35,25 6,0 14,-4 17,-9 z m 76,-1 c 0,-5 -9,-10 -20,-10 -11,0 -20,5 -20,10 0,6 9,10 20,10 11,0 20,-4 20,-10 z m 155,0 c -8,-13 -35,-13 -35,0 0,6 9,10 21,10 11,0 17,-4 14,-10 z m 101,-5 c 8,-20 -4,-35 -21,-29 -8,4 -12,10 -9,15 3,5 0,9 -6,9 -6,0 -8,5 -5,10 9,15 35,12 41,-5 z m 92,-12 c 3,-20 -1,-23 -27,-23 -23,0 -31,5 -31,18 0,25 10,33 35,30 12,-2 21,-12 23,-25 z m 72,3 c 0,-8 -5,-18 -10,-21 -13,-8 -42,14 -34,26 9,15 44,10 44,-5 z M 440,22 c 0,-4 -9,-8 -20,-9 -11,-1 -20,2 -20,8 0,5 9,9 20,9 11,0 20,-4 20,-8 z m 82,-4 c -17,-8 -26,-8 -34,0 -9,9 -4,12 23,11 32,0 33,-1 11,-11 z"
       id="path1062" />
    <path
       d="m 1206,85 c -33,-14 -63,-25 -68,-25 -8,0 -38,-12 -118,-48 -22,-9 -23,-11 -4,-11 43,-2 264,83 264,101 0,12 -9,10 -74,-17 z"
       id="path1064" />
    <path
       d="m 1267,54 c -3,-3 -34,-17 -69,-30 -55,-20 -59,-23 -31,-23 43,-1 113,27 113,45 0,15 -3,17 -13,8 z"
       id="path1066" />
  </g>
</svg>
