<?xml version="1.0" encoding="UTF-8" standalone="no"?>
<svg
   xmlns:dc="http://purl.org/dc/elements/1.1/"
   xmlns:cc="http://creativecommons.org/ns#"
   xmlns:rdf="http://www.w3.org/1999/02/22-rdf-syntax-ns#"
   xmlns:svg="http://www.w3.org/2000/svg"
   xmlns="http://www.w3.org/2000/svg"
   id="svg12"
   preserveAspectRatio="xMidYMid meet"
   viewBox="0 0 226.50973 148.26877"
   height="148.26877pt"
   width="226.50974pt"
   version="1.0">
  <defs
     id="defs16" />
  <metadata
     id="metadata2">
Created by potrace 1.14, written by Peter Selinger 2001-2017
<rdf:RDF>
  <cc:Work
     rdf:about="">
    <dc:format>image/svg+xml</dc:format>
    <dc:type
       rdf:resource="http://purl.org/dc/dcmitype/StillImage" />
    <dc:title></dc:title>
  </cc:Work>
</rdf:RDF>
</metadata>
  <g
     style="fill:#000000;stroke:none"
     id="g46"
     transform="matrix(-0.06098476,-0.05221624,-0.05221624,0.06098476,228.17399,66.853929)">
    <path
       id="path4-3"
       d="m 85,1349 c -11,-16 -1,-19 13,-3 7,8 8,14 3,14 -5,0 -13,-5 -16,-11 z" />
    <path
       id="path6-6"
       d="m 208,1330 c -3,-18 0,-31 8,-34 14,-5 8,-43 -11,-66 -7,-8 -23,-34 -35,-57 -13,-24 -27,-43 -32,-43 -4,0 -8,-11 -8,-24 0,-12 -11,-44 -25,-70 -28,-52 -29,-56 -16,-56 5,0 14,14 21,30 7,17 16,30 21,30 14,0 10,-56 -6,-95 -8,-19 -22,-51 -30,-70 -31,-73 -46,-15 -19,74 6,21 5,22 -14,12 C 50,955 43,944 46,937 49,929 39,892 25,853 11,814 0,765 1,744 l 1,-39 9,35 c 13,47 30,80 42,80 9,0 5,-46 -8,-100 -5,-19 -4,-21 4,-10 C 82,757 75,626 40,535 24,493 0,365 1,327 l 1,-32 10,35 c 5,19 15,66 22,103 14,72 28,98 42,76 C 88,488 80,396 65,387 56,382 53,369 57,346 60,327 58,310 51,306 45,302 40,286 40,270 40,216 15,186 8,233 6,245 5,198 5,128 5,58 8,10 12,21 c 9,25 25,24 33,-1 10,-33 32,-23 38,17 23,156 71,353 85,353 8,0 12,12 11,33 -3,40 19,145 32,152 8,5 15,-52 11,-95 -3,-47 -24,-117 -38,-126 -10,-8 -13,-20 -8,-38 5,-21 3,-26 -11,-26 -14,0 -15,-3 -5,-15 7,-8 9,-23 5,-32 -4,-10 -9,-34 -12,-53 -3,-19 -10,-41 -16,-49 C 119,120 118,0 135,0 c 9,0 16,17 20,48 4,26 11,61 15,77 5,17 18,77 30,135 27,133 30,141 40,135 12,-8 10,-184 -3,-215 -6,-14 -9,-31 -8,-38 1,-8 -5,-12 -16,-10 -21,4 -31,-38 -14,-55 6,-6 11,-26 11,-44 0,-23 5,-33 15,-33 8,0 15,6 15,14 0,8 7,17 16,20 15,6 15,8 -1,26 -14,16 -15,24 -7,50 6,17 8,38 5,47 -4,11 -2,14 8,11 10,-3 15,-27 17,-86 3,-74 5,-82 23,-82 16,0 19,6 18,32 -3,56 12,139 25,135 7,-3 11,-32 10,-85 L 353,1 h 114 c 82,0 113,4 112,12 -1,7 2,21 6,31 6,14 4,21 -4,24 -11,4 -11,6 0,13 12,7 11,10 -2,21 -14,11 -14,19 -4,53 8,25 15,34 18,25 16,-43 22,-90 17,-132 L 604,0 h 46 c 25,0 51,5 57,11 8,8 13,8 17,0 10,-15 53,-14 59,2 4,9 7,9 18,0 17,-17 49,-17 53,0 3,6 7,24 10,40 10,44 30,33 22,-13 L 880,0 h 40 c 38,0 40,2 34,24 -3,14 -3,34 1,46 7,22 7,22 20,-4 7,-14 11,-34 8,-46 -5,-17 -1,-20 26,-20 35,0 50,22 31,45 -13,16 -6,65 10,65 13,0 23,-44 18,-80 -4,-27 -2,-30 23,-30 26,0 27,2 22,38 -6,41 8,107 23,107 13,0 17,-68 5,-110 l -10,-36 77,2 77,3 2,103 c 1,90 -1,101 -13,86 -12,-16 -15,-16 -24,-3 -13,20 -12,49 4,85 14,31 20,26 29,-20 2,-11 4,26 5,83 0,56 -4,102 -9,102 -5,0 -12,0 -16,0 -5,0 -9,-8 -9,-18 -1,-9 -3,-21 -4,-27 -1,-5 -1,-21 -1,-35 1,-14 -5,-34 -13,-45 -14,-20 -15,-19 -25,8 -9,22 -7,40 5,80 9,29 21,56 25,61 5,6 9,18 9,28 0,11 9,36 20,58 11,22 20,52 20,67 -1,27 -2,26 -21,-12 -12,-22 -28,-46 -37,-53 -10,-8 -15,-25 -14,-50 1,-24 -6,-49 -20,-72 -12,-19 -23,-46 -24,-60 -3,-35 -22,-80 -34,-80 -32,0 -14,154 19,163 14,3 17,12 13,35 -6,44 25,120 51,124 11,2 23,9 25,17 3,10 0,12 -12,8 -13,-5 -15,-2 -10,21 4,15 13,34 20,43 8,8 14,24 14,35 0,10 7,28 15,38 8,11 15,36 15,55 -1,33 -3,29 -36,-44 -19,-44 -39,-84 -44,-89 -6,-6 -10,-17 -10,-25 0,-9 -8,-35 -17,-59 -14,-38 -18,-42 -29,-28 -9,13 -9,30 1,76 7,33 17,66 22,72 5,7 16,33 23,58 8,25 31,80 52,122 21,42 38,85 37,95 0,20 -79,-131 -79,-152 0,-7 -7,-18 -15,-25 -9,-7 -23,-39 -32,-72 -9,-32 -20,-58 -24,-58 -15,0 -22,93 -9,125 7,16 22,58 35,92 12,33 39,88 59,121 20,33 36,66 36,74 0,7 7,24 16,36 8,12 14,30 12,39 -2,9 -38,-58 -82,-148 -43,-90 -81,-166 -83,-169 -3,-3 -11,3 -18,13 -18,25 -15,39 50,180 14,32 24,64 22,70 -3,7 -8,3 -12,-8 -9,-26 -32,-70 -64,-120 -14,-22 -25,-45 -26,-50 -1,-22 -38,-94 -46,-89 -25,15 3,164 30,164 6,0 11,11 11,26 0,14 16,55 35,93 19,37 35,74 35,82 0,13 -10,-2 -47,-74 -9,-16 -21,-31 -29,-34 -8,-3 -14,-16 -14,-28 0,-13 -4,-27 -10,-30 -5,-3 -10,-15 -10,-25 0,-11 -10,-28 -21,-39 -12,-11 -21,-32 -21,-48 0,-34 -25,-86 -38,-78 -24,15 -7,123 26,165 15,21 34,100 23,100 -5,0 -9,11 -9,24 0,14 -4,27 -9,30 -5,3 -7,16 -3,29 5,20 4,21 -11,8 -9,-7 -17,-20 -17,-27 0,-8 -4,-14 -10,-14 -17,0 -12,118 6,145 16,24 15,25 -5,25 -14,0 -22,-8 -27,-27 -16,-75 -48,-121 -60,-88 -4,9 -2,20 5,24 6,4 9,15 6,23 -4,9 1,28 10,41 16,25 16,25 -20,25 -34,0 -35,-1 -35,-37 0,-36 -19,-91 -31,-91 -8,0 -3,105 5,119 5,7 -2,11 -18,11 -21,0 -25,-4 -24,-30 1,-27 -25,-70 -42,-70 -3,0 -4,23 0,50 6,44 4,50 -12,50 -10,0 -18,-7 -18,-15 0,-15 -38,-55 -53,-55 -5,0 -7,16 -4,35 4,26 2,35 -9,35 -8,0 -14,-7 -14,-15 0,-20 -42,-105 -52,-105 -8,0 -12,30 -9,68 1,12 -3,22 -9,22 -5,0 -10,-7 -10,-16 0,-8 -12,-31 -27,-50 -22,-30 -28,-33 -35,-19 -11,19 -2,50 24,88 19,27 13,38 -10,15 -9,-9 -12,-9 -12,0 0,7 -7,12 -15,12 -12,0 -14,-8 -9,-39 5,-28 1,-46 -12,-66 -14,-21 -15,-30 -6,-33 19,-6 14,-57 -11,-99 -20,-35 -22,-36 -25,-15 -2,13 4,42 13,65 11,28 13,43 6,45 -14,5 -14,57 -1,83 7,13 7,19 0,19 -5,0 -10,9 -10,20 0,25 -35,27 -45,3 -6,-17 -7,-17 -19,0 -19,24 -32,21 -56,-13 -12,-16 -26,-30 -32,-30 -6,0 -8,13 -6,30 3,19 0,30 -8,30 -6,0 -14,-13 -16,-30 z m 102,-18 c 0,-19 -42,-86 -72,-115 -10,-10 -18,-27 -18,-38 0,-24 -47,-119 -59,-119 -5,0 -12,7 -15,16 -9,23 49,144 68,144 9,0 16,8 16,19 0,10 7,24 15,31 8,7 15,20 15,29 0,23 29,63 41,56 5,-4 9,-14 9,-23 z m 46,-37 c -4,-18 -13,-38 -21,-45 -13,-10 -15,-8 -15,13 0,28 33,93 39,76 1,-5 0,-25 -3,-44 z m 284,-4 c 0,-6 -4,-13 -10,-16 -5,-3 -10,1 -10,9 0,9 5,16 10,16 6,0 10,-4 10,-9 z m 40,-13 c 0,-40 -29,-131 -46,-147 -15,-15 -16,-14 -10,11 3,15 2,30 -4,33 -13,8 -1,57 15,67 7,4 16,19 19,33 8,31 26,33 26,3 z m 73,-11 c 9,-24 -12,-106 -34,-137 -27,-36 -32,-34 -19,10 5,18 7,37 4,42 -7,10 26,98 36,98 4,0 10,-6 13,-13 z m -190,-95 c -16,-12 -18,-10 -21,13 -2,15 5,38 15,53 l 18,27 3,-40 c 3,-29 -1,-43 -15,-53 z m 345,31 c -4,-61 -24,-114 -45,-121 -21,-6 -16,79 7,132 29,64 43,59 38,-11 z m -398,21 c 0,-31 -38,-97 -51,-88 -13,8 -11,24 11,72 22,48 40,55 40,16 z m -215,-21 c -10,-55 -43,-123 -60,-123 -10,0 -15,-10 -15,-28 0,-15 -16,-51 -35,-81 -19,-29 -35,-58 -35,-64 0,-23 -53,-157 -62,-157 -10,0 -2,62 12,95 5,11 11,32 14,47 3,15 13,33 21,42 8,8 15,28 15,44 0,16 6,35 14,41 8,7 17,23 20,36 3,13 15,29 26,35 11,6 20,18 20,27 0,22 50,123 62,123 5,0 6,-17 3,-37 z m 535,10 c 0,-16 -10,-44 -22,-63 l -23,-35 -3,32 c -3,33 21,93 38,93 6,0 10,-12 10,-27 z m -473,-34 c -3,-22 -13,-50 -23,-61 -14,-15 -15,-19 -4,-16 20,4 26,-54 9,-94 -14,-34 -35,-32 -31,3 2,13 3,55 3,92 0,46 5,77 15,93 25,37 37,30 31,-17 z m 611,-26 c -1,-62 -10,-87 -39,-116 -11,-10 -19,-28 -19,-40 0,-30 -31,-107 -43,-107 -6,0 -7,23 -3,61 3,34 6,72 6,84 0,12 11,33 24,47 14,13 28,37 31,53 7,30 31,75 40,75 2,0 4,-26 3,-57 z m -390,-80 c -2,-31 -8,-58 -14,-60 -17,-6 -26,61 -13,91 20,42 30,30 27,-31 z m 65,-95 -17,-33 -7,47 c -6,39 -3,56 14,90 l 22,43 3,-57 c 2,-40 -2,-67 -15,-90 z m -213,99 c 0,-27 -32,-90 -45,-88 -6,1 -9,20 -8,42 3,63 53,105 53,46 z m 80,21 c 0,-28 -35,-108 -47,-108 -17,0 -17,42 1,85 14,33 46,49 46,23 z m 320,-48 c 0,-49 -41,-152 -53,-133 -10,15 -2,116 11,138 6,11 13,28 16,38 10,33 26,7 26,-43 z m -540,26 c 0,-33 -19,-84 -34,-89 -8,-3 -17,-18 -20,-34 -4,-15 -15,-39 -24,-53 -9,-14 -17,-40 -19,-59 -2,-38 -7,-46 -22,-36 -16,9 -6,69 18,116 12,22 21,48 21,59 0,10 4,22 10,25 5,3 18,26 29,50 22,49 41,59 41,21 z m 455,-13 c -10,-56 -12,-62 -29,-59 -27,4 -28,13 -6,55 26,52 43,54 35,4 z M 556,953 c -10,-10 -19,5 -10,18 6,11 8,11 12,0 2,-7 1,-15 -2,-18 z m -46,-37 c 0,-63 -40,-170 -48,-127 -2,13 2,27 10,32 10,6 10,11 0,21 -6,6 -12,21 -12,32 0,23 32,95 43,96 4,0 7,-24 7,-54 z m 210,36 c 0,-10 -7,-27 -15,-38 -14,-18 -14,-17 -15,12 0,17 3,34 7,37 12,13 23,7 23,-11 z M 343,871 c -4,-3 -8,-12 -9,-18 -2,-28 -4,-33 -13,-33 -20,0 -19,65 3,104 l 21,39 3,-43 c 2,-24 0,-46 -5,-49 z m -64,18 c -4,-34 -3,-75 2,-92 14,-47 -9,-187 -30,-187 -10,0 -3,102 9,148 7,25 5,34 -5,38 -23,9 -26,36 -10,87 16,54 23,67 34,67 4,0 4,-27 0,-61 z m 149,11 c 0,-28 -4,-53 -9,-56 -5,-3 -9,-13 -9,-23 0,-10 -7,-25 -17,-32 -15,-13 -16,-8 -11,58 5,67 18,103 39,103 4,0 8,-23 7,-50 z m 155,-5 c 6,-47 -23,-118 -34,-88 -12,29 -10,61 6,100 18,43 23,41 28,-12 z m 246,-96 c -5,-14 -9,-30 -8,-35 5,-15 -12,-54 -22,-54 -13,0 -11,109 2,151 20,63 22,64 30,14 6,-31 5,-60 -2,-76 z m -165,95 c 7,-18 -12,-102 -25,-110 -5,-3 -9,1 -10,8 0,7 -2,27 -5,43 -4,29 12,75 27,75 4,0 10,-7 13,-16 z m 86,-44 c 0,-71 -27,-140 -41,-105 -20,52 1,165 31,165 6,0 10,-27 10,-60 z m 342,-23 c -14,-27 -11,-77 4,-77 12,0 24,-44 24,-87 0,-18 -4,-24 -15,-19 -9,3 -15,0 -15,-8 0,-8 6,-16 13,-19 13,-5 -1,-39 -18,-41 -14,-2 -27,64 -19,93 11,35 11,41 0,40 -32,-3 -35,94 -4,152 l 22,42 9,-27 c 6,-18 6,-35 -1,-49 z m -162,17 c 0,-24 -5,-34 -15,-34 -15,0 -17,-6 -19,-64 -2,-45 -23,-43 -28,2 -4,44 35,147 52,137 6,-3 10,-22 10,-41 z m 80,-16 c 0,-20 -5,-40 -11,-44 -6,-3 -9,-14 -6,-24 6,-23 -9,-48 -21,-35 -20,22 -20,82 -1,126 16,34 22,40 29,29 5,-8 10,-32 10,-52 z M 223,748 c -3,-29 -10,-58 -15,-65 -5,-6 -11,-31 -13,-54 -6,-58 -25,-76 -25,-23 0,23 3,44 6,47 4,4 7,27 8,51 1,24 4,48 9,52 4,4 7,16 7,26 0,10 7,18 15,18 11,0 13,-11 8,-52 z m 215,19 c 0,-28 -28,-97 -40,-97 -11,0 -10,30 3,71 6,19 13,40 15,47 6,20 23,5 22,-21 z m 82,-13 c 0,-29 -26,-84 -40,-84 -13,0 -13,32 -1,62 5,13 12,31 15,41 8,25 26,12 26,-19 z m 80,-15 c 0,-50 -16,-126 -30,-142 -4,-5 -10,4 -14,18 -5,20 -2,31 10,40 12,8 14,14 6,19 -23,14 -7,116 18,116 5,0 10,-23 10,-51 z M 144,671 c -3,-9 -8,-29 -9,-45 -2,-15 -11,-36 -20,-45 -16,-15 -17,-12 -11,58 4,40 14,90 24,110 l 16,36 4,-49 c 2,-27 0,-56 -4,-65 z m 207,38 c -7,-22 -9,-44 -6,-49 9,-15 -15,-91 -26,-84 -13,8 -5,139 11,179 10,27 12,28 22,11 7,-13 7,-30 -1,-57 z m 332,-8 c 5,-43 2,-67 -9,-90 -20,-39 -25,-39 -17,0 3,17 0,40 -7,54 -15,28 -5,95 14,95 9,0 15,-20 19,-59 z m 265,-14 c 2,-32 -2,-52 -12,-62 -8,-8 -12,-23 -10,-32 2,-10 0,-25 -6,-33 -9,-13 -11,-13 -20,0 -5,8 -10,31 -10,50 0,44 31,131 45,127 5,-2 11,-25 13,-50 z m 83,-19 c 1,-49 -15,-98 -32,-98 -13,0 -8,137 6,160 12,20 26,-12 26,-62 z M 760,645 c -8,-10 -7,-14 2,-17 10,-4 10,-10 1,-31 -17,-37 -34,-34 -33,6 0,17 0,39 0,47 -1,21 4,43 15,60 7,11 11,7 17,-19 6,-21 5,-37 -2,-46 z m 95,39 c 5,-28 2,-39 -12,-50 -36,-27 -43,-8 -21,53 15,42 24,42 33,-3 z M 510,633 c 0,-2 -5,-14 -11,-26 l -12,-21 -9,23 c -10,28 -3,42 17,34 8,-3 15,-7 15,-10 z m -90,-2 c 0,-6 -4,-13 -10,-16 -5,-3 -10,1 -10,9 0,9 5,16 10,16 6,0 10,-4 10,-9 z m 423,-42 c -8,-16 -17,-28 -19,-26 -7,7 15,57 25,57 5,0 3,-14 -6,-31 z M 535,486 c -8,-94 -21,-115 -31,-50 -10,66 -9,93 5,129 11,27 13,28 23,11 6,-11 8,-46 3,-90 z m 84,21 c -1,-40 -6,-83 -12,-97 -9,-23 -11,-22 -19,25 -8,48 -4,127 8,146 14,23 24,-9 23,-74 z m -328,61 c 6,-52 3,-74 -12,-92 -26,-32 -34,-13 -20,49 11,50 29,74 32,43 z m 83,-10 c 8,-33 7,-76 -2,-82 -5,-3 -7,-18 -4,-34 5,-40 -15,-51 -29,-15 -7,20 -7,45 2,90 13,66 23,78 33,41 z m 76,-44 c 0,-57 -14,-71 -30,-30 -8,21 -6,45 6,84 9,30 24,-3 24,-54 z m 523,23 c 6,-40 1,-63 -30,-136 -10,-24 -10,-24 -17,9 -5,25 -2,36 9,43 21,11 20,38 -2,30 -12,-5 -15,-2 -11,8 3,8 11,31 19,52 7,20 16,37 20,37 3,0 9,-19 12,-43 z m 87,-18 c 0,-35 -19,-89 -32,-89 -3,0 -9,17 -13,39 -8,47 20,126 35,101 5,-8 10,-31 10,-51 z m 82,34 c 4,-32 -22,-133 -33,-133 -24,0 -18,107 8,153 9,16 22,6 25,-20 z M 110,544 c 0,-8 -5,-12 -10,-9 -6,4 -8,11 -5,16 9,14 15,11 15,-7 z m 590,-30 c 0,-19 -4,-34 -9,-34 -5,0 -17,-3 -26,-6 -14,-6 -15,-4 -7,12 6,10 13,32 17,47 8,37 25,25 25,-19 z m 170,-19 c -28,-34 -40,-7 -18,41 l 12,26 9,-26 c 6,-18 5,-31 -3,-41 z M 140,435 C 122,340 108,300 92,300 c -10,0 -12,6 -7,23 4,12 7,36 7,52 -1,38 17,112 37,150 l 16,30 3,-30 c 2,-16 -1,-57 -8,-90 z m 649,73 c -1,-56 -15,-124 -22,-108 -8,18 -11,62 -9,108 1,21 7,32 17,32 10,0 15,-10 14,-32 z m -79,-79 c -6,-10 -15,-19 -20,-19 -15,0 -12,38 3,43 20,7 28,-3 17,-24 z m 170,6 c 0,-17 -17,-28 -30,-20 -7,4 -7,13 0,26 12,21 30,17 30,-6 z M 290,421 c 0,-17 -4,-32 -9,-35 -11,-7 -24,41 -16,54 12,20 25,9 25,-19 z m 156,-18 c -2,-3 -9,-2 -15,2 -8,4 -7,13 1,28 l 13,22 3,-23 c 2,-13 1,-26 -2,-29 z m 554,-19 c 0,-51 -18,-124 -31,-124 -12,0 -31,39 -24,50 3,5 12,7 20,3 17,-6 21,22 5,32 -9,5 -7,33 6,73 9,29 24,8 24,-34 z m 85,-10 c 6,-44 -8,-104 -25,-104 -14,0 -19,74 -8,112 6,21 14,38 18,38 4,0 11,-21 15,-46 z m -435,-9 c 0,-25 -4,-45 -10,-45 -5,0 -10,-4 -10,-10 0,-5 7,-10 16,-10 14,0 15,-8 9,-47 -4,-27 -9,-52 -12,-57 -9,-14 -23,17 -23,50 0,16 -4,34 -10,40 -8,8 -2,55 16,112 9,29 24,8 24,-33 z m 168,-43 c -4,-13 -5,-35 -2,-49 5,-19 3,-24 -7,-21 -10,4 -13,21 -12,63 1,32 5,66 9,74 11,24 22,-39 12,-67 z M 486,312 c 5,-44 3,-66 -6,-77 -18,-22 -32,2 -17,28 9,15 9,21 0,24 -14,5 -18,84 -6,96 13,14 23,-10 29,-71 z m 78,-7 c 6,-72 -3,-120 -19,-104 -13,13 -16,132 -4,160 6,16 13,28 14,27 1,-2 5,-39 9,-83 z m 338,45 c -7,-11 -9,-19 -5,-18 11,4 13,-12 6,-39 -7,-31 -19,-21 -27,22 -8,41 9,84 27,66 9,-9 8,-17 -1,-31 z M 402,313 c 5,-49 4,-52 -16,-49 -18,3 -21,9 -18,47 5,89 26,90 34,2 z m 340,20 c 12,-25 0,-103 -17,-106 -5,-1 -10,25 -11,58 -2,63 6,112 13,85 3,-8 9,-25 15,-37 z m -422,20 c 0,-10 3,-27 6,-38 5,-19 -32,-72 -43,-61 -7,7 19,116 29,116 4,0 8,-8 8,-17 z m 883,-81 c 6,-28 -11,-103 -25,-118 -4,-4 -12,6 -18,22 -9,23 -8,31 4,39 9,7 13,20 9,33 -6,25 2,52 15,52 5,0 12,-13 15,-28 z M 87,218 C 77,109 65,61 51,76 c -27,27 0,204 30,204 8,0 10,-18 6,-62 z m 233,-2 c -11,-53 -30,-77 -30,-38 0,9 -3,27 -6,40 -5,16 -2,22 9,22 9,0 19,9 22,21 13,40 17,10 5,-45 z m 707,-48 c -7,-27 -14,-48 -18,-48 -13,0 -18,77 -7,115 l 11,40 12,-30 c 10,-23 10,-41 2,-77 z m 89,79 c 7,-30 -8,-89 -24,-95 -16,-5 -16,45 1,52 10,5 10,7 0,12 -14,6 -17,36 -6,47 12,13 23,7 29,-16 z M 945,209 c 4,-16 2,-35 -3,-42 -6,-7 -12,-23 -15,-37 l -4,-25 -2,27 c 0,15 -6,30 -11,33 -9,6 -7,33 6,73 6,20 22,5 29,-29 z m -559,4 c -10,-10 -19,5 -10,18 6,11 8,11 12,0 2,-7 1,-15 -2,-18 z m 469,-45 c -3,-75 -5,-88 -14,-88 -12,0 -21,53 -10,66 5,6 4,15 -2,21 -8,8 -8,17 1,32 16,31 26,19 25,-31 z M 518,152 c 7,-28 6,-44 0,-48 -6,-4 -6,-9 2,-14 15,-9 5,-80 -10,-80 -21,0 -30,84 -16,154 9,45 12,44 24,-12 z m 252,18 c 0,-25 -10,-50 -21,-50 -10,0 -12,40 -3,64 8,20 24,11 24,-14 z m -335,-3 c 11,-42 1,-140 -14,-145 -11,-4 -13,4 -7,37 4,25 2,41 -4,41 -11,0 -13,33 -4,68 8,29 22,28 29,-1 z m 260,-52 c -3,-16 -9,-31 -13,-33 -4,-1 -6,-19 -4,-40 3,-29 2,-34 -8,-25 -14,13 -19,118 -7,148 l 8,20 15,-20 c 10,-13 13,-31 9,-50 z m 540,24 c 8,-24 -1,-97 -15,-119 -7,-11 -11,-9 -20,14 -7,21 -7,32 1,42 6,8 8,21 5,30 -8,20 1,54 14,54 5,0 12,-9 15,-21 z M 770,70 c 0,-5 -4,-10 -10,-10 -5,0 -10,5 -10,10 0,6 5,10 10,10 6,0 10,-4 10,-10 z" />
    <path
       id="path8-7"
       d="m 1030,1349 c 0,-5 5,-7 10,-4 6,3 10,8 10,11 0,2 -4,4 -10,4 -5,0 -10,-5 -10,-11 z" />
    <path
       id="path10"
       d="m 1102,1348 c -15,-19 -25,-58 -15,-58 5,0 17,16 26,35 16,34 10,48 -11,23 z" />
    <path
       id="path12"
       d="m 10,1340 c 0,-5 7,-10 15,-10 8,0 15,5 15,10 0,6 -7,10 -15,10 -8,0 -15,-4 -15,-10 z" />
    <path
       id="path14"
       d="m 134,1332 c -6,-4 -13,-16 -16,-27 -3,-11 -9,-29 -14,-39 -5,-14 -4,-17 4,-12 12,7 45,76 39,82 -1,2 -7,0 -13,-4 z" />
    <path
       id="path16"
       d="m 1266,1314 c -5,-14 -4,-15 9,-4 17,14 19,20 6,20 -5,0 -12,-7 -15,-16 z" />
    <path
       id="path18"
       d="m 40,1290 c -17,-41 -6,-50 14,-11 18,35 19,41 7,41 -5,0 -14,-14 -21,-30 z" />
    <path
       id="path20"
       d="m 1015,1310 c 3,-5 11,-10 16,-10 6,0 7,5 4,10 -3,6 -11,10 -16,10 -6,0 -7,-4 -4,-10 z" />
    <path
       id="path22"
       d="m 1162,1290 c -7,-11 -12,-25 -12,-32 1,-7 8,0 16,15 18,33 14,46 -4,17 z" />
    <path
       id="path24"
       d="m 168,1255 c -13,-19 -29,-35 -36,-35 -7,0 -12,-8 -10,-19 3,-22 -49,-111 -66,-111 -11,0 -61,-148 -53,-157 3,-2 7,8 11,22 4,14 13,25 21,25 8,0 15,9 15,20 0,23 58,140 69,140 4,0 13,17 20,38 7,20 24,54 37,75 13,20 22,37 19,37 -3,0 -15,-16 -27,-35 z" />
    <path
       id="path26"
       d="m 987,1284 c -4,-4 -7,-14 -7,-23 0,-11 3,-12 11,-4 6,6 10,16 7,23 -2,6 -7,8 -11,4 z" />
    <path
       id="path28"
       d="m 1227,1243 c -15,-32 -15,-35 -1,-18 24,30 36,55 26,55 -4,0 -16,-17 -25,-37 z" />
    <path
       id="path30"
       d="m 76,1234 c -4,-9 -4,-19 -1,-22 2,-3 7,3 11,12 4,9 4,19 1,22 -2,3 -7,-3 -11,-12 z" />
    <path
       id="path32"
       d="m 1034,1214 c -4,-22 -2,-40 5,-47 8,-8 11,-3 11,20 0,17 3,38 6,47 3,9 1,16 -4,16 -6,0 -14,-16 -18,-36 z" />
    <path
       id="path34"
       d="m 44,1188 c -20,-32 -44,-83 -44,-95 0,-24 42,28 52,64 10,37 6,53 -8,31 z" />
    <path
       id="path36"
       d="m 1191,1179 c -7,-12 -10,-23 -8,-26 3,-3 11,5 17,17 15,28 8,35 -9,9 z" />
    <path
       id="path38"
       d="m 2,600 c 0,-89 1,-92 9,-42 5,29 14,62 19,72 15,28 13,53 -4,47 -8,-3 -17,-1 -20,6 -2,7 -4,-31 -4,-83 z" />
    <path
       id="path40"
       d="m 1145,370 c -3,-5 -1,-10 4,-10 6,0 11,5 11,10 0,6 -2,10 -4,10 -3,0 -8,-4 -11,-10 z" />
    <path
       id="path42"
       d="m 225,257 c -4,-10 -5,-21 -1,-24 10,-10 18,4 13,24 -4,17 -4,17 -12,0 z" />
    <path
       id="path44"
       d="m 335,67 c -4,-10 -5,-21 -1,-24 10,-10 18,4 13,24 -4,17 -4,17 -12,0 z" />
  </g>
  <g
     style="fill:#000000;stroke:none"
     id="g16"
     transform="matrix(9.5063877e-4,0.07028821,0.07028821,-9.5063877e-4,-0.00759324,42.260389)">
    <path
       id="path4-5"
       d="m 155,1434 c -22,-8 -46,-17 -54,-19 -8,-3 -12,-8 -9,-11 5,-4 158,34 167,42 10,10 -68,0 -104,-12 z" />
    <path
       id="path6-3"
       d="m 410,1435 c -138,-26 -272,-57 -327,-76 -85,-28 -86,-29 -81,-35 3,-2 39,4 79,16 93,26 311,73 409,90 110,18 110,18 45,17 -33,0 -89,-5 -125,-12 z" />
    <path
       id="path8-5"
       d="m 750,1426 c 0,-21 -6,-23 -102,-34 -94,-10 -281,-37 -433,-61 -86,-13 -198,-42 -210,-54 -11,-10 -5,-9 125,18 41,9 167,30 280,47 287,42 324,47 332,42 12,-8 10,-62 -2,-69 -6,-4 -7,-12 -3,-18 5,-7 10,-49 12,-94 2,-65 0,-83 -10,-84 -8,0 -79,-1 -159,-2 l -145,-1 -3,37 -3,37 h 68 c 44,0 63,3 54,9 -15,10 -168,7 -201,-4 -15,-5 -23,0 -29,17 -9,22 -10,22 -10,2 -1,-19 -10,-23 -68,-32 -56,-8 -70,-7 -79,4 -10,12 -12,12 -17,1 -6,-15 -85,-39 -99,-31 -4,3 -8,16 -8,29 0,20 6,25 35,30 19,3 52,8 73,12 20,3 53,7 72,9 49,3 133,14 147,19 7,2 15,0 19,-6 4,-7 10,-6 19,1 8,7 80,18 162,26 81,8 150,18 153,21 6,7 -207,-4 -340,-18 -168,-17 -380,-56 -380,-70 0,-5 7,-9 15,-9 21,0 19,-46 -2,-55 -15,-6 -13,-9 12,-16 16,-5 32,-5 35,0 3,4 24,11 46,14 33,6 43,4 48,-9 15,-39 8,-46 -46,-43 -63,3 -108,-8 -108,-27 0,-11 6,-11 27,-3 30,11 47,1 41,-27 -3,-14 -12,-19 -36,-19 H -1 l 3,-80 c 1,-44 7,-83 13,-87 6,-5 5,-11 -4,-17 -17,-11 -7,-41 14,-41 8,0 15,-9 15,-21 C 40,753 36,750 20,755 -1,762 -1,759 1,456 2,183 4,149 19,140 34,131 33,131 18,130 -9,130 -3,101 25,94 54,87 70,63 70,26 70,10 76,0 85,0 c 11,0 13,8 9,30 -7,33 -1,36 40,20 16,-6 26,-17 26,-30 0,-24 15,-27 24,-4 6,15 8,15 31,0 27,-18 80,-22 70,-6 -3,6 -2,10 4,10 5,0 13,-5 16,-10 10,-15 66,-12 79,5 10,13 14,13 40,0 44,-23 58,-20 44,10 -6,14 -8,28 -5,32 11,10 59,-16 64,-35 3,-13 15,-18 45,-19 l 41,-2 -37,25 c -24,17 -35,31 -32,41 3,8 6,16 6,18 0,1 16,-5 35,-13 32,-15 39,-25 38,-59 -1,-21 14,-15 20,7 l 5,21 36,-21 C 704,9 722,0 723,0 c 2,0 0,102 -2,123 -1,4 -10,7 -21,7 -10,0 -31,5 -45,12 -19,9 -25,19 -25,45 0,38 1,38 41,17 17,-8 33,-13 37,-10 7,7 6,7 -40,29 -32,14 -38,22 -38,47 0,16 2,30 4,30 21,0 66,-26 66,-38 0,-11 3,-13 10,-6 13,13 2,44 -16,44 -7,0 -25,5 -39,12 -20,9 -25,18 -25,50 v 38 l 33,-13 c 23,-10 34,-22 37,-43 l 6,-29 6,30 c 7,34 3,45 -18,45 -8,0 -28,7 -44,15 -23,12 -30,23 -30,44 0,38 6,42 45,25 19,-8 40,-14 47,-14 21,0 -20,34 -55,46 -27,9 -32,16 -35,47 -3,39 2,43 41,28 14,-6 28,-7 31,-3 4,3 -13,14 -36,23 -31,12 -42,22 -41,36 1,17 1,17 -11,1 -11,-15 -18,-16 -49,-6 -33,10 -37,15 -37,45 0,18 2,33 4,33 15,0 150,-31 159,-37 6,-4 23,-7 37,-7 24,-1 25,-3 31,-91 3,-49 2,-95 -2,-101 -5,-6 -4,-37 1,-70 5,-32 9,-81 8,-109 0,-27 1,-78 2,-111 1,-34 0,-67 -4,-73 -4,-5 -4,-33 0,-61 l 7,-50 h 127 c 93,0 130,3 133,13 4,9 6,9 6,0 1,-9 21,-13 67,-13 52,0 70,4 80,18 13,16 13,16 14,0 0,-16 11,-18 88,-18 51,0 93,5 99,11 6,6 22,17 35,23 l 23,12 1,599 c 1,330 -2,606 -6,614 -4,8 -3,25 3,38 8,17 7,30 -3,48 -10,20 -11,28 -2,37 16,16 15,36 -2,54 -23,22 -46,17 -46,-10 0,-24 -16,-43 -27,-32 -3,3 -5,16 -5,30 0,24 -3,25 -59,24 -51,-1 -59,-4 -59,-19 0,-25 -17,-24 -25,1 -6,19 -15,20 -231,19 H 750 Z m 330,4 c 0,-5 -4,-10 -10,-10 -5,0 -10,5 -10,10 0,6 5,10 10,10 6,0 10,-4 10,-10 z m 80,-35 c 0,-26 -14,-33 -25,-15 -9,14 1,40 15,40 5,0 10,-11 10,-25 z m 150,-16 c 0,-25 -33,-22 -38,4 -2,12 3,17 17,17 15,0 21,-6 21,-21 z m -228,-31 c -9,-9 -12,-7 -12,12 0,19 3,21 12,12 9,-9 9,-15 0,-24 z m 154,-16 c -10,-10 -29,15 -21,28 6,9 10,8 17,-4 6,-10 7,-20 4,-24 z m -370,-9 c -11,-11 -17,4 -9,23 7,18 8,18 11,1 2,-10 1,-21 -2,-24 z m 514,8 c 0,-11 -4,-23 -10,-26 -5,-3 -10,-2 -10,4 0,5 -3,16 -6,25 -4,11 -1,16 10,16 9,0 16,-8 16,-19 z m -367,-11 c -3,-11 -7,-20 -8,-20 -1,0 -5,9 -8,20 -3,12 0,20 8,20 8,0 11,-8 8,-20 z m 147,-10 c 0,-19 -11,-26 -23,-14 -8,8 3,34 14,34 5,0 9,-9 9,-20 z m 153,-9 c 5,-22 0,-31 -20,-31 -13,0 -18,31 -6,43 11,12 21,8 26,-12 z m -373,-5 c 0,-3 -4,-8 -10,-11 -5,-3 -10,-1 -10,4 0,6 5,11 10,11 6,0 10,-2 10,-4 z m 150,-21 c 0,-8 -4,-15 -10,-15 -5,0 -10,7 -10,15 0,8 5,15 10,15 6,0 10,-7 10,-15 z m 150,-10 c 0,-16 -6,-25 -15,-25 -18,0 -20,21 -3,38 17,17 18,16 18,-13 z m -360,-9 c 0,-8 -4,-17 -9,-21 -12,-7 -24,12 -16,25 9,15 25,12 25,-4 z m 503,-10 c 6,-15 -1,-26 -15,-26 -4,0 -8,9 -8,20 0,23 15,27 23,6 z m -363,-11 c 0,-8 -4,-15 -10,-15 -5,0 -10,7 -10,15 0,8 5,15 10,15 6,0 10,-7 10,-15 z m 140,-20 c 0,-8 -4,-15 -10,-15 -5,0 -10,7 -10,15 0,8 5,15 10,15 6,0 10,-7 10,-15 z m 151,2 c -1,-4 -1,-15 -1,-24 -1,-17 -2,-16 -15,1 -8,10 -12,23 -9,28 7,10 26,6 25,-5 z m -71,-52 c 0,-14 -4,-25 -10,-25 -11,0 -14,33 -3,43 11,11 13,8 13,-18 z m -826,-1 c 16,-40 7,-54 -33,-54 -35,0 -39,3 -43,30 -6,37 -3,40 38,40 20,0 34,-6 38,-16 z m 974,-6 c -5,-32 -28,-35 -28,-4 0,17 5,26 16,26 10,0 14,-7 12,-22 z M 320,1144 c 13,-32 6,-44 -26,-44 -18,0 -24,6 -25,23 l -2,22 -4,-22 c -4,-19 -11,-23 -43,-23 -30,0 -40,5 -45,20 -9,29 -1,36 47,39 23,1 44,4 47,7 13,13 43,1 51,-22 z m 687,-11 c -3,-10 -5,-4 -5,12 0,17 2,24 5,18 2,-7 2,-21 0,-30 z m 149,-30 c -11,-11 -17,4 -9,23 7,18 8,18 11,1 2,-10 1,-21 -2,-24 z m -216,-7 c -14,-14 -24,0 -16,21 6,15 8,15 16,3 6,-9 5,-19 0,-24 z m 375,16 c 0,-18 -20,-15 -23,4 -3,10 1,15 10,12 7,-3 13,-10 13,-16 z M 747,980 c 1,-63 3,-155 4,-205 2,-83 1,-90 -18,-93 -11,-2 -25,4 -32,12 -7,8 -18,13 -26,10 -7,-3 -27,2 -44,10 -16,9 -45,16 -63,16 -42,0 -55,9 -63,43 -6,24 -4,27 16,27 49,0 69,-11 70,-39 2,-25 2,-25 6,-2 5,22 7,23 71,17 81,-8 68,8 -20,25 -55,11 -58,13 -59,43 -2,30 -2,30 -6,4 -3,-22 -10,-28 -28,-28 -36,0 -55,10 -55,30 0,11 -4,22 -10,25 -22,14 -7,25 33,25 24,0 46,-3 50,-6 3,-3 29,-7 57,-9 28,-2 60,-7 70,-10 11,-4 20,-3 20,2 0,10 -154,43 -203,43 -28,0 -36,5 -41,23 -12,47 -13,47 116,47 67,0 119,3 115,6 -7,7 -52,12 -109,13 -36,1 -38,3 -40,34 l -1,32 -4,-32 c -4,-32 -6,-33 -48,-33 -41,0 -43,1 -50,36 -4,22 -2,40 3,43 6,3 73,6 149,6 h 138 z m 493,98 c 0,-18 -2,-20 -9,-8 -6,8 -7,18 -5,22 9,14 14,9 14,-14 z m -806,-4 c 3,-9 6,-27 6,-40 0,-21 -5,-24 -35,-24 -29,0 -37,5 -46,27 -5,14 -8,32 -5,40 8,19 72,17 80,-3 z m 446,1 c 0,-8 -4,-15 -10,-15 -5,0 -10,7 -10,15 0,8 5,15 10,15 6,0 10,-7 10,-15 z m 505,-24 c -3,-12 -11,-21 -16,-21 -10,0 -12,43 -2,54 12,12 25,-11 18,-33 z m -1117,-3 c 3,-26 1,-28 -31,-28 -27,0 -36,5 -40,22 -8,31 0,40 36,36 27,-2 33,-8 35,-30 z m 72,2 c 0,-25 -4,-30 -25,-30 -14,0 -25,3 -25,8 0,4 -3,17 -6,30 -6,19 -3,22 25,22 28,0 31,-3 31,-30 z m -162,-7 c 3,-21 -1,-23 -41,-23 -32,0 -47,5 -51,16 -12,30 -6,35 42,32 40,-3 47,-6 50,-25 z m 842,17 c 0,-5 -4,-10 -10,-10 -5,0 -10,5 -10,10 0,6 5,10 10,10 6,0 10,-4 10,-10 z m 137,-22 c -3,-8 -6,-5 -6,6 -1,11 2,17 5,13 3,-3 4,-12 1,-19 z m 163,-7 c 0,-11 -4,-23 -10,-26 -6,-4 -10,5 -10,19 0,14 5,26 10,26 6,0 10,-9 10,-19 z m -370,-11 c 0,-5 -4,-10 -10,-10 -5,0 -10,5 -10,10 0,6 5,10 10,10 6,0 10,-4 10,-10 z m 131,-33 c -8,-8 -11,-7 -11,4 0,20 13,34 18,19 3,-7 -1,-17 -7,-23 z m 167,12 c -2,-6 -8,-10 -13,-10 -5,0 -11,4 -13,10 -2,6 4,11 13,11 9,0 15,-5 13,-11 z M 278,968 c 3,-24 0,-28 -22,-28 -26,0 -52,32 -41,51 4,5 19,9 33,7 21,-2 28,-9 30,-30 z m 1109,-5 c -9,-21 -13,-23 -15,-9 -5,24 6,49 18,41 6,-3 5,-16 -3,-32 z M 90,965 c 0,-22 -4,-25 -35,-25 -31,0 -35,3 -35,25 0,22 4,25 35,25 31,0 35,-3 35,-25 z m 100,-1 c 0,-23 -3,-25 -37,-22 -31,2 -39,7 -41,26 -3,20 1,22 37,22 37,0 41,-2 41,-26 z m 165,6 c 9,-28 0,-38 -30,-32 -35,6 -36,52 -1,52 16,0 27,-7 31,-20 z m 99,-2 c 9,-36 8,-38 -29,-38 -24,0 -37,6 -45,19 -17,33 -12,41 29,41 32,0 40,-4 45,-22 z m 366,-8 c 0,-5 -4,-10 -10,-10 -5,0 -10,5 -10,10 0,6 5,10 10,10 6,0 10,-4 10,-10 z m 500,-30 c 0,-16 -4,-30 -10,-30 -5,0 -10,14 -10,30 0,17 5,30 10,30 6,0 10,-13 10,-30 z m -230,-20 c 0,-11 -4,-20 -10,-20 -5,0 -10,9 -10,20 0,11 5,20 10,20 6,0 10,-9 10,-20 z M 108,898 c 4,-21 -27,-24 -59,-8 -31,17 -22,31 18,28 27,-2 39,-8 41,-20 z m 94,8 c 16,-24 7,-36 -27,-36 -23,0 -37,6 -44,19 -6,10 -8,20 -6,23 10,9 70,5 77,-6 z m 88,-1 c 18,-21 5,-45 -25,-45 -25,0 -49,34 -38,53 7,13 50,8 63,-8 z m 78,-27 c 5,-44 -39,-35 -51,10 -5,20 -2,23 21,20 21,-2 28,-9 30,-30 z m 100,-5 c 3,-29 0,-33 -22,-33 -30,0 -56,24 -56,51 0,17 6,20 38,17 34,-3 37,-6 40,-35 z m 782,12 c 0,-16 -6,-25 -15,-25 -15,0 -21,31 -8,43 13,14 23,6 23,-18 z m -375,5 c 3,-5 1,-10 -4,-10 -6,0 -11,5 -11,10 0,6 2,10 4,10 3,0 8,-4 11,-10 z m 525,-4 c 0,-22 -11,-46 -21,-46 -5,0 -9,14 -9,30 0,20 5,30 15,30 8,0 15,-6 15,-14 z m -73,-60 c -4,-9 -11,-16 -17,-16 -11,0 -14,33 -3,44 11,10 26,-11 20,-28 z M 119,836 c 16,-19 4,-25 -36,-19 -42,7 -45,33 -4,33 16,0 34,-6 40,-14 z m 99,-18 c 4,-20 -14,-23 -53,-8 -34,13 -22,32 18,28 21,-2 33,-9 35,-20 z m 90,-11 c 3,-15 -2,-18 -30,-15 -22,2 -34,9 -36,21 -3,15 2,18 30,15 22,-2 34,-9 36,-21 z m 79,-4 c 8,-21 -12,-36 -36,-28 -19,6 -29,34 -15,47 9,10 45,-4 51,-19 z m 711,10 c -5,-25 -28,-28 -28,-4 0,12 6,21 16,21 9,0 14,-7 12,-17 z m 152,-12 c 0,-23 -16,-36 -25,-21 -9,14 1,40 15,40 5,0 10,-9 10,-19 z m -772,-3 c 21,-21 14,-48 -12,-48 -40,0 -56,11 -56,36 0,20 5,24 28,24 15,0 33,-5 40,-12 z m 402,2 c 0,-5 -2,-10 -4,-10 -3,0 -8,5 -11,10 -3,6 -1,10 4,10 6,0 11,-4 11,-10 z m 515,-30 c -5,-8 -11,-8 -17,-2 -6,6 -7,16 -3,22 5,8 11,8 17,2 6,-6 7,-16 3,-22 z m -1262,3 c 13,-8 7,-33 -9,-33 -24,0 -54,19 -54,36 0,11 7,13 28,8 15,-4 30,-9 35,-11 z m 1037,-9 c 0,-8 -5,-12 -10,-9 -6,4 -8,11 -5,16 9,14 15,11 15,-7 z m -950,2 c 0,-2 3,-11 6,-20 5,-13 -1,-16 -25,-16 -17,0 -31,2 -31,4 0,2 -3,11 -6,20 -5,13 1,16 25,16 17,0 31,-2 31,-4 z m 1110,-16 c 0,-11 -4,-20 -10,-20 -5,0 -10,9 -10,20 0,11 5,20 10,20 6,0 10,-9 10,-20 z M 318,729 c 3,-25 1,-26 -30,-20 -24,5 -34,13 -36,30 -3,20 0,22 30,19 27,-2 34,-8 36,-29 z m 76,-5 c 10,-25 7,-44 -6,-44 -20,0 -35,13 -42,38 -6,19 -4,22 17,22 14,0 28,-7 31,-16 z m 701,-13 c -9,-16 -25,-3 -18,15 4,10 9,12 15,6 6,-6 7,-15 3,-21 z m -621,9 c 24,-9 36,-46 20,-63 -10,-10 -68,20 -75,39 -12,34 7,43 55,24 z m 779,-5 c 1,-5 -6,-11 -15,-13 -11,-2 -18,3 -18,13 0,17 30,18 33,0 z m 151,0 c 8,-21 -3,-45 -20,-45 -8,0 -14,10 -14,23 0,36 22,51 34,22 z M 69,707 c 13,-16 5,-27 -21,-27 -18,0 -25,20 -11,33 10,10 19,8 32,-6 z m 79,-25 c 3,-21 1,-23 -20,-17 -42,14 -46,49 -5,43 14,-2 23,-11 25,-26 z m 77,4 c 24,-17 14,-46 -15,-39 -11,3 -25,13 -30,23 -16,30 12,41 45,16 z m 942,-18 c -3,-8 -6,-5 -6,6 -1,11 2,17 5,13 3,-3 4,-12 1,-19 z m 163,-3 c 0,-14 -4,-25 -10,-25 -11,0 -14,33 -3,43 11,11 13,8 13,-18 z M 331,648 c 9,-35 4,-39 -34,-26 -42,14 -49,21 -41,42 11,28 66,16 75,-16 z m 67,0 c 7,-7 12,-20 12,-31 0,-14 -6,-18 -27,-15 -23,2 -28,8 -29,31 -1,29 22,37 44,15 z M 70,641 c 0,-14 -18,-23 -30,-16 -6,4 -8,11 -5,16 8,12 35,12 35,0 z m 1185,-16 c 0,-26 -21,-30 -28,-6 -2,11 -2,22 1,26 11,10 27,-2 27,-20 z m -754,-7 c 3,-5 4,-20 1,-33 -4,-22 -6,-22 -35,-10 -23,9 -33,21 -35,40 -3,26 -2,27 30,20 18,-4 36,-12 39,-17 z m 599,13 c 0,-6 -4,-13 -10,-16 -5,-3 -10,1 -10,9 0,9 5,16 10,16 6,0 10,-4 10,-9 z M 148,607 c 3,-14 -1,-18 -20,-15 -12,2 -24,11 -26,21 -3,14 1,18 20,15 12,-2 24,-11 26,-21 z m 1256,14 c 7,-11 -3,-41 -14,-41 -11,0 -21,30 -14,41 3,5 9,9 14,9 5,0 11,-4 14,-9 z M 237,595 c 3,-9 3,-18 0,-21 -9,-10 -57,8 -57,22 0,19 49,18 57,-1 z m 332,9 c 27,-6 31,-10 31,-40 0,-39 1,-39 -45,-20 -27,12 -35,21 -35,40 0,28 2,29 49,20 z m 451,-14 c 0,-11 -4,-20 -10,-20 -5,0 -10,9 -10,20 0,11 5,20 10,20 6,0 10,-9 10,-20 z m 312,-25 c -2,-14 -8,-28 -13,-31 -10,-6 -12,49 -3,59 13,12 21,-3 16,-28 z m -995,11 c 3,-3 3,-12 -1,-21 -4,-12 -12,-14 -28,-9 -56,17 -65,49 -12,41 20,-3 39,-8 41,-11 z M 70,549 c 0,-24 -23,-21 -28,4 -2,10 3,17 12,17 10,0 16,-9 16,-21 z m 334,-1 c 13,-22 6,-29 -22,-21 -26,6 -32,46 -6,41 9,-2 22,-11 28,-20 z m -254,-8 c 0,-15 -7,-20 -25,-20 -18,0 -25,5 -25,20 0,15 7,20 25,20 18,0 25,-5 25,-20 z m 948,3 c -4,-22 -22,-20 -26,1 -2,10 3,16 13,16 10,0 15,-7 13,-17 z m -619,-4 c 24,-8 31,-17 31,-36 0,-22 -3,-24 -27,-18 -33,8 -39,13 -48,43 -7,25 -1,27 44,11 z m 779,-11 c -5,-32 -28,-35 -28,-4 0,17 5,26 16,26 10,0 14,-7 12,-22 z M 234,523 c 4,-9 2,-21 -4,-27 -13,-13 -44,4 -48,28 -5,22 44,22 52,-1 z m 1176,-23 c 0,-20 -5,-30 -15,-30 -10,0 -15,10 -15,30 0,20 5,30 15,30 10,0 15,-10 15,-30 z m -1086,4 c 25,-24 19,-34 -19,-34 -19,0 -35,4 -35,9 0,5 -3,16 -6,25 -8,22 39,22 60,0 z m 251,4 c 18,-8 25,-19 25,-40 0,-16 -5,-28 -13,-28 -25,0 -57,31 -57,56 0,27 8,29 45,12 z m 445,2 c 0,-5 -4,-10 -10,-10 -5,0 -10,5 -10,10 0,6 5,10 10,10 6,0 10,-4 10,-10 z M 396,492 c 6,-4 14,-19 18,-34 5,-21 3,-28 -8,-28 -32,0 -46,13 -46,41 0,28 13,36 36,21 z m 778,-7 c -4,-8 -8,-15 -10,-15 -2,0 -4,7 -4,15 0,8 4,15 10,15 5,0 7,-7 4,-15 z M 70,480 c 0,-5 -7,-10 -15,-10 -8,0 -15,5 -15,10 0,6 7,10 15,10 8,0 15,-4 15,-10 z m 1265,-20 c 0,-13 -6,-25 -12,-27 -9,-3 -13,6 -13,27 0,21 4,30 13,28 6,-3 12,-15 12,-28 z M 150,454 c 0,-9 -7,-14 -17,-12 -25,5 -28,28 -4,28 12,0 21,-6 21,-16 z m 946,-21 c -11,-11 -19,6 -11,24 8,17 8,17 12,0 3,-10 2,-21 -1,-24 z m -866,1 c 0,-8 -6,-14 -12,-14 -21,0 -41,17 -34,28 8,14 46,3 46,-14 z m 268,14 c 12,-12 17,-58 7,-58 -22,0 -65,34 -65,50 0,23 38,28 58,8 z m 762,-28 c 0,-25 -18,-36 -26,-16 -8,21 3,49 16,41 5,-3 10,-15 10,-25 z m -945,10 c 15,0 27,-37 15,-45 -18,-11 -60,15 -60,36 0,15 4,19 16,15 9,-3 21,-6 29,-6 z m 1091,-36 c -3,-8 -10,-14 -16,-14 -14,0 -13,33 3,49 10,10 13,9 15,-4 2,-9 1,-23 -2,-31 z m -824,24 c 9,-7 19,-26 22,-42 7,-27 6,-28 -21,-21 -39,9 -53,23 -53,51 0,27 26,32 52,12 z M 70,405 c 0,-8 -4,-15 -10,-15 -5,0 -10,7 -10,15 0,8 5,15 10,15 6,0 10,-7 10,-15 z m 80,-21 c 0,-16 -26,-19 -35,-4 -3,6 -4,14 0,20 8,13 35,1 35,-16 z m 254,4 c 20,-28 20,-38 2,-38 -19,0 -46,27 -46,46 0,22 27,17 44,-8 z m 776,-3 c 0,-8 -4,-15 -10,-15 -5,0 -10,7 -10,15 0,8 5,15 10,15 6,0 10,-7 10,-15 z M 234,368 c 5,-9 7,-20 3,-25 -11,-10 -41,11 -45,31 -5,23 26,18 42,-6 z m 1106,2 c 0,-11 -7,-20 -15,-20 -8,0 -15,9 -15,20 0,11 7,20 15,20 8,0 15,-9 15,-20 z m -849,0 c 23,-13 26,-50 3,-50 -27,0 -54,20 -54,40 0,22 20,26 51,10 z M 328,348 c 11,-11 17,-48 8,-48 -25,0 -66,26 -66,41 0,22 38,27 58,7 z m 772,-8 c 0,-11 -4,-20 -10,-20 -5,0 -10,9 -10,20 0,11 5,20 10,20 6,0 10,-9 10,-20 z M 74,335 c 6,-17 4,-18 -18,-9 -20,8 -21,24 -2,24 8,0 16,-7 20,-15 z m 803,-7 c -3,-8 -6,-5 -6,6 -1,11 2,17 5,13 3,-3 4,-12 1,-19 z m 536,0 c 7,-25 0,-41 -14,-33 -12,8 -12,55 0,55 5,0 11,-10 14,-22 z m -825,-4 c 23,-16 27,-31 13,-52 -14,-23 -71,12 -71,43 0,29 24,33 58,9 z m 672,1 c 0,-8 -4,-15 -10,-15 -5,0 -10,7 -10,15 0,8 5,15 10,15 6,0 10,-7 10,-15 z M 150,315 c 0,-8 -7,-15 -15,-15 -8,0 -15,7 -15,15 0,8 7,15 15,15 8,0 15,-7 15,-15 z m 261,5 c 5,0 9,-11 9,-25 0,-14 -4,-25 -9,-25 -25,0 -41,15 -41,37 0,19 4,24 16,19 9,-3 20,-6 25,-6 z M 233,289 c 4,-14 0,-19 -13,-19 -22,0 -34,16 -26,35 7,19 33,9 39,-16 z m 947,0 c 0,-11 -4,-17 -10,-14 -5,3 -10,13 -10,21 0,8 5,14 10,14 6,0 10,-9 10,-21 z m 160,-9 c 0,-10 -5,-22 -10,-25 -13,-8 -24,20 -16,41 8,20 26,9 26,-16 z m -849,10 c 21,-12 26,-60 6,-60 -18,0 -43,21 -50,42 -10,28 10,36 44,18 z M 309,279 c 20,-7 31,-18 31,-30 0,-22 -8,-23 -44,-9 -16,6 -26,17 -26,30 0,23 -2,23 39,9 z M 140,250 c 0,-5 -4,-10 -9,-10 -6,0 -13,5 -16,10 -3,6 1,10 9,10 9,0 16,-4 16,-10 z m 458,-12 c 14,-12 17,-58 3,-58 -5,0 -21,4 -35,10 -20,7 -26,16 -26,40 0,28 3,31 23,24 12,-3 28,-11 35,-16 z m 506,7 c -4,-8 -10,-12 -15,-9 -14,8 -10,24 6,24 9,0 12,-6 9,-15 z m 166,-4 c 0,-10 -7,-24 -15,-31 -16,-13 -17,-12 -17,20 0,29 0,30 17,30 8,0 15,-8 15,-19 z M 416,225 c 9,-14 14,-28 10,-32 -11,-11 -56,20 -56,39 0,26 27,22 46,-7 z m 1002,3 c -5,-32 -28,-35 -28,-4 0,17 5,26 16,26 10,0 14,-7 12,-22 z M 221,224 c 12,-14 11,-16 -5,-13 -11,2 -21,10 -24,17 -5,17 13,15 29,-4 z m 963,-37 c -3,-9 -10,-17 -15,-17 -11,0 -12,34 -2,44 11,11 24,-9 17,-27 z m -1034,7 c 0,-2 -7,-4 -15,-4 -8,0 -15,4 -15,10 0,5 7,7 15,4 8,-4 15,-8 15,-10 z m 174,3 c 11,-8 17,-19 15,-25 -5,-14 -50,6 -57,26 -5,16 19,15 42,-1 z m 180,-3 c 18,-17 22,-54 6,-54 -25,0 -58,31 -53,50 6,24 26,26 47,4 z m 844,-11 c -3,-30 -25,-42 -34,-19 -9,22 2,46 21,46 12,0 15,-8 13,-27 z M 430,138 c 0,-21 -1,-22 -35,-6 -24,11 -32,28 -19,41 11,11 54,-16 54,-35 z M 85,160 c 3,-5 -1,-10 -9,-10 -9,0 -16,5 -16,10 0,6 4,10 9,10 6,0 13,-4 16,-10 z m 145,0 c 0,-5 -7,-10 -15,-10 -8,0 -15,5 -15,10 0,6 7,10 15,10 8,0 15,-4 15,-10 z m 360,-5 c 21,-11 30,-23 30,-40 0,-29 -10,-31 -50,-10 -21,11 -30,23 -30,40 0,29 10,31 50,10 z m 510,0 c 0,-8 -4,-15 -10,-15 -5,0 -10,7 -10,15 0,8 5,15 10,15 6,0 10,-7 10,-15 z m -215,-4 c 3,-5 1,-12 -5,-16 -5,-3 -10,1 -10,9 0,18 6,21 15,7 z m 385,-10 c 0,-22 -15,-35 -29,-27 -13,9 -1,46 15,46 8,0 14,-9 14,-19 z m 147,-18 c -3,-3 -11,-2 -17,2 -8,5 -7,11 2,22 12,15 13,14 16,-1 2,-10 1,-20 -1,-23 z m -1259,4 c 3,-16 1,-17 -17,-7 -25,13 -28,33 -4,28 10,-2 19,-11 21,-21 z m 182,-14 c 0,-16 -12,-16 -45,-1 -25,11 -30,19 -19,30 9,10 64,-16 64,-29 z m 161,7 c 16,-9 28,-50 14,-50 -19,0 -55,27 -55,42 0,20 12,23 41,8 z M 708,67 c 4,-41 0,-43 -42,-18 -27,15 -35,37 -27,76 1,3 16,-1 34,-8 27,-11 32,-19 35,-50 z m 312,48 c 0,-8 -2,-15 -4,-15 -2,0 -6,7 -10,15 -3,8 -1,15 4,15 6,0 10,-7 10,-15 z M 238,102 c 3,-9 -2,-13 -14,-10 -9,1 -19,9 -22,16 -3,9 2,13 14,10 9,-1 19,-9 22,-16 z m 948,-2 c 0,-11 -4,-20 -8,-20 -4,0 -8,2 -8,4 0,2 -3,11 -6,20 -4,10 -1,16 8,16 7,0 14,-9 14,-20 z m 164,1 c 0,-10 -7,-21 -15,-25 -15,-5 -22,24 -8,37 12,13 23,7 23,-12 z M 424,78 c 20,-28 6,-44 -23,-29 -24,13 -29,51 -7,51 8,0 22,-10 30,-22 z M 318,69 c 32,-11 48,-34 31,-44 -12,-8 -71,25 -77,43 -5,15 6,15 46,1 z m 792,-14 c 0,-26 -14,-33 -25,-15 -9,14 1,40 15,40 5,0 10,-11 10,-25 z m 160,-4 c 0,-10 -7,-21 -15,-25 -16,-6 -19,3 -9,28 8,22 24,20 24,-3 z" />
    <path
       id="path10-6"
       d="m 580,1200 c -11,-7 1,-10 40,-10 30,0 62,5 70,10 11,7 -1,10 -40,10 -30,0 -62,-5 -70,-10 z" />
    <path
       id="path12-2"
       d="m 700,168 c 0,-9 5,-20 10,-23 13,-8 13,5 0,25 -8,13 -10,13 -10,-2 z" />
    <path
       id="path14-9"
       d="M 0,30 C 0,13 4,0 8,0 13,0 15,13 12,30 6,69 0,69 0,30 Z" />
  </g>
</svg>
