<?xml version="1.0" standalone="no"?>
<!DOCTYPE svg PUBLIC "-//W3C//DTD SVG 20010904//EN"
 "http://www.w3.org/TR/2001/REC-SVG-20010904/DTD/svg10.dtd">
<svg version="1.0" xmlns="http://www.w3.org/2000/svg"
 width="128.000000pt" height="129.000000pt" viewBox="0 0 128.000000 129.000000"
 preserveAspectRatio="xMidYMid meet">
<metadata>
Created by potrace 1.14, written by Peter Selinger 2001-2017
</metadata>
<g transform="translate(0.000000,129.000000) scale(0.100000,-0.100000)"
fill="#000000" stroke="none">
<path d="M1150 1279 c0 -8 -17 -10 -56 -6 -40 4 -54 2 -51 -6 2 -8 22 -11 55
-9 48 4 52 2 52 -18 0 -19 -5 -21 -48 -19 -26 1 -53 -1 -60 -5 -7 -4 -38 -7
-70 -6 -31 1 -210 1 -397 0 -315 0 -402 2 -527 16 -39 4 -48 2 -48 -11 0 -8 6
-15 13 -16 6 0 23 -2 37 -4 85 -11 551 -24 803 -22 163 2 297 0 297 -3 0 -23
-32 -30 -133 -30 -63 0 -106 -4 -102 -9 3 -5 54 -7 115 -5 66 3 110 0 110 -5
0 -17 -18 -22 -91 -27 -39 -2 -75 -6 -79 -9 -5 -3 -20 -1 -33 4 -17 7 -27 7
-29 0 -6 -17 -813 -11 -885 7 -28 7 -33 -22 -5 -30 86 -26 1051 -27 1092 -1 5
3 11 1 15 -4 10 -18 -32 -31 -102 -32 -37 -1 -54 -4 -38 -6 43 -6 53 -20 23
-32 -44 -16 -604 -22 -860 -8 -130 7 -148 6 -148 -8 0 -8 3 -15 8 -15 4 0 68
-5 142 -10 178 -13 484 -15 748 -5 155 6 212 5 212 -4 0 -7 -26 -11 -75 -11
-43 0 -75 -4 -75 -10 0 -5 8 -9 18 -8 9 1 43 0 75 0 43 -2 57 -6 57 -17 0 -16
-5 -17 -127 -21 -45 -1 -86 -5 -92 -8 -15 -10 -630 -10 -773 -1 -103 6 -118 5
-118 -8 0 -21 37 -25 275 -33 218 -6 384 -7 455 0 127 12 370 17 370 8 0 -14
-44 -19 -194 -21 -71 -1 -137 -7 -146 -12 -10 -7 43 -8 163 -5 140 5 178 3
175 -7 -3 -7 -34 -15 -79 -19 -86 -8 -960 -1 -995 8 -19 5 -24 2 -24 -13 0
-18 10 -21 122 -27 67 -4 128 -12 135 -18 9 -7 17 -7 27 1 18 15 795 11 799
-4 1 -6 -44 -12 -113 -16 -138 -8 -130 -6 -130 -20 0 -9 27 -10 98 -5 118 8
187 15 229 21 17 3 34 1 37 -4 11 -17 -22 -32 -71 -32 -26 1 -91 -3 -143 -8
-109 -9 -762 -6 -899 4 -80 7 -91 6 -91 -9 0 -11 9 -16 33 -17 17 0 57 -2 87
-4 311 -18 594 -22 823 -9 123 6 129 6 125 -12 -3 -16 -15 -20 -88 -25 l-85
-5 88 -2 c81 -2 108 -12 71 -26 -19 -7 -787 0 -942 9 -109 7 -112 7 -112 -14
0 -19 6 -21 63 -21 34 -1 84 -3 111 -5 148 -13 682 -19 813 -9 63 5 73 4 73
-10 0 -11 -10 -16 -32 -17 -18 -1 -49 -2 -68 -4 -19 -1 -68 -3 -107 -3 -46 -1
-73 -6 -73 -13 0 -12 175 -6 227 7 37 10 56 -2 43 -25 -8 -17 -21 -20 -73 -21
-34 0 -111 -4 -172 -9 -60 -5 -266 -8 -457 -7 -277 1 -348 -1 -348 -11 0 -8
14 -13 38 -14 20 -1 51 -2 67 -4 56 -4 730 -3 785 2 68 5 141 5 147 -1 3 -3 2
-10 -2 -16 -4 -7 -29 -11 -64 -9 -31 1 -65 -2 -76 -7 -11 -5 -217 -9 -458 -9
-240 0 -437 -3 -437 -7 0 -5 19 -8 43 -9 23 0 51 -2 62 -5 29 -5 557 -4 645 2
41 3 95 8 118 11 39 5 43 3 40 -13 -3 -15 -13 -19 -53 -21 -28 0 -104 -4 -170
-7 -151 -8 -495 -9 -598 -1 -65 4 -79 2 -84 -11 -3 -9 0 -20 8 -25 11 -7 12
-12 2 -29 -9 -13 -13 -56 -12 -122 0 -57 3 -97 6 -90 6 15 80 16 85 0 3 -7 9
-8 19 -3 18 12 209 14 209 3 0 -4 9 -3 19 4 15 9 28 9 57 0 20 -6 42 -8 48 -4
18 11 218 13 211 2 -4 -6 109 -10 309 -10 188 0 316 4 316 9 0 5 -10 11 -22
13 -13 2 -23 10 -23 18 0 8 10 19 23 25 25 11 30 45 7 45 -20 0 -19 17 3 30
12 8 13 13 5 16 -15 7 -17 34 -3 34 15 0 12 38 -2 43 -10 3 -10 7 -1 18 7 9
12 67 12 162 l2 147 -36 0 c-45 0 -45 16 0 24 19 4 35 11 35 16 0 5 -16 6 -35
3 -27 -4 -35 -2 -35 10 0 16 20 27 51 27 12 0 19 7 19 19 0 14 -6 17 -25 13
-18 -3 -25 0 -25 12 0 11 9 16 27 16 14 0 23 3 19 7 -4 4 -13 8 -19 8 -21 0
-19 20 3 23 31 5 27 42 -6 42 -31 0 -28 23 4 28 28 4 29 22 1 22 -12 0 -19 5
-16 13 2 6 12 11 21 11 23 -2 20 33 -4 39 -27 7 -25 27 3 27 16 0 18 3 8 9 -7
5 -43 6 -78 3 -53 -4 -65 -2 -61 9 3 8 21 15 44 17 71 4 104 13 104 26 0 21
-22 25 -74 14 -34 -7 -51 -7 -59 1 -16 16 -3 23 55 26 29 2 59 4 66 4 6 1 12
5 12 11 0 5 -26 7 -65 3 -57 -5 -65 -4 -65 11 0 14 9 17 55 15 64 -3 86 11 68
40 -7 10 -9 22 -6 25 10 10 11 146 1 152 -4 3 -8 0 -8 -5 0 -6 -20 -11 -45
-11 -25 0 -45 5 -45 10 0 6 -4 10 -10 10 -5 0 -10 -5 -10 -11z m105 -39 c0
-18 -72 -27 -89 -10 -16 16 3 25 51 25 27 0 38 -4 38 -15z m-2 -64 c8 -21 -2
-26 -50 -26 -31 0 -43 4 -43 14 0 24 85 34 93 12z m-7 -64 c-3 -5 -22 -8 -43
-7 -51 3 -53 4 -53 14 0 11 81 19 94 9 4 -3 6 -11 2 -16z m-121 -107 c0 -5
-19 -11 -42 -13 -40 -3 -53 5 -36 22 11 10 78 3 78 -9z m105 -94 c0 -14 -12
-19 -58 -27 -34 -5 -42 -4 -42 9 0 9 10 18 23 20 42 8 77 7 77 -2z m-2 -73
c-5 -15 -82 -23 -107 -12 -12 6 -9 9 14 14 51 13 97 11 93 -2z m-13 -39 c10
-15 7 -16 -52 -24 -44 -6 -53 -4 -53 8 0 23 93 37 105 16z m-5 -76 c0 -9 -16
-13 -55 -13 -51 0 -65 7 -48 23 13 13 103 5 103 -10z m-10 -101 c0 -19 -27
-32 -65 -32 -48 0 -60 7 -44 27 12 14 109 19 109 5z m-16 -51 c3 -5 -1 -12
-10 -15 -25 -9 -94 -7 -94 3 0 17 95 28 104 12z m86 -56 c0 -9 -10 -16 -27
-16 l-28 -2 28 -4 c36 -6 33 -34 -6 -47 -34 -12 -57 5 -38 27 6 8 9 21 5 30
-4 11 2 17 23 20 15 2 31 5 36 6 4 0 7 -6 7 -14z m-99 -32 c12 -33 -14 -55
-60 -51 -33 3 -36 6 -36 33 -1 43 3 46 47 43 32 -2 43 -8 49 -25z m84 -82 c7
-12 -3 -18 -37 -22 -33 -5 -38 14 -6 23 34 9 36 9 43 -1z m-90 -11 c8 -13 -37
-30 -76 -30 -42 0 -33 23 12 31 53 10 57 10 64 -1z m85 -35 c0 -17 -46 -39
-61 -29 -19 11 -8 33 19 37 15 2 30 5 35 6 4 0 7 -6 7 -14z m-102 -23 c-3 -18
-57 -28 -86 -17 -16 6 -16 7 0 19 9 6 33 12 53 13 28 1 35 -2 33 -15z m-109
-8 c11 -10 -14 -18 -65 -22 -45 -4 -56 -2 -52 9 6 17 45 28 83 21 17 -3 32 -6
34 -8z m201 -43 c0 -9 -62 -22 -70 -14 -8 7 24 23 48 23 12 0 22 -4 22 -9z
m-96 -9 c3 -5 -15 -12 -41 -16 -48 -6 -59 -4 -50 11 8 12 84 16 91 5z m-124
-11 c0 -13 -26 -21 -66 -21 -41 0 -46 17 -6 23 51 8 72 7 72 -2z m-110 -10 c0
-10 -77 -24 -91 -16 -5 4 -7 11 -4 16 8 11 95 12 95 0z m-682 -25 c3 -12 -15
-15 -97 -15 -93 0 -101 2 -101 20 0 17 6 18 98 14 74 -3 98 -8 100 -19z m451
3 c-19 -12 -86 -11 -94 0 -3 6 16 11 42 13 55 3 71 -1 52 -13z m121 11 c0 -5
-23 -10 -51 -10 -31 0 -48 4 -44 10 3 6 26 10 51 10 24 0 44 -4 44 -10z m440
-4 c0 -8 -15 -17 -36 -21 -40 -7 -49 -3 -41 20 8 20 77 21 77 1z m-670 -6 c0
-5 -28 -10 -62 -11 -35 -1 -109 -3 -165 -5 -93 -4 -115 1 -97 19 11 10 324 8
324 -3z m570 -5 c0 -8 -6 -15 -12 -15 -7 0 -30 -3 -50 -6 -30 -5 -38 -3 -38 9
0 19 15 25 63 26 27 1 37 -3 37 -14z m-125 -6 c12 -18 -1 -21 -107 -26 -72 -3
-100 -1 -93 6 6 6 39 13 74 15 35 3 66 8 69 11 9 9 51 5 57 -6z m-327 -34 c-3
-3 -28 -8 -57 -12 -42 -5 -51 -3 -51 10 0 12 12 17 48 19 44 3 72 -5 60 -17z
m107 10 c0 -11 -59 -19 -82 -11 -8 3 -11 11 -8 16 8 14 90 9 90 -5z m-230 -10
c0 -6 -45 -11 -110 -13 -72 -2 -106 1 -100 7 18 18 210 23 210 6z m-455 -5 c0
-5 -18 -10 -40 -10 -22 0 -40 5 -40 10 0 6 18 10 40 10 22 0 40 -4 40 -10z
m230 -2 c0 -9 -16 -11 -125 -10 -93 1 -96 1 -71 11 25 10 196 9 196 -1z m890
-13 c0 -11 -11 -15 -40 -15 -63 0 -48 25 18 29 13 1 22 -5 22 -14z m-110 -9
c0 -12 -40 -26 -76 -26 -17 0 -18 27 -1 33 27 11 77 7 77 -7z m-110 -10 c0 -8
-16 -15 -42 -19 -51 -7 -68 1 -43 20 25 18 85 17 85 -1z m-110 -10 c0 -9 -15
-15 -42 -18 -50 -5 -53 -4 -45 17 8 20 87 21 87 1z m-229 -19 c-5 -5 -79 -12
-165 -15 -136 -4 -156 -2 -156 11 0 13 22 15 151 16 83 0 153 2 156 5 3 3 10
3 15 0 6 -4 6 -10 -1 -17z m117 11 c-5 -13 -62 -23 -85 -14 -27 11 -2 26 43
26 31 0 44 -4 42 -12z m-678 -13 c0 -11 -12 -15 -45 -15 -33 0 -45 4 -45 15 0
11 12 15 45 15 33 0 45 -4 45 -15z m108 -2 c2 -9 -11 -13 -47 -13 -48 0 -61 7
-44 24 12 11 86 2 91 -11z m112 2 c0 -11 -12 -15 -50 -15 -46 0 -60 7 -43 23
3 4 26 7 50 7 32 0 43 -4 43 -15z m890 5 c0 -9 -69 -24 -77 -16 -3 2 -3 8 0
13 7 11 77 14 77 3z m-110 -9 c0 -11 -25 -21 -56 -21 -33 0 -30 18 4 23 48 7
52 7 52 -2z m-105 -10 c7 -13 -60 -25 -82 -16 -16 7 -15 9 7 15 36 11 68 11
75 1z m-337 -23 c-5 -15 -98 -24 -98 -9 0 9 28 16 78 20 15 0 22 -4 20 -11z
m107 2 c-3 -5 -26 -10 -51 -10 -28 0 -43 4 -39 10 3 6 26 10 51 10 28 0 43 -4
39 -10z m105 0 c-20 -13 -70 -13 -70 0 0 6 19 10 43 10 31 0 38 -3 27 -10z
m-681 -9 c7 -5 9 -10 5 -12 -17 -8 -184 3 -184 11 0 12 161 12 179 1z m347 -3
c4 -5 -1 -8 -12 -9 -10 0 -58 -2 -106 -5 -54 -3 -88 -1 -88 5 0 5 5 11 10 13
20 6 189 3 196 -4z m-226 -8 c0 -13 -70 -13 -90 0 -11 7 0 10 38 10 28 0 52
-4 52 -10z m890 -15 c0 -10 -10 -15 -32 -15 -25 0 -29 -3 -18 -10 8 -5 11 -10
5 -10 -5 1 -18 7 -28 14 -18 14 -18 15 0 25 28 16 73 14 73 -4z m-110 -10 c0
-11 -11 -15 -40 -15 -63 0 -48 25 18 29 13 1 22 -5 22 -14z m-110 -16 c0 -12
-77 -12 -85 0 -6 11 30 18 63 13 12 -3 22 -8 22 -13z m-270 1 c12 -8 9 -10
-13 -10 -16 0 -26 4 -22 10 8 12 16 12 35 0z m160 0 c0 -5 -21 -10 -47 -9 -36
0 -43 3 -28 9 28 12 75 12 75 0z"/>
<path d="M38 1273 c7 -3 16 -2 19 1 4 3 -2 6 -13 5 -11 0 -14 -3 -6 -6z"/>
<path d="M108 1273 c12 -2 30 -2 40 0 9 3 -1 5 -23 4 -22 0 -30 -2 -17 -4z"/>
<path d="M925 1270 c3 -5 8 -10 11 -10 2 0 4 5 4 10 0 6 -5 10 -11 10 -5 0 -7
-4 -4 -10z"/>
<path d="M990 1269 c0 -5 9 -9 20 -9 11 0 20 2 20 4 0 2 -9 6 -20 9 -11 3 -20
1 -20 -4z"/>
<path d="M25 1139 c35 -11 194 -8 201 3 3 4 -48 8 -113 7 -87 0 -110 -3 -88
-10z"/>
<path d="M0 1030 c0 -6 7 -10 15 -10 8 0 15 2 15 4 0 2 -7 6 -15 10 -8 3 -15
1 -15 -4z"/>
<path d="M0 911 c0 -7 34 -11 97 -11 53 0 94 2 92 4 -2 2 -46 7 -96 11 -65 5
-93 3 -93 -4z"/>
<path d="M575 689 c4 -5 43 -9 87 -9 45 0 79 2 77 5 -10 9 -169 13 -164 4z"/>
<path d="M848 573 c6 -2 18 -2 25 0 6 3 1 5 -13 5 -14 0 -19 -2 -12 -5z"/>
<path d="M0 460 c0 -5 5 -10 10 -10 6 0 10 5 10 10 0 6 -4 10 -10 10 -5 0 -10
-4 -10 -10z"/>
<path d="M35 460 c-10 -17 104 -21 400 -16 308 6 421 15 204 17 -63 0 -223 2
-357 3 -133 2 -245 0 -247 -4z"/>
</g>
</svg>
