<?xml version="1.0" standalone="no"?>
<!DOCTYPE svg PUBLIC "-//W3C//DTD SVG 20010904//EN"
 "http://www.w3.org/TR/2001/REC-SVG-20010904/DTD/svg10.dtd">
<svg version="1.0" xmlns="http://www.w3.org/2000/svg"
 width="128.000000pt" height="129.000000pt" viewBox="0 0 128.000000 129.000000"
 preserveAspectRatio="xMidYMid meet">
<metadata>
Created by potrace 1.14, written by Peter Selinger 2001-2017
</metadata>
<g transform="translate(0.000000,129.000000) scale(0.100000,-0.100000)"
fill="#000000" stroke="none">
<path d="M3 914 c10 -10 490 -15 522 -5 20 6 -62 10 -249 10 -154 1 -277 -2
-273 -5z"/>
<path d="M669 908 c78 -6 117 -6 124 1 8 8 -26 11 -113 10 l-125 -2 114 -9z"/>
<path d="M840 910 c0 -6 58 -10 163 -11 89 0 182 0 207 -1 63 0 70 1 70 11 0
6 -91 10 -220 11 -145 0 -220 -3 -220 -10z"/>
<path d="M40 871 c20 -11 1240 -23 1240 -12 0 12 -211 17 -775 19 -279 1 -474
-2 -465 -7z"/>
<path d="M50 819 c0 -11 -38 -9 258 -16 174 -4 252 -2 252 5 0 7 -41 11 -112
12 -62 1 -177 3 -255 4 -79 2 -143 -1 -143 -5z"/>
<path d="M570 810 c0 -6 32 -11 78 -12 42 0 88 -2 102 -3 59 -6 523 -6 528 -1
3 3 3 8 1 10 -11 9 -709 16 -709 6z"/>
<path d="M11 743 c-9 -10 9 -13 91 -13 91 0 1049 -12 1137 -14 39 -1 54 21 19
29 -13 3 -296 6 -629 8 -475 1 -609 -1 -618 -10z"/>
<path d="M4 696 c-3 -8 -3 -19 0 -24 3 -5 70 -10 148 -11 79 0 365 -4 636 -7
446 -5 492 -4 492 10 0 9 -3 16 -7 17 -27 3 -275 8 -728 14 -285 3 -523 9
-527 11 -5 3 -11 -2 -14 -10z"/>
<path d="M0 617 l0 -25 348 -1 c191 -1 356 -4 367 -6 11 -2 62 -4 113 -4 50
-1 92 -5 92 -9 0 -8 -422 -7 -782 1 l-138 3 0 -23 c0 -22 3 -23 83 -24 45 -1
105 -2 132 -4 28 -1 266 -6 530 -10 297 -5 484 -11 490 -17 11 -11 -882 -4
-1113 9 l-122 6 0 -26 c0 -26 2 -27 58 -27 152 0 526 -11 531 -15 2 -3 -129
-5 -292 -5 l-297 0 0 -35 c0 -31 3 -35 28 -35 15 0 85 -3 157 -5 72 -2 258 -7
415 -10 157 -3 374 -7 483 -9 l197 -4 0 43 c0 25 -5 45 -13 48 -9 4 -9 6 1 6
20 1 15 51 -5 51 -17 1 -17 1 0 14 24 18 21 43 -5 49 -13 3 -84 6 -158 7 -74
0 -139 6 -145 11 -6 6 50 8 158 5 l167 -4 0 23 c0 21 -3 22 -162 28 -90 3
-273 6 -408 7 -135 0 -350 3 -477 6 l-233 7 0 -26z m928 -184 c-10 -2 -28 -2
-40 0 -13 2 -5 4 17 4 22 1 32 -1 23 -4z m122 -2 c0 -5 -9 -7 -20 -4 -11 3
-20 7 -20 9 0 2 9 4 20 4 11 0 20 -4 20 -9z m150 -1 c0 -5 -13 -10 -29 -10
-17 0 -33 5 -36 10 -4 6 8 10 29 10 20 0 36 -4 36 -10z m-675 -30 c3 -6 -4
-10 -17 -10 -18 0 -20 2 -8 10 19 12 18 12 25 0z m98 -7 c-7 -2 -19 -2 -25 0
-7 3 -2 5 12 5 14 0 19 -2 13 -5z m170 0 c-13 -2 -33 -2 -45 0 -13 2 -3 4 22
4 25 0 35 -2 23 -4z m132 -2 c-18 -7 -55 -4 -55 5 0 2 17 4 38 3 28 0 32 -2
17 -8z m284 -7 c2 -2 -39 -4 -93 -4 -54 0 -95 4 -92 9 5 8 175 3 185 -5z"/>
</g>
</svg>
