<?xml version="1.0" standalone="no"?>
<!DOCTYPE svg PUBLIC "-//W3C//DTD SVG 20010904//EN"
 "http://www.w3.org/TR/2001/REC-SVG-20010904/DTD/svg10.dtd">
<svg version="1.0" xmlns="http://www.w3.org/2000/svg"
 width="129.000000pt" height="136.000000pt" viewBox="0 0 129.000000 136.000000"
 preserveAspectRatio="xMidYMid meet">
<metadata>
Created by potrace 1.14, written by Peter Selinger 2001-2017
</metadata>
<g transform="translate(0.000000,136.000000) scale(0.100000,-0.100000)"
fill="#000000" stroke="none">
<path d="M582 1348 c-7 -7 -12 -17 -12 -24 0 -15 -40 -65 -48 -60 -4 2 -8 -7
-8 -20 l-2 -24 20 25 c28 36 40 31 33 -12 -4 -26 -3 -33 3 -23 5 8 13 38 17
65 4 28 11 58 16 68 11 19 -1 23 -19 5z"/>
<path d="M632 1327 c-6 -18 -12 -49 -11 -68 1 -28 3 -24 15 25 17 69 14 94 -4
43z"/>
<path d="M711 1344 c0 -11 3 -14 6 -6 3 7 2 16 -1 19 -3 4 -6 -2 -5 -13z"/>
<path d="M1126 1228 c-6 -136 -16 -414 -19 -571 -1 -48 1 -87 6 -87 7 0 8 9
12 185 2 55 7 179 11 275 10 218 11 330 3 330 -3 0 -9 -60 -13 -132z"/>
<path d="M1180 1292 c0 -37 -4 -126 -10 -198 -17 -230 -20 -343 -10 -349 6 -4
10 23 10 70 0 42 4 117 10 168 11 101 18 180 19 215 1 12 7 22 16 22 22 0 18
17 -6 23 -24 7 -20 33 5 29 13 -2 16 6 16 43 0 25 -4 45 -8 45 -5 0 -7 -13 -4
-29 2 -16 -1 -32 -7 -35 -7 -5 -11 5 -11 28 0 20 -4 36 -10 36 -6 0 -10 -29
-10 -68z"/>
<path d="M1249 1253 c-2 -187 -8 -344 -19 -485 -15 -183 -8 -215 11 -53 15
125 27 645 15 645 -4 0 -6 -48 -7 -107z"/>
<path d="M1281 1344 c0 -11 3 -14 6 -6 3 7 2 16 -1 19 -3 4 -6 -2 -5 -13z"/>
<path d="M546 1335 c-9 -26 -7 -32 5 -12 6 10 9 21 6 23 -2 3 -7 -2 -11 -11z"/>
<path d="M295 1310 c-3 -5 -1 -10 4 -10 6 0 11 5 11 10 0 6 -2 10 -4 10 -3 0
-8 -4 -11 -10z"/>
<path d="M1081 1274 c0 -11 3 -14 6 -6 3 7 2 16 -1 19 -3 4 -6 -2 -5 -13z"/>
<path d="M770 1244 c0 -8 5 -12 10 -9 6 3 10 10 10 16 0 5 -4 9 -10 9 -5 0
-10 -7 -10 -16z"/>
<path d="M1022 1230 c0 -19 2 -27 5 -17 2 9 2 25 0 35 -3 9 -5 1 -5 -18z"/>
<path d="M1076 1208 c-16 -134 -17 -153 -6 -142 6 6 13 50 16 97 6 90 -1 120
-10 45z"/>
<path d="M473 1228 c-20 -26 -26 -41 -15 -34 12 7 36 46 29 46 -3 0 -9 -6 -14
-12z"/>
<path d="M771 1204 c0 -11 3 -14 6 -6 3 7 2 16 -1 19 -3 4 -6 -2 -5 -13z"/>
<path d="M210 1190 c0 -5 -15 -31 -33 -57 -46 -65 -110 -183 -103 -190 5 -6
33 37 67 102 22 44 50 93 75 130 10 15 12 25 5 25 -6 0 -11 -4 -11 -10z"/>
<path d="M465 1164 c-9 -14 -14 -28 -11 -32 3 -3 6 -1 6 5 0 6 9 13 20 16 11
3 20 12 20 21 0 24 -15 19 -35 -10z"/>
<path d="M422 1164 c-7 -8 -12 -20 -10 -26 2 -6 12 1 21 16 19 28 11 35 -11
10z"/>
<path d="M922 1150 c0 -14 2 -19 5 -12 2 6 2 18 0 25 -3 6 -5 1 -5 -13z"/>
<path d="M972 1140 c0 -14 2 -19 5 -12 2 6 2 18 0 25 -3 6 -5 1 -5 -13z"/>
<path d="M1221 1144 c0 -11 3 -14 6 -6 3 7 2 16 -1 19 -3 4 -6 -2 -5 -13z"/>
<path d="M296 1123 c-6 -14 -5 -15 5 -6 7 7 10 15 7 18 -3 3 -9 -2 -12 -12z"/>
<path d="M210 1080 c-26 -37 -80 -136 -80 -147 0 -9 39 39 40 49 0 3 16 34 34
67 38 66 40 79 6 31z"/>
<path d="M380 1095 c-7 -9 -11 -17 -9 -20 3 -2 10 5 17 15 14 24 10 26 -8 5z"/>
<path d="M414 1096 c-18 -20 -36 -57 -30 -63 8 -8 26 7 26 21 0 8 7 19 15 26
16 13 20 30 8 30 -5 -1 -13 -6 -19 -14z"/>
<path d="M682 1085 c0 -16 2 -22 5 -12 2 9 2 23 0 30 -3 6 -5 -1 -5 -18z"/>
<path d="M1061 1024 c0 -11 3 -14 6 -6 3 7 2 16 -1 19 -3 4 -6 -2 -5 -13z"/>
<path d="M335 1020 c-3 -4 -2 -15 1 -24 5 -13 9 -14 20 -5 8 6 14 15 14 19 0
12 -29 20 -35 10z"/>
<path d="M1023 990 c0 -25 2 -35 4 -22 2 12 2 32 0 45 -2 12 -4 2 -4 -23z"/>
<path d="M682 980 c0 -19 2 -27 5 -17 2 9 2 25 0 35 -3 9 -5 1 -5 -18z"/>
<path d="M1211 1000 c-1 -3 -4 -23 -7 -45 -4 -32 -2 -36 6 -22 6 10 9 30 7 45
-2 15 -5 25 -6 22z"/>
<path d="M1060 840 c0 -79 3 -140 6 -137 8 8 8 266 0 274 -3 4 -6 -58 -6 -137z"/>
<path d="M316 945 c-3 -8 -1 -15 4 -15 6 0 10 7 10 15 0 8 -2 15 -4 15 -2 0
-6 -7 -10 -15z"/>
<path d="M1282 910 c0 -14 2 -19 5 -12 2 6 2 18 0 25 -3 6 -5 1 -5 -13z"/>
<path d="M40 900 c-6 -12 -9 -24 -7 -27 3 -2 11 5 17 17 6 12 9 24 7 27 -3 2
-11 -5 -17 -17z"/>
<path d="M102 895 c-13 -29 -5 -33 14 -7 15 20 18 32 6 32 -5 0 -14 -11 -20
-25z"/>
<path d="M892 900 c0 -14 2 -19 5 -12 2 6 2 18 0 25 -3 6 -5 1 -5 -13z"/>
<path d="M680 800 c0 -57 2 -101 5 -99 7 7 8 189 1 196 -3 4 -6 -40 -6 -97z"/>
<path d="M1201 865 c1 -40 1 -40 11 -12 7 21 7 32 -1 40 -8 8 -11 0 -10 -28z"/>
<path d="M1271 818 c1 -55 5 -50 11 15 2 20 0 37 -4 37 -4 0 -7 -24 -7 -52z"/>
<path d="M893 805 c0 -27 2 -38 4 -22 2 15 2 37 0 50 -2 12 -4 0 -4 -28z"/>
<path d="M51 809 c-23 -37 -27 -54 -11 -44 6 3 10 11 10 17 0 6 7 20 17 30 9
10 13 21 10 24 -3 4 -15 -9 -26 -27z"/>
<path d="M210 821 c0 -5 7 -11 15 -15 9 -3 15 0 15 9 0 8 -7 15 -15 15 -8 0
-15 -4 -15 -9z"/>
<path d="M273 770 c0 -25 2 -35 4 -22 2 12 2 32 0 45 -2 12 -4 2 -4 -23z"/>
<path d="M1192 750 c0 -19 2 -27 5 -17 2 9 2 25 0 35 -3 9 -5 1 -5 -18z"/>
<path d="M207 746 c-5 -15 -6 -31 -3 -34 8 -8 18 25 14 45 -3 13 -6 10 -11
-11z"/>
<path d="M553 725 c0 -27 2 -38 4 -22 2 15 2 37 0 50 -2 12 -4 0 -4 -28z"/>
<path d="M170 749 c0 -5 5 -7 10 -4 6 3 10 8 10 11 0 2 -4 4 -10 4 -5 0 -10
-5 -10 -11z"/>
<path d="M7 736 c-4 -10 -7 -25 -6 -34 0 -11 4 -9 10 7 5 13 8 29 6 35 -2 5
-6 2 -10 -8z"/>
<path d="M1150 672 c0 -60 0 -61 19 -45 19 15 19 17 3 29 -16 13 -16 13 1 14
23 0 22 16 -3 42 l-20 22 0 -62z"/>
<path d="M1262 710 c0 -14 2 -19 5 -12 2 6 2 18 0 25 -3 6 -5 1 -5 -13z"/>
<path d="M141 692 c-17 -31 -13 -40 5 -14 9 13 14 26 11 29 -3 2 -10 -4 -16
-15z"/>
<path d="M331 684 c0 -11 3 -14 6 -6 3 7 2 16 -1 19 -3 4 -6 -2 -5 -13z"/>
<path d="M167 666 c-4 -10 -5 -21 -2 -24 9 -9 17 6 13 25 -3 17 -4 17 -11 -1z"/>
<path d="M1060 646 c0 -18 -3 -54 -6 -80 -4 -28 -3 -46 3 -46 6 0 11 34 12 80
1 44 -1 80 -4 80 -3 0 -5 -15 -5 -34z"/>
<path d="M126 583 c-6 -14 -5 -15 5 -6 7 7 10 15 7 18 -3 3 -9 -2 -12 -12z"/>
<path d="M1148 580 c-4 -14 -10 -58 -14 -98 -5 -56 -9 -70 -19 -62 -16 13 -28
-23 -12 -39 7 -7 7 -14 -1 -23 -5 -7 -10 -16 -10 -21 1 -37 -16 -224 -24 -270
-6 -32 -8 -60 -4 -64 11 -11 17 4 21 49 1 23 6 81 11 128 4 47 8 100 8 118 0
17 4 32 9 32 6 0 8 -58 5 -147 -3 -82 -3 -128 -1 -103 2 24 8 49 13 55 5 6 9
65 9 131 -1 65 4 146 11 179 12 64 11 182 -2 135z"/>
<path d="M1246 584 c-4 -9 -4 -19 -1 -22 2 -3 7 3 11 12 4 9 4 19 1 22 -2 3
-7 -3 -11 -12z"/>
<path d="M71 555 c-11 -19 -17 -35 -13 -35 5 0 16 16 25 35 9 19 15 35 13 35
-2 0 -13 -16 -25 -35z"/>
<path d="M1100 540 c0 -11 5 -20 10 -20 6 0 10 9 10 20 0 11 -4 20 -10 20 -5
0 -10 -9 -10 -20z"/>
<path d="M94 512 c-16 -24 -11 -82 7 -82 6 0 5 -9 -2 -22 -11 -21 -12 -21 -23
7 -9 21 -14 26 -20 16 -10 -15 24 -53 51 -58 71 -13 103 -14 103 -4 0 6 -7 8
-15 5 -9 -4 -27 5 -43 21 -18 19 -23 29 -14 32 6 3 12 9 12 15 0 6 6 16 14 22
17 14 30 66 16 67 -52 7 -72 2 -86 -19z"/>
<path d="M1237 533 c-4 -3 -6 -25 -6 -47 l2 -41 7 45 c8 48 7 54 -3 43z"/>
<path d="M1199 508 c0 -13 -5 -61 -10 -108 -10 -89 -13 -116 -25 -240 -4 -41
-12 -78 -17 -82 -15 -9 -15 -78 -1 -78 7 0 15 10 17 22 l4 23 2 -22 c1 -18 7
-23 29 -22 18 1 21 3 9 6 -14 4 -17 11 -13 31 3 15 8 54 11 87 4 32 9 68 11
80 6 30 14 204 8 178 -6 -28 -24 -30 -24 -4 0 21 23 45 33 34 4 -3 7 1 7 10 0
9 -6 16 -12 15 -9 -2 -12 10 -10 45 3 29 0 47 -7 47 -6 0 -11 -10 -12 -22z
m17 -184 c-3 -9 -9 -48 -12 -87 -6 -82 -14 -101 -14 -35 0 68 11 138 22 138 6
0 7 -7 4 -16z"/>
<path d="M37 482 c-2 -9 -8 -25 -12 -34 -4 -11 -3 -18 4 -18 6 0 11 8 11 18 0
10 5 23 11 29 7 7 7 13 1 17 -5 3 -12 -2 -15 -12z"/>
<path d="M1100 470 c0 -16 5 -30 10 -30 6 0 10 14 10 30 0 17 -4 30 -10 30 -5
0 -10 -13 -10 -30z"/>
<path d="M1048 478 c-2 -7 -1 -26 3 -43 6 -28 7 -26 8 13 1 42 -3 53 -11 30z"/>
<path d="M1281 445 c0 -11 -4 -31 -7 -45 -5 -19 -4 -22 5 -14 7 6 11 26 8 45
-2 19 -5 25 -6 14z"/>
<path d="M275 410 c-3 -5 -2 -10 4 -10 5 0 13 5 16 10 3 6 2 10 -4 10 -5 0
-13 -4 -16 -10z"/>
<path d="M1040 385 c0 -8 2 -15 4 -15 2 0 6 7 10 15 3 8 1 15 -4 15 -6 0 -10
-7 -10 -15z"/>
<path d="M255 380 c3 -5 10 -10 16 -10 5 0 9 5 9 10 0 6 -7 10 -16 10 -8 0
-12 -4 -9 -10z"/>
<path d="M991 374 c0 -11 3 -14 6 -6 3 7 2 16 -1 19 -3 4 -6 -2 -5 -13z"/>
<path d="M16 343 c-6 -14 -5 -15 5 -6 7 7 10 15 7 18 -3 3 -9 -2 -12 -12z"/>
<path d="M682 340 c0 -14 2 -19 5 -12 2 6 2 18 0 25 -3 6 -5 1 -5 -13z"/>
<path d="M1258 313 c-5 -36 -3 -52 6 -42 9 11 16 79 8 79 -6 0 -12 -17 -14
-37z"/>
<path d="M204 331 c3 -5 15 -7 26 -4 28 7 25 13 -6 13 -14 0 -23 -4 -20 -9z"/>
<path d="M1037 323 c-3 -5 -7 -53 -10 -108 -5 -84 -4 -91 4 -45 12 69 20 160
15 160 -3 0 -7 -3 -9 -7z"/>
<path d="M880 270 c0 -19 3 -21 12 -12 9 9 9 15 0 24 -9 9 -12 7 -12 -12z"/>
<path d="M942 245 c0 -16 2 -22 5 -12 2 9 2 23 0 30 -3 6 -5 -1 -5 -18z"/>
<path d="M638 235 c-3 -14 -1 -25 3 -25 5 0 9 11 9 25 0 14 -2 25 -4 25 -2 0
-6 -11 -8 -25z"/>
<path d="M1236 173 c-4 -32 -9 -75 -12 -96 -4 -28 -3 -37 8 -35 8 2 12 -6 11
-22 -3 -24 -2 -24 12 -6 14 18 36 103 34 134 0 9 -7 -2 -16 -26 -8 -23 -19
-40 -24 -36 -8 5 -7 34 6 117 3 15 1 27 -4 27 -5 0 -12 -26 -15 -57z"/>
<path d="M983 185 c0 -22 2 -30 4 -17 2 12 2 30 0 40 -3 9 -5 -1 -4 -23z"/>
<path d="M541 174 c0 -11 3 -14 6 -6 3 7 2 16 -1 19 -3 4 -6 -2 -5 -13z"/>
<path d="M981 124 c0 -11 3 -14 6 -6 3 7 2 16 -1 19 -3 4 -6 -2 -5 -13z"/>
<path d="M573 63 c-11 -37 -8 -63 8 -63 5 0 9 23 9 50 0 28 -1 50 -3 50 -1 0
-7 -17 -14 -37z"/>
<path d="M250 34 c0 -8 5 -12 10 -9 6 3 10 10 10 16 0 5 -4 9 -10 9 -5 0 -10
-7 -10 -16z"/>
<path d="M1100 10 c0 -5 5 -10 10 -10 6 0 10 5 10 10 0 6 -4 10 -10 10 -5 0
-10 -4 -10 -10z"/>
</g>
</svg>
