<?xml version="1.0" standalone="no"?>
<!DOCTYPE svg PUBLIC "-//W3C//DTD SVG 20010904//EN"
 "http://www.w3.org/TR/2001/REC-SVG-20010904/DTD/svg10.dtd">
<svg version="1.0" xmlns="http://www.w3.org/2000/svg"
 width="128.000000pt" height="127.000000pt" viewBox="0 0 128.000000 127.000000"
 preserveAspectRatio="xMidYMid meet">
<metadata>
Created by potrace 1.14, written by Peter Selinger 2001-2017
</metadata>
<g transform="translate(0.000000,127.000000) scale(0.100000,-0.100000)"
fill="#000000" stroke="none">
<path d="M0 1254 c0 -14 3 -14 15 -4 19 16 19 20 0 20 -8 0 -15 -7 -15 -16z"/>
<path d="M35 1251 c-3 -11 -12 -22 -20 -25 -10 -3 -15 -19 -15 -42 l0 -37 45
57 c25 32 45 60 45 62 0 2 -11 4 -24 4 -15 0 -27 -7 -31 -19z"/>
<path d="M67 1184 c-38 -48 -67 -95 -67 -107 l1 -22 17 22 c75 94 142 182 142
187 0 23 -35 -7 -93 -80z"/>
<path d="M197 1221 c-20 -27 -45 -52 -57 -56 -11 -4 -19 -12 -18 -20 4 -17
-79 -115 -98 -115 -11 0 -13 -6 -9 -19 3 -11 1 -22 -5 -26 -5 -3 -10 -14 -10
-23 1 -15 2 -15 15 2 40 53 67 76 89 76 13 0 26 -5 28 -11 2 -7 19 -1 42 15
38 25 76 34 76 18 0 -5 -13 -21 -30 -37 -16 -16 -30 -34 -30 -41 0 -15 -76
-41 -87 -31 -3 4 2 16 12 27 10 11 16 23 13 26 -6 5 -16 -4 -60 -53 -14 -17
-32 -33 -40 -37 -10 -5 -10 -7 0 -12 9 -4 7 -12 -8 -31 -26 -33 -27 -85 -3
-82 33 3 33 -1 8 -41 -33 -52 -32 -61 5 -53 39 7 39 -9 0 -61 -33 -43 -44 -91
-14 -62 8 9 22 16 30 16 8 0 14 5 14 10 0 6 -4 10 -10 10 -36 0 48 105 93 114
15 4 27 3 27 -2 0 -19 -63 -101 -81 -107 -12 -4 -18 -13 -15 -20 5 -15 -48
-95 -64 -95 -6 0 -10 -17 -9 -37 0 -21 3 -31 6 -23 3 8 15 25 26 37 21 23 39
53 56 89 18 41 91 74 91 42 0 -23 -68 -88 -92 -89 l-23 0 23 -10 c23 -9 23 -9
5 -41 -22 -39 -42 -57 -65 -58 -22 0 -34 -20 -17 -30 10 -7 10 -11 0 -24 -7
-8 -11 -23 -9 -33 3 -13 11 -6 31 29 18 29 37 48 54 52 14 4 27 5 29 3 2 -2
-8 -26 -23 -54 -25 -50 -59 -73 -83 -58 -6 4 -10 -3 -10 -13 0 -15 5 -19 20
-15 25 7 25 -2 0 -34 -11 -14 -20 -39 -20 -54 0 -24 4 -28 23 -26 17 1 21 -2
19 -18 -2 -11 -7 -22 -12 -25 -14 -9 -30 -49 -30 -72 1 -20 2 -21 11 -5 5 9
21 17 34 17 28 0 29 -3 15 -31 -7 -13 -7 -19 -1 -19 6 0 17 13 26 30 17 34 50
54 71 46 13 -5 12 -11 -6 -37 -12 -16 -19 -33 -16 -37 8 -7 52 44 61 69 5 15
45 39 65 39 17 0 11 -28 -16 -67 -22 -33 -23 -38 -9 -41 9 -2 24 -1 33 3 13 5
14 8 3 15 -11 6 -10 14 8 38 11 17 21 35 21 41 0 16 45 35 64 28 14 -5 12 -12
-8 -44 -14 -21 -35 -48 -47 -61 -18 -18 -19 -22 -6 -22 15 0 80 87 138 186 14
24 38 57 54 74 16 16 26 30 22 30 -10 0 61 102 83 120 10 8 22 29 25 45 l6 30
-31 -37 c-18 -21 -39 -38 -47 -38 -9 0 -12 -6 -8 -19 3 -10 -1 -24 -10 -31 -8
-7 -15 -18 -15 -24 0 -7 -12 -23 -26 -37 -14 -13 -32 -38 -40 -55 -32 -66
-114 -132 -114 -90 0 8 4 18 10 21 5 3 17 21 26 40 10 22 23 35 35 35 21 0 26
16 7 22 -17 6 63 108 90 115 15 3 21 11 18 20 -8 19 32 78 66 98 15 8 25 21
22 28 -8 21 74 107 102 107 13 0 24 -4 24 -8 0 -4 -23 -32 -51 -61 -31 -33
-47 -57 -41 -63 5 -5 14 -3 22 7 12 15 60 22 60 8 0 -3 -7 -15 -17 -25 -9 -10
-14 -20 -12 -23 6 -5 73 69 162 180 40 50 86 104 102 121 17 17 37 40 45 51 8
11 39 48 69 82 29 33 59 68 66 78 7 9 23 17 36 19 13 1 26 3 29 3 3 1 -2 6
-10 11 -12 9 -7 18 33 54 27 26 47 53 47 65 0 18 -3 20 -18 12 -11 -6 -27 -9
-38 -9 -10 1 -29 -2 -41 -6 -12 -4 -24 -3 -27 3 -7 10 64 77 100 93 28 13 34
44 7 33 -36 -14 -96 -19 -89 -7 5 8 0 12 -13 12 -12 0 -21 -4 -21 -9 0 -5 -11
-12 -24 -15 -13 -3 -32 -9 -42 -13 -14 -5 -16 -2 -12 15 8 28 -6 28 -45 -2
-33 -24 -103 -41 -112 -26 -3 4 7 18 22 29 21 15 24 20 11 21 -10 0 -33 -14
-52 -31 -35 -31 -91 -53 -108 -43 -5 3 8 21 29 40 23 20 32 33 23 34 -8 0 -35
-20 -59 -45 -32 -33 -51 -45 -72 -45 -30 0 -38 13 -16 27 6 4 23 21 37 36 l25
28 -115 -2 c-75 -2 -122 -7 -135 -16 -26 -18 -49 -17 -41 2 8 23 -12 18 -46
-10 -18 -15 -42 -25 -61 -25 l-30 0 23 25 c41 44 -5 30 -51 -15 -23 -22 -50
-40 -60 -40 -26 0 -24 12 6 40 28 26 32 40 11 40 -8 0 -30 -22 -49 -49z m493
28 c0 -15 -48 -71 -74 -86 -26 -15 -56 -17 -56 -3 0 5 21 30 48 55 45 43 82
58 82 34z m-116 -37 c-9 -15 -28 -37 -43 -49 -26 -22 -87 -41 -98 -30 -3 3 11
26 31 51 25 30 49 47 74 54 49 12 57 6 36 -26z m-124 -3 c0 -7 -16 -32 -36
-55 -24 -30 -43 -44 -60 -44 -21 0 -23 3 -15 18 33 57 111 115 111 81z m738 2
c-1 -5 -25 -27 -53 -50 -36 -29 -59 -41 -82 -41 -18 0 -33 3 -33 7 0 8 79 76
99 85 24 10 73 9 69 -1z m-128 -10 c0 -15 -90 -85 -118 -93 -53 -15 -58 1 -11
35 25 18 53 40 63 50 18 18 66 24 66 8z m-706 -10 c10 -16 -77 -101 -111 -107
-20 -4 -33 -2 -33 4 0 16 83 100 105 105 32 7 34 7 39 -2z m586 -7 c0 -4 -21
-26 -46 -50 -32 -32 -54 -44 -75 -44 -16 0 -29 3 -29 7 0 14 54 75 74 83 25
10 76 13 76 4z m-120 -14 c0 -19 -105 -110 -127 -110 -31 0 -29 25 2 46 13 9
27 24 30 33 9 30 95 58 95 31z m-590 -6 c0 -3 -14 -26 -32 -50 -30 -42 -62
-61 -90 -52 -17 6 80 108 103 108 11 0 19 -3 19 -6z m458 -37 c-20 -39 -71
-76 -105 -77 -18 0 -33 4 -33 9 0 15 79 86 102 92 37 9 50 1 36 -24z m-148
-52 c-39 -39 -85 -62 -94 -46 -7 11 65 82 97 96 47 20 46 0 -3 -50z m680 38
c0 -2 -23 -27 -51 -54 -35 -34 -57 -48 -68 -44 -14 6 -14 7 1 16 10 5 23 20
29 32 8 14 -5 7 -34 -20 -42 -39 -87 -56 -87 -34 0 4 24 31 53 58 50 47 57 51
105 51 29 0 52 -2 52 -5z m-766 -25 c-10 -13 -25 -27 -31 -31 -7 -4 -13 -14
-13 -22 0 -11 -48 -35 -71 -35 -17 0 -9 29 11 40 11 6 20 17 20 25 0 20 40 45
74 45 l29 0 -19 -22z m596 5 c0 -4 -21 -29 -47 -55 -37 -38 -54 -48 -80 -48
-18 0 -33 5 -33 10 0 12 75 86 94 94 18 7 66 7 66 -1z m-710 -13 c0 -12 -48
-82 -63 -92 -14 -9 -57 -11 -57 -3 0 3 21 28 48 55 44 47 72 62 72 40z m547
-47 c-26 -35 -45 -50 -72 -57 -20 -4 -39 -5 -42 -2 -11 11 70 86 102 95 48 15
49 13 12 -36z m-87 19 c0 -4 -14 -27 -31 -50 -22 -30 -42 -45 -71 -53 -64 -17
-65 2 -4 59 37 35 63 52 80 52 14 0 26 -4 26 -8z m-155 -67 c-26 -30 -56 -55
-66 -55 -11 0 -22 0 -26 -1 -21 -2 -9 22 33 64 34 35 54 47 76 47 l30 0 -47
-55z m-71 37 c2 -4 -16 -31 -41 -60 -31 -36 -52 -52 -69 -52 -13 0 -24 4 -24
8 0 4 22 31 50 60 46 49 72 62 84 44z m-94 -18 c0 -3 -21 -30 -46 -60 -37 -43
-53 -54 -76 -54 l-30 0 33 41 c18 23 46 50 63 60 31 19 56 25 56 13z m620 -21
c0 -13 -74 -83 -87 -83 -22 0 -14 21 21 56 31 31 66 45 66 27z m-747 -9 c11
-12 -72 -101 -98 -106 -14 -3 -25 -2 -25 3 0 13 59 97 73 102 18 8 43 8 50 1z
m650 -25 c-10 -17 -25 -36 -33 -44 -20 -17 -62 -23 -67 -9 -6 18 69 84 95 84
23 0 23 0 5 -31z m-83 3 c0 -17 -72 -80 -98 -85 -44 -9 -46 8 -7 52 30 33 44
41 71 41 19 0 34 -4 34 -8z m-680 -13 c0 -32 -89 -109 -126 -109 -12 0 1 24
37 69 29 36 48 51 65 51 13 0 24 -5 24 -11z m550 -11 c0 -24 -60 -78 -86 -78
-31 0 -30 8 7 53 30 37 79 52 79 25z m-664 -25 c-23 -45 -73 -93 -95 -93 -28
0 -26 11 9 64 32 47 42 54 78 55 21 1 22 0 8 -26z m564 10 c-1 -5 -15 -25 -33
-46 -29 -34 -38 -38 -70 -35 l-37 3 39 43 c30 32 46 42 70 42 17 0 31 -3 31
-7z m-120 -10 c0 -40 -92 -115 -114 -93 -8 8 35 75 59 92 13 10 55 10 55 1z
m-110 -24 c0 -21 -73 -99 -92 -99 -26 0 -20 19 22 69 33 38 70 54 70 30z m540
-7 c0 -15 -78 -92 -94 -92 -26 0 -19 16 27 59 39 38 67 52 67 33z m-640 -10
c0 -4 -14 -27 -31 -50 -24 -33 -37 -42 -60 -42 -16 0 -29 4 -29 10 0 22 73 90
96 90 13 0 24 -4 24 -8z m560 -7 c0 -13 -68 -85 -80 -85 -6 0 -10 -7 -10 -15
0 -24 -72 -95 -97 -95 -30 0 -20 24 24 63 19 17 40 42 48 56 23 45 63 81 90
81 14 0 25 -2 25 -5z m-670 -18 c0 -10 -32 -66 -43 -75 -18 -14 -65 -23 -71
-13 -10 16 64 91 90 91 13 0 24 -2 24 -3z m553 -19 c-11 -13 -23 -30 -26 -39
-7 -20 -75 -45 -88 -32 -5 5 8 26 30 51 30 33 46 42 72 42 l32 0 -20 -22z
m-109 4 c8 -14 -52 -89 -76 -95 -22 -6 -38 -1 -38 11 0 12 64 79 80 85 23 8
28 8 34 -1z m-554 -13 c0 -6 -14 -29 -31 -50 -21 -27 -39 -39 -56 -39 -13 0
-23 3 -21 8 2 4 9 19 17 33 20 40 91 77 91 48z m460 -8 c0 -4 -19 -29 -43 -55
-34 -36 -50 -46 -75 -46 -18 0 -32 2 -32 4 0 13 66 83 88 93 32 14 62 16 62 4z
m-130 -28 c0 -13 -64 -79 -88 -92 -12 -7 -20 -16 -17 -22 8 -12 -30 -66 -56
-80 -12 -6 -28 -8 -37 -4 -16 6 -16 7 1 16 9 6 17 16 17 24 0 7 14 23 30 35
17 12 28 25 25 29 -5 9 37 70 62 89 18 13 63 17 63 5z m430 -16 c0 -8 -20 -36
-45 -63 -25 -27 -45 -54 -45 -61 0 -7 -4 -13 -10 -13 -5 0 -16 -13 -25 -30
-15 -30 -52 -57 -63 -46 -9 9 20 57 56 91 17 18 32 36 32 42 0 14 75 93 88 93
7 0 12 -6 12 -13z m-547 -3 c4 -4 -7 -24 -24 -46 -59 -73 -108 -77 -58 -4 34
51 63 68 82 50z m-95 -21 c-3 -5 -10 -23 -17 -41 -12 -30 -54 -62 -81 -62 -16
0 -12 13 20 63 23 36 35 47 56 47 14 0 24 -3 22 -7z m462 -15 c0 -24 -63 -78
-92 -78 -37 0 -35 8 8 53 35 36 84 51 84 25z m-117 -25 c-11 -30 -46 -61 -75
-68 -32 -8 -35 0 -12 35 24 35 44 50 71 50 17 0 21 -4 16 -17z m-103 -17 c0
-15 -64 -76 -80 -76 -6 0 -10 -7 -10 -16 0 -24 -79 -111 -106 -117 -31 -6 -41
9 -20 32 9 10 16 21 16 26 0 14 42 55 57 55 7 0 13 8 13 19 0 22 41 68 72 81
34 13 58 12 58 -4z m-232 -43 c-23 -49 -53 -83 -74 -83 -24 0 -24 0 -7 28 29
46 45 62 65 62 11 0 18 -3 16 -7z m372 -21 c0 -5 -9 -17 -20 -27 -11 -10 -20
-24 -20 -31 0 -16 -51 -44 -80 -44 -32 0 -24 24 25 69 28 25 54 41 70 41 14 0
25 -4 25 -8z m-117 -8 c9 -9 -63 -93 -93 -109 -14 -8 -19 -14 -11 -15 9 0 5
-11 -13 -34 -14 -19 -26 -39 -26 -44 0 -14 -64 -42 -73 -33 -12 12 17 65 48
89 14 11 25 26 25 33 0 8 23 38 50 67 45 47 76 63 93 46z m-233 -55 c0 -6 -14
-30 -30 -55 -23 -32 -38 -44 -56 -44 l-25 0 20 26 c12 15 21 31 21 37 0 18 32
47 52 47 10 0 18 -5 18 -11z m-90 -25 c0 -8 -52 -79 -63 -86 -17 -11 -37 -10
-37 2 0 13 40 71 60 86 12 10 40 9 40 -2z m344 -33 c3 -4 -6 -19 -19 -31 -14
-13 -25 -29 -25 -35 0 -12 -55 -35 -83 -35 -25 0 -21 15 15 56 41 47 97 69
112 45z m-234 -40 c0 -6 -14 -30 -30 -55 -28 -42 -64 -66 -77 -52 -12 11 42
96 67 105 33 13 40 13 40 2z m-103 -35 c-15 -38 -58 -94 -76 -99 -30 -7 -34 7
-11 36 11 14 20 29 20 33 0 4 7 16 17 26 20 22 58 25 50 4z m233 -55 c0 -20
-67 -96 -93 -105 -15 -5 -29 -7 -32 -5 -5 6 26 71 45 94 16 19 80 32 80 16z
m-116 -33 c-50 -87 -97 -126 -114 -97 -10 16 37 88 65 99 32 13 57 12 49 -2z
m-112 -34 c-2 -10 -10 -26 -18 -35 -8 -8 -14 -21 -14 -27 0 -18 -40 -36 -53
-23 -21 21 49 118 78 108 5 -2 8 -13 7 -23z m-92 -9 c0 -11 -32 -70 -48 -87
-14 -16 -52 -25 -52 -13 0 3 7 17 15 30 8 14 22 36 30 50 13 21 55 36 55 20z
m234 -54 c9 -14 -63 -99 -91 -106 -14 -3 -27 -4 -30 -2 -2 3 6 23 18 46 27 52
87 88 103 62z m-119 -43 c-14 -44 -55 -88 -82 -88 -24 0 -25 2 -12 18 8 9 21
30 29 46 13 25 38 43 63 45 5 1 5 -9 2 -21z m-112 -57 c-25 -46 -55 -67 -75
-55 -8 5 15 54 41 87 8 9 25 17 38 17 l24 0 -28 -49z"/>
<path d="M1265 1020 c-3 -5 -1 -10 4 -10 6 0 11 5 11 10 0 6 -2 10 -4 10 -3 0
-8 -4 -11 -10z"/>
<path d="M1103 905 c-30 -29 -29 -37 1 -24 13 6 27 20 29 30 7 24 -2 23 -30
-6z"/>
<path d="M1060 780 c-32 -32 -23 -47 10 -15 17 16 30 30 30 32 0 10 -23 0 -40
-17z"/>
<path d="M960 725 c-11 -13 -10 -14 4 -9 9 3 16 10 16 15 0 13 -6 11 -20 -6z"/>
<path d="M1000 710 c-14 -11 -36 -20 -49 -20 -13 0 -30 -8 -37 -17 -21 -28
-16 -38 7 -17 16 14 24 16 38 7 15 -9 23 -6 45 19 14 16 26 34 26 39 0 12 -1
12 -30 -11z"/>
<path d="M1260 717 c0 -7 -8 -22 -18 -33 -9 -10 -25 -31 -35 -46 -17 -27 -17
-28 3 -28 29 0 25 -17 -15 -57 -29 -29 -38 -33 -50 -23 -16 13 -35 6 -35 -15
0 -8 7 -11 20 -8 33 9 24 -16 -25 -68 -25 -26 -45 -53 -45 -59 0 -6 -12 -27
-27 -47 -22 -28 -32 -34 -53 -30 -21 5 -30 -1 -50 -31 -13 -20 -28 -43 -33
-50 -6 -8 -5 -12 2 -12 6 0 16 11 21 24 10 29 28 42 40 30 12 -12 -52 -118
-73 -122 -20 -4 -23 18 -5 36 9 9 9 12 0 12 -7 0 -16 -10 -21 -22 -5 -13 -27
-45 -50 -73 -22 -27 -41 -54 -41 -60 1 -11 70 66 70 78 0 4 5 7 10 7 19 0 10
-31 -20 -76 -19 -27 -26 -44 -18 -44 7 0 30 27 50 59 38 61 78 96 78 68 0 -8
-9 -26 -20 -40 -11 -14 -20 -30 -20 -35 0 -6 -12 -20 -26 -31 -20 -16 -22 -21
-10 -21 9 0 25 6 36 13 17 10 22 9 30 -3 8 -13 15 -10 40 18 17 17 36 32 41
32 6 0 8 8 5 18 -4 10 3 27 17 42 13 14 32 40 42 57 11 18 22 33 26 33 4 0 14
3 23 6 9 3 16 1 16 -6 0 -16 -60 -102 -82 -118 -10 -7 -18 -21 -18 -31 0 -10
-7 -24 -15 -31 -18 -15 -19 -30 -2 -30 7 0 21 15 31 33 10 17 30 44 44 59 14
16 23 28 19 28 -9 0 20 48 42 71 9 9 24 26 33 38 16 19 58 30 58 14 0 -3 -19
-31 -42 -62 -24 -31 -47 -63 -53 -73 -5 -9 -24 -37 -42 -62 -29 -42 -30 -46
-13 -46 11 0 30 6 41 13 17 9 23 9 26 0 3 -7 8 -13 13 -13 15 0 100 130 100
153 0 16 -11 5 -39 -39 -28 -44 -48 -64 -71 -73 -44 -15 -43 -15 -23 16 17 26
32 45 70 86 9 9 18 25 19 33 1 9 12 26 23 38 12 12 21 31 21 43 0 16 -5 19
-25 15 -18 -3 -25 0 -25 12 0 9 3 16 8 16 8 0 42 57 42 71 0 5 -10 5 -25 -1
-38 -14 -40 5 -6 47 38 46 39 57 6 51 -37 -8 -38 5 -5 42 29 33 45 79 18 52
-7 -7 -20 -12 -30 -12 -16 0 -17 3 -8 21 7 11 20 29 31 40 10 10 19 24 19 31
0 9 -3 9 -12 0 -15 -15 -48 -16 -48 -2 0 6 4 10 9 10 8 0 51 64 51 76 0 2 -4
4 -10 4 -5 0 -10 -6 -10 -13z m-36 -209 c-26 -45 -48 -68 -65 -68 -25 0 -24 5
9 46 25 32 73 50 56 22z m6 -74 c0 -18 -43 -72 -65 -82 -15 -7 -24 -16 -20
-21 13 -23 -94 -146 -112 -128 -8 9 45 96 68 110 10 6 19 19 19 28 0 21 73 99
93 99 10 0 17 -3 17 -6z m-114 -66 c-26 -44 -73 -68 -59 -31 13 35 47 73 65
73 18 0 17 -3 -6 -42z m124 -25 c-1 -22 -72 -103 -90 -103 -11 0 -20 3 -20 6
0 12 25 50 49 77 24 25 61 37 61 20z m-221 -110 c-38 -55 -50 -66 -63 -53 -6
6 -3 17 7 28 9 10 17 22 17 27 0 16 33 45 52 45 17 0 15 -6 -13 -47z m21 -62
c0 -4 -16 -28 -35 -52 -19 -24 -35 -49 -35 -55 0 -7 -7 -15 -16 -18 -22 -9
-34 -7 -34 4 0 13 44 81 71 108 22 22 49 30 49 13z"/>
<path d="M1210 709 c0 -5 5 -7 10 -4 6 3 10 8 10 11 0 2 -4 4 -10 4 -5 0 -10
-5 -10 -11z"/>
<path d="M865 610 c-3 -5 -1 -10 4 -10 6 0 11 5 11 10 0 6 -2 10 -4 10 -3 0
-8 -4 -11 -10z"/>
<path d="M898 589 c-14 -16 -22 -31 -18 -34 16 -10 59 25 57 46 -2 24 -6 23
-39 -12z"/>
<path d="M1160 585 c-7 -9 -11 -18 -8 -20 3 -3 11 1 18 10 7 9 11 18 8 20 -3
3 -11 -1 -18 -10z"/>
<path d="M835 570 c-3 -5 1 -10 9 -10 9 0 16 5 16 10 0 6 -4 10 -9 10 -6 0
-13 -4 -16 -10z"/>
<path d="M855 520 c-16 -17 -16 -20 -3 -15 9 4 19 13 22 21 7 19 2 18 -19 -6z"/>
<path d="M810 468 c-18 -14 -36 -19 -70 -16 -25 1 -60 -3 -77 -11 -37 -15 -46
-37 -10 -26 23 8 73 15 118 18 31 2 73 29 68 44 -3 7 -13 4 -29 -9z"/>
<path d="M1063 455 c-10 -15 -26 -36 -36 -47 -10 -10 -17 -24 -15 -30 2 -6 21
12 42 41 21 29 36 54 33 57 -3 3 -13 -7 -24 -21z"/>
<path d="M987 433 c-4 -3 -7 -11 -7 -17 0 -6 5 -5 12 2 6 6 9 14 7 17 -3 3 -9
2 -12 -2z"/>
<path d="M744 375 c-4 -11 -16 -26 -26 -33 -10 -7 -18 -20 -18 -28 0 -9 13 0
31 20 17 20 29 41 26 48 -3 9 -7 6 -13 -7z"/>
<path d="M600 355 c-8 -9 -8 -15 -2 -15 12 0 26 19 19 26 -2 2 -10 -2 -17 -11z"/>
<path d="M976 344 c-9 -24 -7 -28 9 -14 17 14 20 30 6 30 -5 0 -12 -7 -15 -16z"/>
<path d="M532 260 c-12 -27 -31 -59 -43 -71 -11 -11 -22 -28 -24 -37 -7 -35
-23 -68 -44 -86 -26 -23 -27 -35 -3 -35 9 0 25 -1 36 -3 12 -2 26 10 44 37 22
36 23 38 3 21 -11 -11 -21 -25 -21 -33 0 -7 -4 -13 -10 -13 -14 0 -12 32 4 55
7 11 17 31 21 44 4 12 18 39 31 58 13 20 24 43 24 52 0 8 12 25 28 38 l27 22
-26 1 c-21 0 -29 -8 -47 -50z"/>
<path d="M602 160 c-54 -93 -62 -112 -37 -86 8 8 15 17 15 19 0 3 20 36 45 74
25 37 45 71 45 76 0 23 -21 -3 -68 -83z"/>
<path d="M565 209 c-12 -19 5 -23 22 -6 16 16 16 17 1 17 -9 0 -20 -5 -23 -11z"/>
<path d="M662 128 c-6 -6 -12 -19 -12 -27 0 -13 2 -13 16 1 9 9 15 21 13 27
-3 9 -8 8 -17 -1z"/>
<path d="M1257 33 c-11 -13 -16 -27 -13 -31 10 -9 38 24 34 41 -2 12 -7 9 -21
-10z"/>
</g>
</svg>
