<?xml version="1.0" standalone="no"?>
<!DOCTYPE svg PUBLIC "-//W3C//DTD SVG 20010904//EN"
 "http://www.w3.org/TR/2001/REC-SVG-20010904/DTD/svg10.dtd">
<svg version="1.0" xmlns="http://www.w3.org/2000/svg"
 width="129.000000pt" height="136.000000pt" viewBox="0 0 129.000000 136.000000"
 preserveAspectRatio="xMidYMid meet">
<metadata>
Created by potrace 1.14, written by Peter Selinger 2001-2017
</metadata>
<g transform="translate(0.000000,136.000000) scale(0.100000,-0.100000)"
fill="#000000" stroke="none">
<path d="M251 1353 c-1 -6 -4 -20 -7 -30 -5 -17 -5 -17 6 0 6 10 9 23 6 30 -3
9 -5 9 -5 0z"/>
<path d="M495 1350 c-3 -5 -3 -15 1 -22 5 -7 3 -8 -6 -3 -10 6 -12 4 -8 -7 4
-8 -2 -22 -13 -31 -10 -9 -16 -22 -13 -30 2 -7 -5 -22 -16 -32 -20 -18 -21
-18 -34 0 -18 25 -28 6 -30 -58 -1 -43 -8 -61 -42 -107 -55 -76 -76 -110 -67
-110 4 0 17 12 30 28 l22 27 1 -30 c0 -16 -5 -46 -10 -66 -11 -38 -13 -55 -30
-194 -10 -84 -16 -117 -27 -157 -2 -10 0 -18 4 -18 11 0 33 80 33 119 0 16 14
98 31 183 18 84 32 169 33 189 1 20 8 45 17 55 9 11 24 34 33 52 9 17 19 32
23 32 8 0 -5 -76 -16 -98 -12 -21 -49 -221 -61 -322 -5 -41 -13 -106 -19 -145
-15 -113 -23 -245 -14 -245 5 0 16 71 26 158 24 228 44 356 71 473 13 57 27
123 31 146 3 22 13 49 20 60 8 10 15 28 15 40 0 12 11 42 25 67 14 25 25 47
25 50 0 10 -29 6 -35 -4z"/>
<path d="M540 1336 c0 -14 -4 -35 -9 -48 -16 -43 -22 -98 -11 -98 5 0 10 8 10
18 0 9 6 35 14 57 25 75 28 95 11 95 -9 0 -15 -9 -15 -24z"/>
<path d="M660 1335 c0 -14 2 -25 4 -25 2 0 6 11 8 25 3 14 1 25 -3 25 -5 0 -9
-11 -9 -25z"/>
<path d="M708 1348 c-1 -7 -2 -29 -3 -48 -1 -19 -8 -111 -15 -205 -9 -116 -10
-227 -5 -350 4 -99 7 -221 6 -272 -1 -53 2 -94 8 -98 18 -11 24 44 15 143 -8
88 -7 500 1 597 15 178 17 245 6 245 -6 0 -12 -6 -13 -12z"/>
<path d="M753 1233 c-9 -105 -10 -456 -3 -1205 0 -16 5 -28 10 -28 8 0 10 150
8 478 -3 427 1 622 16 820 3 46 1 62 -8 62 -9 0 -16 -37 -23 -127z"/>
<path d="M822 1330 c0 -19 2 -27 5 -17 2 9 2 25 0 35 -3 9 -5 1 -5 -18z"/>
<path d="M857 1349 c-9 -6 -15 -15 -11 -20 3 -5 0 -42 -7 -82 -7 -40 -12 -82
-11 -94 1 -11 -5 -24 -13 -27 -9 -3 -15 -19 -15 -40 0 -26 4 -34 13 -30 11 4
15 -19 21 -103 4 -59 12 -162 17 -228 6 -66 13 -204 15 -308 3 -103 9 -215 14
-250 12 -85 2 360 -13 563 -6 85 -11 212 -12 283 0 70 -2 127 -5 127 -16 0 9
152 27 165 10 7 11 17 6 32 -6 17 -12 20 -26 12z m-27 -255 c0 -8 -5 -12 -10
-9 -6 4 -8 11 -5 16 9 14 15 11 15 -7z"/>
<path d="M940 1341 c0 -11 5 -23 10 -26 6 -3 10 3 10 14 0 11 -4 23 -10 26 -5
3 -10 -3 -10 -14z"/>
<path d="M1131 1309 c0 -30 4 -63 9 -74 6 -13 7 6 3 50 -7 85 -13 97 -12 24z"/>
<path d="M1180 1317 c0 -26 6 -91 14 -145 8 -53 17 -136 20 -183 4 -47 11 -99
16 -115 15 -49 9 74 -11 221 -9 72 -20 159 -23 194 -6 76 -16 93 -16 28z"/>
<path d="M1220 1328 c0 -103 37 -368 39 -283 1 11 -4 59 -9 106 -5 47 -10 113
-11 147 -2 63 -19 90 -19 30z"/>
<path d="M1261 1313 c0 -27 7 -93 14 -148 l12 -100 2 86 c1 105 -9 209 -20
209 -5 0 -9 -21 -8 -47z"/>
<path d="M610 1316 c0 -31 6 -34 13 -6 3 11 1 23 -4 26 -5 3 -9 -6 -9 -20z"/>
<path d="M21 1284 c-12 -20 -20 -41 -19 -46 2 -5 14 9 27 32 29 51 21 64 -8
14z"/>
<path d="M651 1274 c0 -11 3 -14 6 -6 3 7 2 16 -1 19 -3 4 -6 -2 -5 -13z"/>
<path d="M596 1244 c-4 -9 -4 -19 -1 -22 2 -3 7 3 11 12 4 9 4 19 1 22 -2 3
-7 -3 -11 -12z"/>
<path d="M894 1123 c3 -71 6 -161 6 -200 0 -47 4 -73 11 -73 8 0 10 57 6 198
-7 231 -4 202 -18 202 -8 0 -10 -36 -5 -127z"/>
<path d="M963 1170 c0 -30 2 -43 4 -27 2 15 2 39 0 55 -2 15 -4 2 -4 -28z"/>
<path d="M155 1200 c-3 -5 -1 -10 4 -10 6 0 11 5 11 10 0 6 -2 10 -4 10 -3 0
-8 -4 -11 -10z"/>
<path d="M1143 1189 c3 -9 9 -37 12 -63 6 -41 25 -75 25 -46 0 24 -23 106 -33
115 -7 7 -8 5 -4 -6z"/>
<path d="M580 1166 c0 -13 -3 -39 -6 -57 -5 -23 -3 -31 4 -24 12 12 21 105 10
105 -5 0 -8 -11 -8 -24z"/>
<path d="M497 1090 c-10 -52 -22 -115 -27 -140 -5 -25 -11 -65 -14 -90 -10
-86 14 -2 30 104 8 56 19 117 25 137 6 19 9 46 7 60 -2 13 -11 -18 -21 -71z"/>
<path d="M40 1155 c-8 -9 -8 -15 -2 -15 12 0 26 19 19 26 -2 2 -10 -2 -17 -11z"/>
<path d="M630 1144 c0 -8 5 -12 10 -9 6 3 10 10 10 16 0 5 -4 9 -10 9 -5 0
-10 -7 -10 -16z"/>
<path d="M320 1105 c-8 -9 -8 -15 -2 -15 12 0 26 19 19 26 -2 2 -10 -2 -17
-11z"/>
<path d="M70 1085 c-7 -9 -11 -18 -8 -20 3 -3 11 1 18 10 7 9 11 18 8 20 -3 3
-11 -1 -18 -10z"/>
<path d="M1101 1084 c0 -11 3 -14 6 -6 3 7 2 16 -1 19 -3 4 -6 -2 -5 -13z"/>
<path d="M262 1048 c-7 -7 -12 -16 -12 -20 0 -15 15 -8 28 12 13 22 3 27 -16
8z"/>
<path d="M566 1049 c-11 -36 -29 -141 -36 -209 -5 -41 -12 -86 -18 -100 -10
-27 -20 -97 -28 -199 -2 -35 -9 -82 -14 -105 -5 -22 -5 -45 -1 -49 5 -5 12 15
15 45 8 67 32 227 51 338 8 47 22 129 31 183 9 54 13 101 10 104 -3 3 -7 0
-10 -8z"/>
<path d="M1177 950 c3 -63 7 -128 9 -145 1 -16 5 -70 8 -120 6 -96 19 -225 36
-370 6 -49 13 -112 16 -140 3 -27 10 -54 15 -60 7 -7 9 1 5 25 -11 70 -20 155
-19 169 1 8 -3 40 -8 71 -5 32 -12 93 -15 136 -3 44 -7 95 -9 114 -2 19 -9 98
-15 175 -16 204 -30 290 -23 145z"/>
<path d="M1260 1005 c-1 -5 -2 -12 -2 -15 0 -3 3 -72 6 -155 4 -82 9 -162 12
-177 7 -33 -4 -57 -17 -37 -6 9 -8 2 -8 -21 1 -19 3 -27 6 -17 5 20 19 22 27
5 9 -18 -3 317 -13 377 -5 28 -9 46 -11 40z"/>
<path d="M1040 979 c0 -5 5 -7 10 -4 6 3 10 8 10 11 0 2 -4 4 -10 4 -5 0 -10
-5 -10 -11z"/>
<path d="M0 970 c0 -5 5 -10 10 -10 6 0 10 5 10 10 0 6 -4 10 -10 10 -5 0 -10
-4 -10 -10z"/>
<path d="M622 955 c0 -16 2 -22 5 -12 2 9 2 23 0 30 -3 6 -5 -1 -5 -18z"/>
<path d="M1112 931 c-1 -22 3 -43 8 -46 6 -4 10 12 10 39 0 56 -16 62 -18 7z"/>
<path d="M1051 944 c0 -11 3 -14 6 -6 3 7 2 16 -1 19 -3 4 -6 -2 -5 -13z"/>
<path d="M239 908 c-8 -18 -15 -46 -16 -63 -1 -16 -9 -73 -18 -125 -54 -319
-80 -559 -62 -576 4 -4 7 16 7 46 0 53 30 286 51 395 6 33 13 72 15 86 2 15
10 60 19 102 14 68 26 167 20 167 -1 0 -9 -15 -16 -32z"/>
<path d="M95 909 c-4 -6 -5 -12 -2 -15 2 -3 7 2 10 11 7 17 1 20 -8 4z"/>
<path d="M1051 904 c0 -11 3 -14 6 -6 3 7 2 16 -1 19 -3 4 -6 -2 -5 -13z"/>
<path d="M605 891 c-3 -5 -1 -12 5 -16 5 -3 10 1 10 9 0 18 -6 21 -15 7z"/>
<path d="M790 843 c0 -22 2 -25 10 -13 13 20 13 40 0 40 -5 0 -10 -12 -10 -27z"/>
<path d="M1118 823 c7 -65 12 -67 12 -5 0 29 -4 52 -9 52 -5 0 -6 -21 -3 -47z"/>
<path d="M592 770 c0 -19 2 -27 5 -17 2 9 2 25 0 35 -3 9 -5 1 -5 -18z"/>
<path d="M440 769 c0 -11 5 -17 10 -14 6 3 10 13 10 21 0 8 -4 14 -10 14 -5 0
-10 -9 -10 -21z"/>
<path d="M37 773 c-4 -3 -7 -13 -7 -22 1 -13 3 -13 11 2 11 19 8 33 -4 20z"/>
<path d="M638 730 c-4 -30 -7 -89 -7 -130 l2 -75 8 75 c5 41 8 100 7 130 l-3
55 -7 -55z"/>
<path d="M139 743 c-8 -14 -13 -35 -11 -45 4 -22 -10 -116 -40 -263 -26 -132
-27 -142 -34 -270 -3 -60 -7 -116 -10 -123 -2 -7 0 -11 5 -8 5 3 12 45 16 93
8 102 26 231 55 393 29 165 41 242 37 246 -2 2 -10 -8 -18 -23z"/>
<path d="M1132 730 c0 -19 2 -27 5 -17 2 9 2 25 0 35 -3 9 -5 1 -5 -18z"/>
<path d="M1241 724 c0 -11 3 -14 6 -6 3 7 2 16 -1 19 -3 4 -6 -2 -5 -13z"/>
<path d="M582 690 c0 -19 2 -27 5 -17 2 9 2 25 0 35 -3 9 -5 1 -5 -18z"/>
<path d="M793 660 c0 -16 4 -30 9 -30 4 0 8 14 8 30 0 17 -4 30 -8 30 -5 0 -9
-13 -9 -30z"/>
<path d="M68 628 c-51 -80 -68 -114 -68 -135 0 -15 2 -16 11 -3 8 11 9 3 5
-30 -4 -25 -8 -88 -11 -140 l-5 -95 20 125 c24 156 45 244 69 293 26 52 18 46
-21 -15z"/>
<path d="M1141 637 c-1 -30 3 -46 9 -42 12 7 12 42 0 70 -6 15 -9 8 -9 -28z"/>
<path d="M1251 654 c0 -11 3 -14 6 -6 3 7 2 16 -1 19 -3 4 -6 -2 -5 -13z"/>
<path d="M572 610 c-5 -22 -6 -40 -2 -40 7 0 22 71 16 77 -2 2 -8 -14 -14 -37z"/>
<path d="M411 563 c-17 -108 -32 -265 -26 -272 12 -11 23 23 24 73 1 28 3 65
5 81 10 74 18 185 13 185 -3 0 -10 -30 -16 -67z"/>
<path d="M1086 565 c4 -33 8 -62 10 -64 8 -9 2 85 -7 104 -6 13 -7 0 -3 -40z"/>
<path d="M800 576 c0 -9 5 -16 10 -16 6 0 10 4 10 9 0 6 -4 13 -10 16 -5 3
-10 -1 -10 -9z"/>
<path d="M1152 545 c0 -16 4 -41 8 -55 l8 -25 0 25 c0 14 -4 39 -8 55 l-8 30
0 -30z"/>
<path d="M1282 540 c0 -19 2 -27 5 -17 2 9 2 25 0 35 -3 9 -5 1 -5 -18z"/>
<path d="M799 493 c1 -32 1 -76 2 -97 0 -22 4 -47 9 -55 6 -11 9 23 10 97 0
72 -4 112 -11 112 -6 0 -10 -24 -10 -57z"/>
<path d="M1255 531 c-8 -25 4 -109 16 -117 7 -4 1 125 -6 134 -2 2 -6 -6 -10
-17z"/>
<path d="M246 482 c-3 -26 -8 -94 -11 -152 -5 -127 9 -67 19 79 3 51 8 97 11
101 3 5 1 11 -4 14 -4 3 -11 -16 -15 -42z"/>
<path d="M555 520 c-3 -5 -1 -10 4 -10 6 0 11 5 11 10 0 6 -2 10 -4 10 -3 0
-8 -4 -11 -10z"/>
<path d="M552 470 c0 -14 2 -19 5 -12 2 6 2 18 0 25 -3 6 -5 1 -5 -13z"/>
<path d="M621 474 c0 -11 3 -14 6 -6 3 7 2 16 -1 19 -3 4 -6 -2 -5 -13z"/>
<path d="M542 350 c0 -14 2 -19 5 -12 2 6 2 18 0 25 -3 6 -5 1 -5 -13z"/>
<path d="M710 344 c0 -8 5 -12 10 -9 6 4 8 11 5 16 -9 14 -15 11 -15 -7z"/>
<path d="M307 316 c-5 -21 -6 -41 -3 -44 12 -11 17 7 14 44 l-3 39 -8 -39z"/>
<path d="M460 329 c0 -11 5 -17 10 -14 6 3 10 13 10 21 0 8 -4 14 -10 14 -5 0
-10 -9 -10 -21z"/>
<path d="M1032 320 c0 -14 2 -19 5 -12 2 6 2 18 0 25 -3 6 -5 1 -5 -13z"/>
<path d="M671 304 c0 -11 3 -14 6 -6 3 7 2 16 -1 19 -3 4 -6 -2 -5 -13z"/>
<path d="M810 319 c-1 -7 -2 -213 -1 -266 1 -29 4 -53 9 -53 9 0 8 308 -2 317
-3 3 -6 4 -6 2z"/>
<path d="M530 290 c0 -11 5 -20 10 -20 6 0 10 9 10 20 0 11 -4 20 -10 20 -5 0
-10 -9 -10 -20z"/>
<path d="M708 280 c-4 -14 -8 -83 -8 -153 0 -99 3 -128 13 -125 14 5 15 17 8
178 -4 78 -9 116 -13 100z"/>
<path d="M452 168 c1 -116 5 -102 10 35 2 42 0 77 -4 77 -5 0 -7 -51 -6 -112z"/>
<path d="M657 205 c-4 -44 -9 -103 -11 -130 -3 -28 -1 -57 4 -64 4 -8 11 38
15 111 8 143 2 202 -8 83z"/>
<path d="M379 213 c0 -32 -2 -78 -4 -102 -2 -24 0 -40 4 -35 13 14 23 194 11
194 -6 0 -10 -26 -11 -57z"/>
<path d="M962 240 c0 -19 2 -27 5 -17 2 9 2 25 0 35 -3 9 -5 1 -5 -18z"/>
<path d="M300 238 c0 -7 -2 -65 -5 -128 -3 -77 -2 -105 4 -85 12 39 19 225 9
225 -4 0 -8 -6 -8 -12z"/>
<path d="M527 190 c-4 -14 -6 -45 -6 -70 1 -44 2 -43 10 15 9 64 7 96 -4 55z"/>
<path d="M220 179 c0 -5 5 -7 10 -4 6 3 10 8 10 11 0 2 -4 4 -10 4 -5 0 -10
-5 -10 -11z"/>
<path d="M130 105 c0 -8 2 -15 4 -15 2 0 6 7 10 15 3 8 1 15 -4 15 -6 0 -10
-7 -10 -15z"/>
<path d="M888 76 c-3 -14 -1 -31 3 -38 6 -8 9 1 9 25 0 42 -6 48 -12 13z"/>
<path d="M1261 74 c0 -11 3 -14 6 -6 3 7 2 16 -1 19 -3 4 -6 -2 -5 -13z"/>
<path d="M441 14 c0 -11 3 -14 6 -6 3 7 2 16 -1 19 -3 4 -6 -2 -5 -13z"/>
</g>
</svg>
