<?xml version="1.0" encoding="UTF-8" standalone="no"?>
<svg
   xmlns:dc="http://purl.org/dc/elements/1.1/"
   xmlns:cc="http://creativecommons.org/ns#"
   xmlns:rdf="http://www.w3.org/1999/02/22-rdf-syntax-ns#"
   xmlns:svg="http://www.w3.org/2000/svg"
   xmlns="http://www.w3.org/2000/svg"
   id="svg106"
   preserveAspectRatio="xMidYMid meet"
   viewBox="0 0 129.000000 136.000000"
   height="136.000000pt"
   width="129.000000pt"
   version="1.0">
  <defs
     id="defs110" />
  <metadata
     id="metadata2">
Created by potrace 1.14, written by Peter Selinger 2001-2017
<rdf:RDF>
  <cc:Work
     rdf:about="">
    <dc:format>image/svg+xml</dc:format>
    <dc:type
       rdf:resource="http://purl.org/dc/dcmitype/StillImage" />
    <dc:title></dc:title>
  </cc:Work>
</rdf:RDF>
</metadata>
  <g
     style="fill:#000000;stroke:none"
     id="g104"
     transform="matrix(0.1,0,0,-0.1,0,136)">
    <path
       style="fill:#000000"
       id="path4"
       d="m 20,1341 c 13,-26 13,-31 -5,-31 -8,0 -15,-7 -15,-15 0,-9 9,-15 24,-15 24,0 36,-16 36,-50 0,-25 -39,-14 -51,14 -6,14 -8,-14 -7,-84 1,-58 5,-109 9,-115 3,-5 10,-20 13,-32 6,-17 3,-23 -8,-23 -22,0 -20,-17 4,-30 27,-15 27,-60 0,-60 -11,0 -20,-4 -20,-10 0,-5 9,-10 20,-10 16,0 20,-7 20,-31 0,-26 -3,-29 -21,-24 -16,5 -20,3 -17,-6 3,-8 13,-14 24,-14 14,0 19,-7 19,-30 0,-25 -3,-30 -22,-27 -13,2 -23,-2 -23,-7 0,-6 9,-11 20,-11 16,0 20,-7 20,-30 0,-23 -4,-30 -20,-30 -24,0 -27,-15 -4,-24 19,-7 16,-72 -3,-68 -16,3 -17,-10 -2,-25 9,-9 9,-20 0,-44 C 5,492 0,471 0,463 c 0,-26 19,-3 31,37 7,22 16,40 21,40 4,0 8,10 8,23 0,12 3,32 6,45 6,20 11,22 38,16 17,-3 34,-8 38,-10 12,-7 -3,-34 -18,-34 -8,0 -25,-10 -37,-21 l -22,-22 28,5 c 15,3 27,1 27,-4 0,-16 -41,-133 -51,-143 -12,-12 -12,-25 1,-25 6,0 10,6 10,13 0,6 11,25 25,41 14,16 25,41 25,56 0,15 9,53 20,86 11,32 20,71 20,87 0,32 -2,31 44,12 41,-18 44,-30 20,-108 C 180,379 150,319 68,226 58,215 53,204 56,201 c 8,-8 89,86 118,135 47,83 97,262 95,344 0,21 -2,23 -11,9 -10,-15 -15,-15 -50,-1 -26,10 -37,20 -33,30 3,7 5,20 5,28 0,19 25,18 45,-2 9,-9 37,-21 62,-25 25,-5 52,-14 60,-21 8,-7 24,-14 36,-15 21,-4 21,-4 -1,17 -12,11 -22,32 -22,46 0,22 3,24 22,18 34,-10 48,-24 49,-48 1,-17 2,-17 6,-3 5,20 12,21 47,7 17,-6 26,-17 26,-31 0,-18 2,-19 15,-9 12,10 20,9 40,-4 23,-15 38,-45 15,-31 -5,3 -10,1 -10,-4 0,-6 5,-11 10,-11 6,0 10,-11 10,-25 0,-33 -15,-32 -51,4 -16,16 -29,27 -29,24 0,-3 -16,4 -36,16 -43,25 -44,26 -44,4 0,-10 -7,-26 -15,-36 -9,-13 -12,-35 -8,-71 4,-38 1,-61 -11,-84 -14,-27 -14,-32 -2,-32 17,0 28,29 31,80 3,51 17,130 22,130 3,0 18,-8 34,-17 32,-19 36,-34 14,-53 -11,-9 -13,-23 -9,-50 5,-31 2,-43 -15,-61 -25,-27 -27,-45 -5,-53 9,-3 17,-6 19,-6 4,0 20,78 30,148 8,48 16,51 50,18 22,-22 23,-25 10,-85 -9,-45 -10,-61 -1,-58 6,2 15,27 19,56 7,43 12,51 25,46 14,-5 15,-4 5,6 -14,14 -18,99 -5,99 5,0 17,-6 27,-14 36,-26 23,-230 -17,-273 -14,-15 -18,-28 -13,-40 4,-10 7,-29 6,-43 -2,-19 0,-22 9,-13 7,6 13,24 14,40 2,15 8,42 15,58 7,17 15,68 18,115 2,47 7,92 10,100 3,8 6,37 7,65 1,39 5,50 19,53 12,2 20,-3 24,-16 3,-13 11,-18 19,-15 17,6 17,-2 5,-99 -5,-40 -12,-98 -15,-128 -8,-92 11,-22 24,86 6,54 16,103 21,108 5,6 18,5 34,-2 23,-11 25,-17 26,-79 l 1,-68 12,55 c 13,61 10,102 -8,98 -6,-1 -23,6 -38,16 -20,13 -28,27 -28,47 0,16 -4,29 -10,29 -5,0 -10,-7 -10,-15 0,-20 -8,-19 -47,5 -25,15 -33,27 -33,49 0,17 5,33 10,36 14,9 42,-15 36,-31 -7,-18 5,-26 21,-13 9,9 13,8 13,0 0,-6 8,-11 19,-11 31,0 69,-38 73,-73 4,-30 5,-30 14,-10 l 9,22 33,-20 c 33,-22 41,-46 20,-67 -10,-10 -10,-15 1,-21 22,-14 -15,-230 -43,-253 -15,-12 -18,-20 -10,-28 8,-8 7,-25 -3,-63 -19,-75 -15,-91 8,-27 29,85 67,248 75,323 4,43 12,71 20,74 11,4 11,9 -1,26 -18,25 -20,63 -4,73 6,3 26,-9 45,-27 29,-28 34,-38 28,-64 -8,-39 -10,-40 -31,-24 -12,9 -10,4 5,-15 26,-33 28,-56 7,-56 -17,0 -20,-16 -5,-25 6,-4 10,-14 8,-23 -1,-10 2,-18 7,-20 6,-1 11,13 13,33 2,19 7,35 12,35 5,0 6,16 3,35 -3,19 -3,41 1,50 5,14 11,12 41,-11 19,-14 35,-32 35,-39 0,-7 11,-15 25,-17 28,-6 32,3 10,22 -8,7 -15,19 -15,26 0,8 -7,14 -15,14 -9,0 -29,10 -45,22 -25,18 -30,29 -30,65 0,24 3,43 7,43 18,0 74,-54 69,-67 -10,-24 5,-36 19,-16 8,10 10,24 5,33 -8,17 -12,178 -4,191 3,5 27,-9 53,-31 26,-22 51,-40 55,-40 11,0 -28,49 -39,50 -23,0 -76,57 -89,95 -10,27 -15,33 -15,18 -1,-33 -13,-34 -48,-5 -31,27 -55,92 -34,92 22,0 61,-24 67,-42 3,-10 11,-17 17,-16 16,4 87,-39 87,-52 0,-11 50,-34 57,-26 2,2 -7,15 -20,27 -29,28 -42,65 -27,74 6,4 18,1 26,-6 8,-6 17,-9 21,-5 4,4 -9,20 -29,36 -33,27 -60,92 -44,107 3,3 21,-5 40,-17 41,-25 49,-10 10,17 -54,38 -73,59 -79,89 l -6,32 45,-22 c 24,-11 49,-30 55,-41 10,-19 11,-19 8,-1 -1,12 -25,33 -57,53 -34,20 -58,43 -64,59 -11,34 -2,40 28,20 14,-9 32,-16 41,-16 9,0 18,-7 21,-15 4,-8 13,-15 21,-15 9,0 4,10 -14,27 -25,26 -69,48 -120,60 -21,5 -22,3 -13,-26 6,-21 5,-31 -2,-31 -16,0 -78,40 -78,51 0,5 -23,9 -51,9 -46,0 -50,-2 -44,-20 8,-25 -1,-25 -44,1 -50,30 -63,23 -46,-26 8,-21 12,-41 9,-44 -13,-13 -61,18 -79,52 -20,37 -45,50 -45,22 0,-19 -11,-19 -36,0 -10,8 -35,14 -54,14 -19,-1 -27,-3 -17,-6 9,-2 17,-12 17,-22 0,-9 5,-22 12,-29 17,-17 -2,-32 -29,-22 -12,5 -27,25 -34,44 -14,38 -46,53 -34,16 8,-25 7,-25 -46,0 -24,11 -60,20 -79,20 -35,0 -35,0 -10,-13 24,-12 50,-61 38,-72 -3,-3 -17,-1 -30,4 -24,9 -53,63 -41,75 4,3 -6,6 -21,6 -28,0 -28,0 -11,-26 9,-14 15,-27 13,-29 -10,-11 -47,10 -57,31 -6,13 -18,24 -26,24 -9,0 -14,-4 -10,-9 10,-17 -11,-21 -31,-6 -26,20 -120,20 -128,0 -3,-8 -13,-15 -21,-15 -9,0 -13,-4 -10,-10 3,-5 15,-10 26,-10 10,0 19,-7 19,-15 0,-26 -40,-17 -71,16 -16,17 -29,35 -29,40 0,5 -9,9 -20,9 -17,0 -19,-3 -10,-19 z m 1007,-11 c 22,-19 39,-58 30,-66 -2,-3 -16,0 -30,7 -23,10 -47,46 -47,69 0,16 25,11 47,-10 z m -814,-2 c 9,-7 19,-25 23,-40 5,-24 3,-28 -14,-28 -13,0 -24,10 -31,31 -18,52 -12,62 22,37 z m 565,-71 c 3,-21 -1,-27 -16,-27 -25,0 -38,16 -47,59 l -7,34 33,-19 c 23,-14 35,-29 37,-47 z m 155,51 c 34,-18 47,-34 53,-67 7,-35 4,-37 -37,-16 -28,15 -49,49 -49,81 0,17 5,17 33,2 z m -612,-32 c 5,-16 6,-33 3,-37 -9,-15 -33,3 -43,33 -14,40 -14,40 11,36 14,-2 24,-13 29,-32 z m 254,9 c 22,-21 35,-65 20,-65 -22,0 -65,35 -73,60 -10,27 -9,30 9,30 11,0 31,-11 44,-25 z m 566,-24 c 29,-29 39,-61 19,-61 -13,0 -62,31 -72,45 -13,18 -8,45 8,45 8,0 29,-13 45,-29 z m -721,-16 c 21,-64 -19,-71 -45,-8 -19,45 -19,43 9,43 19,0 27,-8 36,-35 z m -276,14 c 14,-7 29,-25 35,-40 9,-27 8,-29 -14,-29 -26,0 -55,33 -55,62 0,21 1,21 34,7 z m 544,-27 c 11,-15 17,-62 8,-62 -26,0 -66,49 -66,80 0,15 42,2 58,-18 z m 166,16 c 14,-6 35,-27 46,-45 23,-39 18,-63 -8,-40 -10,8 -27,18 -39,21 -28,9 -52,76 -27,76 2,0 14,-5 28,-12 z m 207,-17 c 28,-28 41,-81 20,-81 -21,0 -61,47 -67,78 -8,41 8,42 47,3 z m -567,3 c 9,-8 16,-29 16,-45 0,-49 -27,-33 -48,29 -9,26 -8,32 3,32 7,0 21,-7 29,-16 z m -229,-36 c 4,-16 4,-32 1,-35 -10,-11 -36,7 -48,32 -9,21 -9,28 2,35 21,13 38,1 45,-32 z m 83,-18 c 7,-18 7,-32 1,-35 -14,-9 -26,2 -37,35 -10,26 -9,30 8,30 11,0 22,-11 28,-30 z m 241,15 c 19,-9 30,-25 35,-46 3,-18 5,-34 3,-36 -6,-6 -67,19 -67,27 0,4 -3,22 -6,39 -7,35 -4,37 35,16 z m 191,0 c 17,-9 30,-22 30,-29 0,-18 25,-27 37,-15 15,15 76,-32 84,-65 5,-16 6,-33 3,-37 -8,-14 -84,34 -84,53 0,14 -5,17 -22,13 -27,-6 -88,28 -88,49 0,8 -3,21 -6,30 -8,20 9,20 46,1 z m 230,-38 c 0,-6 3,-22 6,-34 8,-31 -10,-30 -53,3 -24,18 -33,33 -33,55 v 29 l 40,-20 c 22,-11 40,-26 40,-33 z m -940,23 c 36,-36 17,-69 -22,-37 -18,14 -29,42 -21,51 11,10 22,7 43,-14 z m 1074,-1 c 22,-13 38,-31 42,-48 3,-14 7,-31 9,-38 8,-25 -11,-20 -47,10 -22,19 -39,45 -43,65 -8,38 -7,38 39,11 z m -710,-15 c 20,-19 21,-54 2,-54 -21,0 -46,28 -46,51 0,23 23,25 44,3 z m -256,0 c 30,-8 32,-64 2,-64 -20,0 -40,27 -40,54 0,18 4,19 38,10 z m 518,-19 c 21,-14 51,-72 42,-80 -9,-9 -78,25 -78,38 0,6 -3,22 -6,35 -7,26 11,30 42,7 z m -431,-3 c 19,-13 35,-61 24,-68 -15,-9 -36,15 -44,49 -7,27 0,34 20,19 z m 249,-8 c 9,-3 16,-17 16,-30 0,-27 24,-33 34,-9 5,14 11,13 45,-4 21,-11 42,-28 45,-38 5,-13 9,-14 15,-5 6,10 15,9 43,-2 35,-15 56,-52 39,-69 -12,-12 -71,20 -71,39 0,10 -6,13 -18,10 -18,-6 -77,17 -87,34 -3,5 -12,7 -20,4 -15,-6 -55,12 -67,30 -11,16 -10,46 1,46 5,0 16,-3 25,-6 z m -157,-16 c 19,-24 25,-68 9,-68 -23,0 -43,37 -37,73 2,11 17,8 28,-5 z m 729,4 c 13,-8 27,-76 18,-85 -3,-3 -19,4 -35,15 -49,36 -32,103 17,70 z m -976,-33 c 17,-30 5,-52 -22,-44 -49,15 -58,65 -12,65 13,0 28,-9 34,-21 z m 691,4 c 17,-10 32,-28 35,-40 7,-25 20,-30 27,-10 3,9 15,6 43,-10 32,-18 40,-28 42,-57 2,-20 -1,-36 -7,-36 -17,0 -80,45 -81,58 0,6 -9,12 -20,12 -49,0 -79,31 -80,83 0,21 5,21 41,0 z m -353,-5 c 15,-20 19,-61 5,-65 -14,-5 -55,56 -47,69 8,12 30,10 42,-4 z m 546,-9 c 36,-21 57,-72 38,-91 -15,-15 -72,31 -72,58 0,12 -3,29 -6,38 -8,21 -2,20 40,-5 z m -776,-33 c 2,-16 -1,-26 -10,-26 -21,0 -36,14 -38,35 -4,32 -1,35 23,26 14,-5 23,-18 25,-35 z m 954,19 c 27,-18 39,-35 44,-61 3,-19 4,-37 1,-40 -10,-10 -75,46 -81,71 -3,13 -9,30 -12,39 -9,23 6,20 48,-9 z m -878,-11 c 9,-3 16,-17 16,-31 0,-20 -4,-24 -22,-21 -17,2 -24,11 -26,31 -3,27 4,32 32,21 z m 246,-9 c 17,-9 30,-23 31,-33 0,-9 2,-43 5,-74 3,-32 3,-58 0,-58 -4,0 -20,10 -36,22 -36,26 -43,74 -10,65 30,-8 24,10 -7,25 -19,9 -29,22 -31,41 -4,31 6,33 48,12 z m -159,-32 c 6,-17 6,-30 0,-36 -15,-15 -41,11 -41,39 0,33 28,31 41,-3 z m -254,3 c 2,-1 4,-13 5,-27 3,-21 0,-24 -27,-21 -16,2 -30,4 -31,5 -1,1 -4,15 -8,30 -7,28 -6,29 26,22 18,-4 34,-8 35,-9 z m 517,-21 c 20,-14 45,-25 54,-25 28,-1 59,-33 65,-67 4,-18 2,-35 -2,-38 -13,-7 -71,44 -71,62 0,12 -3,13 -13,5 -10,-8 -21,-7 -43,4 -37,19 -40,23 -48,57 -8,35 9,36 58,2 z m -419,3 c 29,-13 30,-17 11,-43 -23,-31 -67,2 -52,40 7,18 8,18 41,3 z m 240,0 c 18,-8 25,-19 25,-40 0,-33 -1,-33 -40,-13 -21,11 -30,23 -30,40 0,28 8,30 45,13 z m 386,-47 c 13,-33 4,-37 -36,-18 -38,18 -51,38 -41,63 5,13 9,13 37,-3 17,-10 35,-29 40,-42 z m -533,1 c 2,-14 -3,-25 -13,-29 -19,-7 -35,12 -35,40 0,28 44,18 48,-11 z m 699,13 c 24,-12 32,-23 35,-51 2,-19 2,-37 -1,-38 -3,-2 -23,7 -43,20 -30,19 -38,31 -38,54 0,34 5,36 47,15 z M 395,923 c 8,-33 -6,-48 -33,-34 -20,10 -23,36 -7,61 10,16 33,0 40,-27 z m -253,2 c 16,-36 -1,-53 -37,-37 -36,16 -36,62 0,62 17,0 29,-8 37,-25 z m 784,-2 c 27,-20 34,-32 32,-52 -2,-14 -8,-26 -13,-26 -23,0 -67,46 -71,75 -6,37 6,38 52,3 z m -708,1 c 16,-5 22,-14 22,-35 0,-15 -4,-30 -10,-34 -13,-8 -50,31 -50,55 0,22 3,23 38,14 z m 252,-9 c 30,-15 40,-35 19,-35 -8,0 -8,-5 1,-15 11,-14 14,-13 25,2 14,19 14,19 110,-35 41,-24 51,-34 53,-60 4,-35 -4,-38 -43,-20 -18,8 -25,19 -25,40 0,15 -4,28 -10,28 -5,0 -10,-9 -10,-21 0,-11 -3,-19 -7,-17 -50,24 -63,33 -63,43 0,7 -9,11 -22,8 -31,-6 -84,44 -80,75 4,26 13,27 52,7 z m 174,-6 c 28,-16 36,-27 36,-50 0,-34 -5,-35 -47,-9 -26,15 -33,27 -33,50 0,16 2,30 4,30 3,0 21,-9 40,-21 z m 186,-4 c 41,-21 54,-96 17,-95 -24,1 -54,37 -60,73 -6,41 0,44 43,22 z m 303,-13 c 18,-20 27,-81 14,-89 -14,-8 -77,58 -77,82 0,12 3,24 6,27 9,9 42,-3 57,-20 z M 325,857 c 7,-20 10,-39 6,-42 -12,-7 -56,20 -55,33 1,7 2,21 3,33 2,33 31,18 46,-24 z m 709,-2 c 17,-16 26,-34 26,-56 v -31 l -42,25 c -34,20 -44,32 -46,56 -3,25 0,31 16,31 10,0 31,-11 46,-25 z m -883,-1 c 4,-2 4,-15 1,-29 -8,-44 -72,-21 -72,27 0,17 4,19 33,13 17,-4 35,-9 38,-11 z m 249,-14 c 12,-17 20,-39 18,-50 -3,-20 -3,-20 -35,0 -26,15 -33,27 -33,50 0,39 22,39 50,0 z m 339,13 c 17,-10 31,-23 31,-30 0,-6 3,-18 6,-27 9,-23 -22,-20 -57,5 -18,13 -29,29 -29,45 0,29 8,30 49,7 z m 187,-20 c 24,-20 34,-36 34,-55 0,-34 -17,-36 -54,-7 -19,15 -26,30 -26,55 0,19 2,34 6,34 3,0 21,-12 40,-27 z m -702,1 c 14,-5 24,-64 12,-64 -22,0 -56,23 -56,38 0,30 13,38 44,26 z m 267,-24 c 10,-6 19,-19 19,-30 0,-10 5,-22 10,-25 6,-4 9,-1 8,6 -5,24 32,20 55,-5 14,-14 33,-26 43,-26 36,-1 75,-49 42,-51 -10,0 -10,-2 0,-6 14,-5 17,-53 3,-53 -5,0 -22,13 -38,29 -16,15 -43,36 -61,45 -18,9 -36,24 -39,32 -3,8 -11,13 -17,11 -7,-3 -26,1 -44,9 -26,11 -32,19 -32,44 0,32 15,38 51,20 z m 636,-16 c 28,-21 33,-31 33,-65 0,-21 -3,-39 -7,-39 -5,0 -23,14 -40,30 -25,23 -33,38 -33,65 0,19 3,35 7,35 3,0 21,-11 40,-26 z M 341,777 c 4,-5 5,-17 2,-26 -7,-28 -60,-15 -67,15 -4,14 -4,29 -1,34 6,10 55,-8 66,-23 z m 483,18 c 3,-8 11,-14 18,-13 8,2 14,-10 16,-29 2,-23 -1,-33 -10,-33 -23,0 -58,39 -58,65 0,28 24,34 34,10 z M 128,784 c 16,-5 22,-14 22,-35 0,-25 -4,-29 -29,-29 -35,0 -45,12 -37,46 7,26 9,27 44,18 z m 905,-26 c 22,-16 27,-27 27,-59 0,-21 -3,-39 -7,-39 -14,0 -73,61 -74,76 -1,7 -2,20 -3,27 -5,32 4,31 57,-5 z M 924,739 c 30,-17 36,-27 36,-55 0,-40 -2,-41 -46,-13 -28,17 -34,27 -34,55 0,19 2,34 4,34 3,0 21,-9 40,-21 z M 143,693 c 10,-6 9,-51 -2,-58 -27,-16 -81,40 -65,67 5,7 48,2 67,-9 z" />
    <path
       style="fill:#000000"
       id="path6"
       d="m 1190,756 c 0,-11 30,-39 36,-34 2,3 -5,13 -16,23 -11,10 -20,15 -20,11 z" />
    <path
       style="fill:#000000"
       id="path8"
       d="m 1236,712 c -3,-5 8,-22 24,-37 17,-16 30,-24 30,-18 0,6 -7,16 -15,23 -8,7 -15,19 -15,26 0,15 -16,19 -24,6 z" />
    <path
       style="fill:#000000"
       id="path10"
       d="m 350,636 c 0,-29 -3,-33 -20,-29 -14,4 -20,0 -20,-11 0,-9 7,-16 15,-16 18,0 18,1 0,-85 -16,-77 -55,-159 -121,-252 -49,-68 -75,-88 -92,-71 -7,7 -14,4 -22,-12 -8,-15 -9,-25 -2,-32 31,-31 203,185 236,295 31,108 52,247 36,247 -6,0 -10,-15 -10,-34 z" />
    <path
       style="fill:#000000"
       id="path12"
       d="m 210,616 c 0,-9 5,-16 10,-16 6,0 10,4 10,9 0,6 -4,13 -10,16 -5,3 -10,-1 -10,-9 z" />
    <path
       style="fill:#000000"
       id="path14"
       d="m 1200,622 c 0,-3 10,-16 22,-29 12,-13 16,-23 10,-23 -7,0 -12,-5 -12,-11 0,-6 7,-9 15,-5 9,3 24,-3 35,-14 27,-27 25,-9 -2,33 -20,30 -68,65 -68,49 z" />
    <path
       style="fill:#000000"
       id="path16"
       d="m 545,507 c -4,-10 -5,-21 -1,-24 10,-10 18,4 13,24 -4,17 -4,17 -12,0 z" />
    <path
       style="fill:#000000"
       id="path18"
       d="m 1108,467 c 26,-27 29,-73 6,-98 -13,-14 -13,-21 -3,-40 11,-22 12,-22 25,-4 8,10 14,31 14,47 0,15 4,28 9,28 5,0 4,14 -2,30 -6,17 -17,30 -24,30 -7,0 -13,4 -13,9 0,5 -8,12 -17,15 -14,6 -12,2 5,-17 z" />
    <path
       style="fill:#000000"
       id="path20"
       d="m 1223,476 c 4,-10 7,-24 7,-32 0,-8 5,-14 11,-14 15,0 6,53 -10,58 -10,3 -12,0 -8,-12 z" />
    <path
       style="fill:#000000"
       id="path22"
       d="m 905,451 c -3,-5 -1,-12 5,-16 5,-3 10,1 10,9 0,18 -6,21 -15,7 z" />
    <path
       style="fill:#000000"
       id="path24"
       d="m 257,436 c -4,-10 -5,-21 -2,-24 9,-9 17,6 13,25 -3,17 -4,17 -11,-1 z" />
    <path
       style="fill:#000000"
       id="path26"
       d="m 27,425 c -4,-8 -2,-17 3,-20 6,-4 10,3 10,14 0,25 -6,27 -13,6 z" />
    <path
       style="fill:#000000"
       id="path28"
       d="m 800,410 c 0,-5 5,-10 11,-10 5,0 7,5 4,10 -3,6 -8,10 -11,10 -2,0 -4,-4 -4,-10 z" />
    <path
       style="fill:#000000"
       id="path30"
       d="m 1030,390 c 0,-5 5,-10 10,-10 6,0 10,5 10,10 0,6 -4,10 -10,10 -5,0 -10,-4 -10,-10 z" />
    <path
       style="fill:#000000"
       id="path32"
       d="m 381,364 c 0,-11 3,-14 6,-6 3,7 2,16 -1,19 -3,4 -6,-2 -5,-13 z" />
    <path
       style="fill:#000000"
       id="path34"
       d="m 447,311 c -16,-40 -26,-75 -24,-77 8,-9 58,109 55,130 -2,12 -14,-9 -31,-53 z" />
    <path
       style="fill:#000000"
       id="path36"
       d="m 1000,361 c 0,-5 5,-11 11,-13 19,-6 -20,-137 -48,-155 -21,-14 -22,-17 -7,-27 15,-11 14,-17 -10,-69 -19,-41 -30,-55 -41,-51 -8,4 -15,2 -15,-4 0,-5 7,-13 16,-16 8,-3 12,-10 9,-16 -3,-5 -2,-10 2,-10 13,0 74,153 103,255 5,17 13,45 19,64 6,19 8,37 6,40 -10,9 -45,11 -45,2 z" />
    <path
       style="fill:#000000"
       id="path38"
       d="m 506,353 c -11,-11 -6,-23 9,-23 8,0 15,4 15,9 0,13 -16,22 -24,14 z" />
    <path
       style="fill:#000000"
       id="path40"
       d="m 1210,330 c 0,-17 -6,-33 -13,-36 -8,-3 -11,-17 -9,-40 5,-41 11,-38 29,14 15,44 17,92 3,92 -5,0 -10,-14 -10,-30 z" />
    <path
       style="fill:#000000"
       id="path42"
       d="M 20,321 C 4,297 3,292 15,296 c 17,7 40,43 32,50 -3,3 -15,-9 -27,-25 z" />
    <path
       style="fill:#000000"
       id="path44"
       d="m 80,311 c -7,-15 -7,-21 0,-21 12,0 25,28 17,36 -3,3 -10,-4 -17,-15 z" />
    <path
       style="fill:#000000"
       id="path46"
       d="m 325,307 c -13,-19 -13,-22 1,-30 11,-6 21,-2 35,14 24,28 24,34 -1,36 -11,1 -27,-8 -35,-20 z" />
    <path
       style="fill:#000000"
       id="path48"
       d="m 727,324 c -4,-4 -7,-17 -7,-28 1,-19 1,-20 11,-3 11,19 8,43 -4,31 z" />
    <path
       style="fill:#000000"
       id="path50"
       d="m 813,289 c -7,-18 -11,-35 -8,-37 6,-6 27,48 23,60 -2,5 -9,-6 -15,-23 z" />
    <path
       style="fill:#000000"
       id="path52"
       d="m 196,301 c -4,-7 -5,-15 -2,-18 9,-9 19,4 14,18 -4,11 -6,11 -12,0 z" />
    <path
       style="fill:#000000"
       id="path54"
       d="m 532,290 c -14,-23 -15,-30 -3,-30 8,0 24,41 18,47 -2,1 -8,-7 -15,-17 z" />
    <path
       style="fill:#000000"
       id="path56"
       d="m 386,274 c -9,-22 -8,-24 9,-24 8,0 15,9 15,20 0,24 -15,27 -24,4 z" />
    <path
       style="fill:#000000"
       id="path58"
       d="m 1110,275 c 0,-8 -9,-24 -19,-34 -11,-11 -15,-21 -10,-23 17,-6 -41,-140 -63,-146 -19,-5 -24,-17 -9,-26 5,-3 7,-16 4,-29 -10,-48 48,60 68,128 12,39 28,87 35,108 8,22 10,37 4,37 -6,0 -10,-7 -10,-15 z" />
    <path
       style="fill:#000000"
       id="path60"
       d="m 712,250 c 0,-14 2,-19 5,-12 2,6 2,18 0,25 -3,6 -5,1 -5,-13 z" />
    <path
       style="fill:#000000"
       id="path62"
       d="m 302,210 c -26,-50 -12,-53 17,-4 23,39 25,44 13,44 -5,0 -18,-18 -30,-40 z" />
    <path
       style="fill:#000000"
       id="path64"
       d="m 786,204 c -4,-14 -5,-28 -3,-31 3,-2 8,8 11,23 4,14 5,28 3,31 -3,2 -8,-8 -11,-23 z" />
    <path
       style="fill:#000000"
       id="path66"
       d="m 402,196 c -6,-14 -17,-23 -24,-21 -7,3 -19,1 -27,-4 -12,-8 -12,-12 -2,-25 11,-13 9,-21 -9,-46 -28,-39 -21,-48 10,-15 36,38 73,110 67,128 -1,5 -8,-2 -15,-17 z" />
    <path
       style="fill:#000000"
       id="path68"
       d="m 661,206 c -13,-16 -2,-29 16,-18 7,4 8,13 4,20 -6,10 -10,10 -20,-2 z" />
    <path
       style="fill:#000000"
       id="path70"
       d="m 1177,186 c -5,-15 -6,-31 -3,-34 8,-8 18,25 14,45 -3,13 -6,10 -11,-11 z" />
    <path
       style="fill:#000000"
       id="path72"
       d="m 240,188 c 0,-9 -6,-19 -12,-21 -10,-4 -10,-6 0,-6 14,-1 28,26 18,36 -3,4 -6,-1 -6,-9 z" />
    <path
       style="fill:#000000"
       id="path74"
       d="m 1240,185 c 0,-8 5,-15 10,-15 6,0 10,7 10,15 0,8 -4,15 -10,15 -5,0 -10,-7 -10,-15 z" />
    <path
       style="fill:#000000"
       id="path76"
       d="m 1271,184 c 0,-11 3,-14 6,-6 3,7 2,16 -1,19 -3,4 -6,-2 -5,-13 z" />
    <path
       style="fill:#000000"
       id="path78"
       d="m 487,168 c -8,-12 -26,-45 -41,-73 -25,-46 -25,-48 -4,-25 28,31 72,109 65,117 -3,2 -12,-6 -20,-19 z" />
    <path
       style="fill:#000000"
       id="path80"
       d="m 573,179 c -24,-9 -30,-24 -13,-34 6,-3 2,-21 -10,-43 -11,-20 -20,-41 -20,-47 1,-5 17,21 36,59 19,37 34,69 32,71 -2,1 -13,-1 -25,-6 z" />
    <path
       style="fill:#000000"
       id="path82"
       d="m 1135,160 c -3,-5 -1,-10 4,-10 6,0 11,5 11,10 0,6 -2,10 -4,10 -3,0 -8,-4 -11,-10 z" />
    <path
       style="fill:#000000"
       id="path84"
       d="m 425,151 c -3,-5 -1,-12 5,-16 5,-3 10,1 10,9 0,18 -6,21 -15,7 z" />
    <path
       style="fill:#000000"
       id="path86"
       d="m 830,140 c 0,-5 5,-10 10,-10 6,0 10,5 10,10 0,6 -4,10 -10,10 -5,0 -10,-4 -10,-10 z" />
    <path
       style="fill:#000000"
       id="path88"
       d="m 712,72 c -15,-33 -8,-40 18,-17 23,21 25,31 7,38 -7,2 -18,-7 -25,-21 z" />
    <path
       style="fill:#000000"
       id="path90"
       d="m 615,70 c -8,-13 4,-32 16,-25 12,8 12,35 0,35 -6,0 -13,-4 -16,-10 z" />
    <path
       style="fill:#000000"
       id="path92"
       d="m 1216,71 c -8,-13 -3,-61 6,-61 4,0 8,6 8,13 0,6 3,22 6,35 6,21 -9,31 -20,13 z" />
    <path
       style="fill:#000000"
       id="path94"
       d="M 112,49 C 95,22 107,9 126,34 c 8,11 14,23 14,28 0,15 -15,8 -28,-13 z" />
    <path
       style="fill:#000000"
       id="path96"
       d="m 821,43 c 0,-6 -4,-20 -7,-30 -5,-14 -4,-15 5,-7 7,7 11,20 8,30 -3,11 -5,14 -6,7 z" />
    <path
       style="fill:#000000"
       id="path98"
       d="m 1096,41 c -4,-5 -2,-12 3,-15 5,-4 12,-2 15,3 4,5 2,12 -3,15 -5,4 -12,2 -15,-3 z" />
    <path
       style="fill:#000000"
       id="path100"
       d="m 374,24 c 3,-9 6,-18 6,-20 0,-2 7,-4 15,-4 20,0 19,26 -1,34 -24,9 -27,8 -20,-10 z" />
    <path
       style="fill:#000000"
       id="path102"
       d="m 471,26 c -8,-9 -11,-19 -7,-23 9,-9 29,13 24,27 -2,8 -8,7 -17,-4 z" />
  </g>
  <g
     style="fill:#000000;stroke:none"
     id="g76"
     transform="matrix(0.1,0,0,-0.1,-127.2,127.7)">
    <path
       id="path4-3"
       d="m 7,1264 c -16,-16 -5,-24 36,-24 31,0 38,-3 27,-10 -8,-5 -27,-10 -42,-10 -21,0 -28,-5 -28,-19 0,-16 12,-21 86,-31 50,-7 104,-22 130,-36 48,-25 59,-17 19,14 -36,28 -31,35 21,29 29,-3 64,-17 97,-40 78,-52 87,-53 35,-4 -27,25 -48,50 -48,56 0,6 -12,11 -27,12 -16,0 -37,4 -48,9 -19,7 -19,8 -2,15 37,15 96,-3 154,-47 82,-62 96,-67 41,-15 -27,25 -48,48 -48,51 0,27 120,-26 147,-65 8,-10 19,-19 25,-19 6,0 2,10 -10,23 -12,13 -22,28 -22,33 0,13 -96,84 -114,84 -10,0 -13,-6 -9,-16 5,-13 -1,-14 -33,-9 -22,3 -56,11 -77,17 -28,9 -43,8 -61,-1 -15,-9 -42,-11 -77,-7 -30,3 -79,8 -109,12 -30,3 -58,2 -63,-2 z m 191,-59 c 12,-12 -9,-16 -59,-9 -41,6 -49,9 -34,15 20,9 83,5 93,-6 z" />
    <path
       id="path6-6"
       d="m 541,1250 c 21,-11 65,-51 99,-90 35,-38 66,-67 71,-65 15,10 59,-19 85,-56 15,-22 31,-39 35,-39 13,0 11,6 -16,46 -14,20 -25,43 -25,50 0,17 -17,19 -22,3 -6,-18 -73,28 -113,77 -35,42 -35,44 -13,44 39,1 -61,49 -102,49 h -35 z" />
    <path
       id="path8-1"
       d="m 657,1245 c 10,-13 25,-27 34,-30 9,-3 29,-23 43,-45 17,-27 34,-40 49,-40 12,0 30,-7 39,-14 23,-17 61,-103 54,-122 -3,-8 3,-25 14,-36 12,-13 20,-36 20,-55 0,-33 -16,-45 -26,-19 -7,17 -34,30 -34,15 0,-5 16,-19 36,-31 24,-14 43,-37 59,-72 16,-35 24,-44 24,-29 1,12 5,24 10,27 12,8 26,-11 47,-64 10,-25 21,-47 24,-50 4,-3 15,-20 24,-37 9,-18 28,-40 42,-50 20,-13 24,-22 19,-42 -4,-19 -3,-22 4,-11 9,13 12,12 25,-5 32,-42 14,-1 -24,55 -22,32 -40,67 -40,77 0,10 -9,24 -20,31 -11,7 -20,17 -20,23 0,5 -11,26 -25,47 -17,26 -21,38 -13,43 18,11 45,-7 52,-35 6,-26 46,-88 104,-165 20,-27 32,-52 29,-63 -5,-16 13,-35 60,-62 9,-5 12,19 12,94 0,55 -4,102 -8,104 -4,3 -6,-15 -4,-39 5,-55 -8,-58 -30,-7 -9,20 -21,44 -26,52 -5,8 -15,29 -21,47 -7,18 -17,31 -24,30 -6,-1 -10,8 -9,21 2,13 -1,21 -5,18 -5,-3 -19,8 -31,24 -12,17 -28,30 -36,30 -31,0 -21,16 11,17 28,1 37,-4 44,-23 14,-35 23,-29 15,9 -11,48 -21,56 -62,50 -28,-5 -39,-2 -49,12 -20,27 -17,41 4,22 18,-16 62,-24 62,-11 0,23 -64,113 -83,118 -27,6 -55,66 -31,66 8,0 14,-4 14,-9 0,-5 22,-31 50,-58 27,-26 50,-54 50,-60 0,-7 5,-13 11,-13 5,0 24,-30 41,-67 l 32,-67 9,34 c 6,23 5,36 -2,38 -6,2 -11,12 -11,22 0,10 -6,20 -13,23 -7,2 -21,22 -32,43 -10,22 -57,76 -104,121 -83,80 -88,83 -133,83 -57,0 -98,14 -98,34 0,10 13,16 38,19 21,2 10,4 -28,5 -36,0 -59,-2 -52,-5 24,-9 12,-21 -23,-21 -23,0 -35,5 -35,14 0,9 -12,14 -35,14 h -36 z m 118,-42 c 26,-30 31,-43 15,-43 -15,0 -50,38 -50,55 0,21 8,19 35,-12 z m 188,-32 c 18,-18 0,-24 -39,-14 -53,12 -60,38 -9,30 21,-4 43,-11 48,-16 z m -68,-72 c 11,-17 -1,-21 -15,-4 -8,9 -8,15 -2,15 6,0 14,-5 17,-11 z m 35,-91 c 22,-34 30,-68 16,-68 -19,0 -36,22 -36,45 0,12 -5,26 -12,33 -9,9 -9,12 3,12 8,0 21,-10 29,-22 z m 80,-65 c 0,-22 -8,-14 -19,20 -10,29 -9,30 4,13 8,-11 15,-26 15,-33 z m 55,37 c 3,-5 1,-10 -4,-10 -6,0 -11,5 -11,10 0,6 2,10 4,10 3,0 8,-4 11,-10 z m -29,-126 c -10,-25 -46,6 -46,40 v 29 l 26,-28 c 14,-15 23,-34 20,-41 z m -66,37 c 13,-25 13,-71 0,-71 -11,0 -25,25 -34,63 -8,33 17,39 34,8 z m 200,-197 c 0,-8 -4,-12 -10,-9 -5,3 -10,10 -10,16 0,5 5,9 10,9 6,0 10,-7 10,-16 z m 43,-45 c 19,-34 22,-49 8,-49 -8,0 -41,60 -41,74 0,16 17,3 33,-25 z" />
    <path
       id="path10-2"
       d="m 1102,1243 c 63,-68 77,-86 92,-118 9,-18 20,-35 24,-37 4,-2 19,-21 32,-43 22,-35 25,-37 28,-18 8,58 -129,242 -182,243 -18,0 -17,-3 6,-27 z" />
    <path
       id="path12-9"
       d="m 1170,1262 c 0,-5 12,-20 28,-33 15,-14 39,-41 54,-60 25,-32 27,-32 28,-11 0,29 -68,112 -92,112 -10,0 -18,-4 -18,-8 z" />
    <path
       id="path14-3"
       d="m 1030,1221 c 0,-4 32,-46 70,-92 75,-89 119,-160 156,-249 l 23,-55 1,39 c 0,26 -10,58 -30,93 -16,29 -30,58 -30,64 0,15 -35,60 -109,140 -61,65 -81,80 -81,60 z" />
    <path
       id="path16-1"
       d="m 0,1127 c 0,-8 24,-17 63,-24 34,-7 73,-15 86,-19 17,-5 23,-4 19,6 -4,13 -115,50 -150,50 -10,0 -18,-6 -18,-13 z" />
    <path
       id="path18-9"
       d="m 293,1090 c 14,-11 29,-20 34,-20 11,1 -37,40 -49,40 -6,0 1,-9 15,-20 z" />
    <path
       id="path20-4"
       d="m 519,1094 c 21,-36 41,-57 48,-51 8,9 -28,59 -46,65 -10,3 -10,0 -2,-14 z" />
    <path
       id="path22-7"
       d="m 2,1055 c 2,-15 15,-18 70,-19 38,-1 68,-1 68,1 0,8 -43,22 -88,28 -48,6 -54,5 -50,-10 z" />
    <path
       id="path24-8"
       d="m 360,1035 c 7,-9 15,-13 17,-11 7,7 -7,26 -19,26 -6,0 -6,-6 2,-15 z" />
    <path
       id="path26-4"
       d="m 0,1004 c 0,-8 8,-14 18,-14 9,0 35,-9 56,-21 21,-11 40,-18 42,-16 7,7 -18,23 -68,45 -39,17 -48,18 -48,6 z" />
    <path
       id="path28-5"
       d="m 210,950 c 0,-5 12,-10 28,-9 24,0 25,1 7,9 -27,12 -35,12 -35,0 z" />
    <path
       id="path30-0"
       d="m 824,949 c -3,-6 -1,-16 5,-22 8,-8 11,-5 11,11 0,24 -5,28 -16,11 z" />
    <path
       id="path32-3"
       d="m 445,920 c 10,-11 22,-17 27,-14 5,3 1,12 -9,20 -27,20 -39,17 -18,-6 z" />
    <path
       id="path34-6"
       d="m 259,899 c -11,-7 -9,-9 7,-9 20,0 44,-17 44,-32 0,-14 -45,-9 -82,10 -35,19 -37,18 -53,0 -14,-16 -27,-19 -81,-16 -65,3 -86,-7 -36,-18 45,-10 52,-13 52,-24 0,-13 -46,-13 -72,1 -30,16 -37,-1 -8,-20 14,-9 62,-54 108,-99 65,-65 81,-78 76,-58 -5,22 -3,26 14,26 11,0 34,-12 51,-26 17,-14 31,-21 31,-15 0,19 56,12 75,-9 12,-13 25,-17 45,-14 30,7 59,-17 87,-69 20,-40 9,-45 -40,-19 -23,12 -47,22 -53,22 -6,0 -32,11 -57,25 -26,13 -54,22 -62,19 -8,-4 -21,-2 -28,4 -6,5 -23,13 -35,17 -22,6 -23,5 -17,-17 4,-12 14,-30 22,-38 14,-13 15,-13 10,3 -9,24 32,23 80,-3 21,-11 45,-20 53,-20 8,0 29,-8 45,-18 17,-9 48,-23 70,-31 44,-15 125,-67 125,-80 0,-5 14,-14 31,-21 36,-15 151,-128 185,-182 14,-21 29,-38 34,-38 12,0 50,-59 50,-77 0,-26 -28,-12 -56,28 -15,22 -37,48 -48,57 -12,10 -41,40 -66,67 -44,49 -135,128 -175,152 -11,6 -58,31 -105,54 -47,23 -86,46 -88,51 -2,4 -15,8 -28,8 -14,0 -40,7 -59,14 -27,12 -35,12 -35,2 0,-21 23,-36 57,-36 39,0 197,-78 254,-126 23,-19 44,-34 49,-34 22,0 220,-217 220,-242 0,-10 10,-22 23,-27 13,-5 29,-16 36,-25 19,-22 41,-20 41,4 0,26 16,26 32,0 12,-18 38,-28 38,-14 0,13 -25,52 -56,87 -19,20 -34,42 -34,47 0,6 -63,73 -140,150 -77,77 -140,144 -140,149 0,5 4,13 10,16 10,6 27,-8 162,-134 37,-35 71,-61 75,-58 3,4 -1,15 -9,24 -22,25 -51,84 -44,90 10,11 73,-46 86,-76 7,-19 20,-31 31,-31 18,0 69,-57 69,-77 0,-6 16,-23 35,-37 35,-27 105,-123 105,-145 0,-6 14,-11 32,-11 h 32 l -26,28 c -14,15 -35,48 -46,75 -14,31 -30,50 -46,57 -15,5 -26,14 -26,18 0,5 -18,27 -40,48 -22,22 -40,44 -40,51 0,6 -10,13 -22,15 -14,2 -34,21 -53,50 -17,27 -38,47 -48,47 -18,1 -107,87 -107,103 0,14 51,9 66,-6 8,-8 18,-26 24,-40 5,-14 17,-26 26,-26 15,0 179,-161 255,-252 21,-24 50,-59 67,-78 16,-19 36,-48 45,-65 14,-27 16,-28 17,-8 0,25 -37,85 -77,125 l -28,28 h 29 c 17,0 40,-10 53,-22 16,-15 23,-17 23,-7 0,8 -22,37 -50,64 -27,28 -49,53 -50,58 0,15 30,6 58,-18 36,-30 42,-31 42,-6 0,23 -16,37 -23,19 -2,-8 -26,12 -58,46 -76,83 -104,135 -54,102 30,-20 105,-97 105,-109 0,-4 5,-5 10,-2 6,4 -1,21 -18,43 -16,20 -34,47 -41,60 -6,12 -18,22 -25,22 -7,0 -21,9 -30,19 -10,10 -26,21 -36,24 -16,4 -18,2 -10,-13 14,-27 12,-43 -5,-36 -24,9 -18,-3 20,-41 42,-42 49,-74 11,-46 -14,10 -30,29 -37,43 -7,14 -20,33 -28,43 -13,16 -13,17 2,11 27,-10 20,5 -28,62 -25,28 -45,57 -45,62 0,5 -6,22 -14,37 -12,23 -15,24 -18,8 -3,-15 -11,-10 -46,27 -23,25 -42,50 -42,57 0,7 -7,10 -15,7 -9,-4 -26,6 -42,25 -15,17 -37,31 -48,31 -11,0 -38,12 -59,26 -30,21 -37,31 -33,51 3,18 -2,28 -20,40 -31,20 -40,10 -19,-22 21,-33 6,-33 -58,0 -27,14 -57,25 -66,25 -9,0 -41,8 -71,18 -65,23 -160,34 -180,21 z m 148,-38 c 10,-13 8,-17 -7,-19 -25,-4 -82,26 -74,39 8,14 66,0 81,-20 z M 220,819 c 0,-12 -67,-12 -75,0 -3,5 7,11 22,13 33,4 53,-1 53,-13 z m 333,-1 c 19,-10 23,-28 7,-28 -18,0 -77,27 -84,39 -8,12 47,5 77,-11 z m -189,-8 c 17,-17 -2,-23 -49,-16 -29,5 -45,12 -45,22 0,11 10,13 42,9 23,-3 47,-10 52,-15 z m 88,-14 c 41,-17 64,-41 49,-50 -6,-4 -33,5 -61,19 -74,37 -64,62 12,31 z M 151,779 c 11,-5 17,-14 14,-20 -9,-14 -51,-11 -64,4 -20,25 13,36 50,16 z m 125,-20 19,-22 -40,7 c -22,4 -47,14 -55,22 -12,12 -10,14 21,14 24,0 42,-7 55,-21 z m 136,-15 c 15,-8 36,-14 47,-14 46,0 117,-59 91,-75 -18,-11 -79,15 -85,36 -5,16 -13,19 -38,14 -33,-6 -106,28 -114,52 -5,15 60,6 99,-13 z m 261,12 c 9,-7 17,-18 17,-25 0,-13 -54,11 -65,29 -9,15 27,12 48,-4 z m -72,-24 c 18,-16 29,-34 25,-40 -10,-17 -72,15 -85,44 -9,21 -8,24 9,24 11,0 34,-13 51,-28 z M 212,713 c 22,-20 23,-33 3,-33 -19,0 -65,29 -65,41 0,15 42,10 62,-8 z m 130,-25 c 21,-29 13,-41 -21,-33 -32,8 -73,44 -64,57 9,16 67,-1 85,-24 z m 443,-3 c 28,-27 32,-45 11,-45 -13,0 -56,49 -56,64 0,14 22,4 45,-19 z M 453,660 c 14,-11 32,-20 41,-20 26,0 96,-49 96,-66 0,-11 -5,-14 -17,-9 -10,4 -38,15 -63,24 -81,31 -125,56 -128,74 -5,24 38,23 71,-3 z m 261,4 c 9,-25 7,-34 -9,-34 -12,0 -35,28 -35,44 0,14 38,5 44,-10 z m -54,-59 c 0,-14 -4,-25 -9,-25 -16,0 -71,58 -71,74 0,14 5,14 40,-4 30,-16 40,-26 40,-45 z m 219,9 c 24,-30 28,-66 8,-58 -15,5 -47,56 -47,73 0,19 18,12 39,-15 z m -64,-21 c 30,-34 36,-79 7,-64 -24,13 -39,31 -51,64 -14,37 9,37 44,0 z m -82,-22 c 23,-9 47,-64 34,-77 -8,-8 -77,57 -77,72 0,16 10,17 43,5 z m -43,-50 c 25,-49 -4,-55 -52,-13 -21,20 -29,34 -25,46 6,15 9,15 37,1 16,-8 34,-24 40,-34 z m 288,2 c 39,-57 34,-85 -7,-44 -19,19 -41,54 -41,65 0,17 31,2 48,-21 z M 600,504 c 37,-34 52,-64 31,-64 -32,0 -80,33 -90,61 -14,40 -14,39 4,39 8,0 33,-16 55,-36 z m 309,10 c 24,-30 28,-64 7,-64 -19,0 -35,22 -42,58 -8,39 7,42 35,6 z M 778,449 c 32,-32 47,-69 30,-69 -17,0 -90,79 -83,90 10,16 21,12 53,-21 z m 241,-42 c 40,-47 54,-83 29,-75 -21,7 -99,108 -92,119 9,15 17,9 63,-44 z m 140,-154 c 29,-35 41,-73 23,-73 -11,0 -67,60 -81,87 -29,57 7,48 58,-14 z" />
    <path
       id="path36-1"
       d="m 1208,805 c 2,-14 8,-25 12,-25 10,0 1,38 -10,45 -4,2 -5,-7 -2,-20 z" />
    <path
       id="path38-0"
       d="m 750,790 c 18,-16 34,-30 36,-30 3,0 -5,14 -18,30 -12,17 -28,30 -36,30 -8,0 -1,-13 18,-30 z" />
    <path
       id="path40-6"
       d="m 0,751 c 0,-12 11,-26 28,-35 15,-8 39,-25 53,-38 14,-13 36,-33 50,-43 13,-11 39,-42 56,-70 18,-27 33,-43 33,-34 0,9 -7,22 -15,29 -8,7 -15,18 -15,24 C 190,600 52,744 23,759 3,769 0,768 0,751 Z" />
    <path
       id="path42-3"
       d="m 830,745 c 7,-9 15,-13 17,-11 7,7 -7,26 -19,26 -6,0 -6,-6 2,-15 z" />
    <path
       id="path44-2"
       d="m 1237,732 c 3,-12 9,-25 14,-28 14,-8 11,10 -6,32 -13,18 -14,18 -8,-4 z" />
    <path
       id="path46-0"
       d="m 940,651 c 0,-5 5,-13 10,-16 6,-3 10,-2 10,4 0,5 -4,13 -10,16 -5,3 -10,2 -10,-4 z" />
    <path
       id="path48-6"
       d="m 1031,599 c 1,-29 36,-73 63,-80 26,-7 26,-6 -15,39 -23,26 -44,49 -46,51 -2,2 -3,-2 -2,-10 z" />
    <path
       id="path50-1"
       d="m 116,577 c 3,-10 9,-15 12,-12 3,3 0,11 -7,18 -10,9 -11,8 -5,-6 z" />
    <path
       id="path52-5"
       d="m 156,527 c 3,-10 9,-15 12,-12 3,3 0,11 -7,18 -10,9 -11,8 -5,-6 z" />
    <path
       id="path54-5"
       d="m 100,511 c 0,-5 5,-13 10,-16 6,-3 10,-2 10,4 0,5 -4,13 -10,16 -5,3 -10,2 -10,-4 z" />
    <path
       id="path56-4"
       d="m 230,491 c 0,-5 5,-13 10,-16 6,-3 10,-2 10,4 0,5 -4,13 -10,16 -5,3 -10,2 -10,-4 z" />
    <path
       id="path58-7"
       d="m 310,446 c 0,-25 24,-95 31,-91 4,3 6,12 3,19 -11,29 16,24 94,-18 141,-76 262,-180 262,-226 0,-11 -2,-20 -5,-20 -3,0 -39,34 -80,75 -42,41 -80,75 -84,75 -5,0 -47,18 -94,40 -96,45 -97,45 -97,25 0,-8 6,-12 14,-9 34,13 273,-149 263,-179 -7,-23 -29,-17 -61,17 -19,19 -47,43 -63,53 -16,10 -45,28 -64,40 -19,13 -40,23 -46,23 -26,0 -12,-20 27,-40 30,-16 40,-26 40,-45 0,-30 -6,-31 -45,-5 -44,29 -70,26 -72,-7 0,-16 1,-20 4,-10 6,21 29,23 37,2 3,-8 14,-15 24,-15 23,0 62,-40 62,-63 0,-9 -3,-17 -8,-17 -15,0 -52,31 -52,44 0,18 -72,29 -81,14 -4,-7 -5,-17 -2,-22 4,-6 8,-6 11,2 4,14 62,-12 62,-28 0,-13 -37,-13 -45,0 C 334,98 324,91 312,57 292,3 295,0 360,0 c 57,0 60,1 60,25 0,32 12,32 41,0 13,-14 35,-25 49,-24 h 25 l -22,18 c -13,11 -23,29 -23,41 0,18 2,19 13,8 7,-7 21,-25 31,-40 C 548,7 560,0 584,0 h 31 l -29,23 c -22,18 -27,28 -22,45 4,12 11,22 16,22 14,0 50,-51 50,-71 0,-15 7,-19 33,-19 18,0 27,4 20,8 -6,4 -17,20 -22,35 -10,26 -9,28 11,25 14,-2 29,-15 38,-35 L 725,0 h 79 c 69,0 77,2 66,15 -7,9 -15,13 -18,10 -6,-6 -52,46 -52,59 0,5 -49,57 -109,115 -94,92 -123,114 -212,159 -57,29 -108,52 -113,52 -6,0 -20,10 -33,22 -13,12 -23,18 -23,14 z M 518,154 c 23,-16 31,-64 10,-64 -19,0 -58,42 -58,62 0,22 18,23 48,2 z M 660,89 c 0,-6 -4,-7 -10,-4 -5,3 -10,11 -10,16 0,6 5,7 10,4 6,-3 10,-11 10,-16 z M 781,52 c 5,-14 6,-29 1,-34 -12,-12 -56,38 -49,56 9,22 36,9 48,-22 z M 384,34 c 4,-9 5,-19 2,-21 -6,-6 -46,20 -46,29 0,15 38,8 44,-8 z" />
    <path
       id="path60-6"
       d="m 273,366 c 7,-50 17,-58 17,-13 0,20 -5,39 -11,43 -7,4 -9,-5 -6,-30 z" />
    <path
       id="path62-5"
       d="m 81,314 c 0,-11 3,-14 6,-6 3,7 2,16 -1,19 -3,4 -6,-2 -5,-13 z" />
    <path
       id="path64-6"
       d="m 335,280 c -4,-6 -3,-16 3,-22 6,-6 12,-6 17,2 4,6 3,16 -3,22 -6,6 -12,6 -17,-2 z" />
    <path
       id="path66-9"
       d="m 910,236 c 0,-2 11,-17 24,-32 102,-120 134,-162 140,-182 5,-15 15,-22 34,-22 h 26 l -27,28 c -15,15 -31,42 -37,59 -6,17 -17,30 -25,29 -13,-1 -95,99 -95,116 0,4 -9,8 -20,8 -11,0 -20,-2 -20,-4 z" />
    <path
       id="path68-3"
       d="m 200,163 c 0,-4 5,-15 10,-23 8,-13 10,-13 10,2 0,9 -4,20 -10,23 -5,3 -10,3 -10,-2 z" />
    <path
       id="path70-7"
       d="M 4,61 C 7,43 10,21 10,14 10,6 14,0 19,0 29,0 16,77 5,88 1,92 0,80 4,61 Z" />
    <path
       id="path72-4"
       d="m 250,50 c 0,-5 5,-10 10,-10 6,0 10,5 10,10 0,6 -4,10 -10,10 -5,0 -10,-4 -10,-10 z" />
    <path
       id="path74-5"
       d="m 85,20 c 3,-5 8,-10 11,-10 2,0 4,5 4,10 0,6 -5,10 -11,10 -5,0 -7,-4 -4,-10 z" />
  </g>
  <g
     style="fill:#000000;stroke:none"
     id="g96"
     transform="matrix(0,-0.1,-0.1,0,265.3,129.1)">
    <path
       id="path4-2"
       d="m 344,1325 c 0,-23 4,-35 13,-35 9,0 13,-16 13,-57 0,-61 17,-64 24,-4 2,18 8,37 14,43 17,17 25,-31 13,-82 -11,-49 -13,-90 -2,-51 13,47 31,36 31,-18 0,-28 3,-51 8,-51 17,1 27,17 26,40 -3,32 5,60 17,60 14,0 11,-65 -6,-96 -13,-25 -12,-31 4,-58 10,-17 22,-48 25,-69 5,-28 11,-37 21,-33 19,7 31,-14 14,-24 -7,-5 -16,-7 -21,-4 -4,2 -10,-12 -13,-33 -3,-21 -14,-54 -23,-73 -23,-48 -97,-118 -144,-137 -30,-12 -36,-18 -28,-28 9,-10 6,-16 -9,-25 -12,-6 -21,-17 -21,-25 0,-20 -19,-19 -26,0 -10,26 -23,17 -45,-32 -19,-41 -19,-47 -5,-55 17,-10 22,-48 6,-48 -5,0 -10,-4 -10,-10 0,-5 7,-10 17,-10 15,0 14,-2 -2,-20 -9,-10 -18,-34 -20,-51 -1,-22 -9,-35 -22,-40 -23,-8 -36,-62 -19,-79 7,-7 4,-14 -8,-23 -13,-10 -17,-24 -14,-67 3,-48 6,-55 25,-58 15,-2 26,-14 33,-38 13,-38 33,-41 38,-5 2,13 0,21 -5,18 -5,-3 -15,-2 -22,3 -18,11 -3,33 19,27 13,-3 16,0 12,15 -6,26 -28,33 -58,20 -21,-10 -24,-9 -24,8 0,16 6,18 31,15 27,-3 30,-1 25,16 -3,10 -9,28 -12,39 -9,27 11,25 31,-2 16,-23 16,-23 10,7 -4,17 -11,43 -16,59 -12,38 -13,37 16,30 23,-6 25,-4 25,30 0,38 8,44 28,24 7,-7 12,-8 12,-3 0,12 -20,75 -33,103 -15,32 5,52 31,29 17,-15 17,-13 14,53 -3,47 -1,70 7,70 6,0 11,-13 11,-29 0,-40 27,-49 32,-10 3,16 1,29 -4,29 -4,0 -8,7 -8,15 0,22 11,18 38,-12 l 25,-28 -8,40 c -4,22 -3,37 1,33 4,-4 13,-3 21,3 7,6 13,8 13,4 0,-4 7,-2 15,5 8,7 15,20 15,30 0,11 7,17 18,16 9,0 17,6 17,14 0,8 8,23 18,33 27,27 39,65 27,88 -8,14 -7,27 5,48 11,22 12,37 5,55 -10,27 -8,29 27,27 11,-1 24,3 28,8 3,6 14,11 25,11 10,0 21,8 25,18 6,15 8,15 26,-7 14,-18 19,-19 19,-7 0,10 9,16 23,16 29,1 61,25 52,40 -9,15 12,30 43,30 16,0 22,6 22,23 0,29 15,51 29,43 6,-4 11,0 11,8 0,9 5,16 11,16 5,0 8,4 4,10 -3,5 0,18 7,29 10,17 9,23 -6,40 -17,19 -17,19 2,14 24,-6 40,15 18,23 -23,9 -19,33 9,56 34,27 31,38 -10,38 -28,0 -35,-4 -35,-20 0,-11 -4,-20 -9,-20 -5,0 -7,9 -4,20 5,18 0,20 -50,20 -34,0 -58,-5 -61,-12 -5,-10 -7,-10 -12,0 -10,22 -42,12 -64,-20 l -21,-33 6,33 c 6,27 4,32 -13,32 -14,0 -21,-9 -25,-30 -4,-16 -12,-30 -18,-30 -7,0 -10,12 -7,30 6,38 -17,41 -34,5 -6,-14 -15,-25 -20,-25 -4,0 -8,11 -8,25 0,37 -24,30 -39,-12 -12,-31 -15,-34 -23,-19 -6,10 -8,26 -5,37 9,35 -21,20 -33,-16 -6,-19 -16,-35 -21,-35 -11,0 -23,46 -14,59 3,6 -1,11 -10,11 -9,0 -18,-12 -22,-30 -8,-43 -20,-45 -27,-5 -9,46 -31,46 -32,0 z m 150,-53 c 4,-10 0,-36 -8,-58 l -14,-39 -11,27 c -7,19 -7,36 0,58 12,34 25,39 33,12 z m 63,-19 c 2,-6 -2,-17 -10,-24 -7,-8 -12,-20 -9,-27 2,-6 -1,-12 -7,-12 -12,0 -15,62 -4,74 9,9 26,3 30,-11 z m 63,2 c 0,-20 -22,-65 -32,-65 -11,0 -10,23 2,54 10,28 30,35 30,11 z m 60,-11 c 0,-13 -21,-44 -30,-44 -14,0 -12,24 2,38 13,13 28,16 28,6 z m 120,-4 c 0,-5 -5,-10 -11,-10 -5,0 -7,5 -4,10 3,6 8,10 11,10 2,0 4,-4 4,-10 z m -70,-24 c 0,-8 -4,-18 -10,-21 -5,-3 -10,3 -10,14 0,12 5,21 10,21 6,0 10,-6 10,-14 z m -160,-69 c 0,-13 -6,-32 -14,-42 -13,-18 -14,-18 -20,3 -8,23 8,62 24,62 6,0 10,-10 10,-23 z m 63,17 c 9,-9 -21,-64 -34,-64 -7,0 -8,7 -4,18 4,9 10,25 12,35 5,18 15,22 26,11 z m 58,-26 c -9,-24 -31,-37 -31,-18 0,20 21,51 30,45 5,-3 6,-15 1,-27 z m 64,-5 c -8,-35 -13,-39 -26,-26 -8,8 -8,17 0,32 17,31 35,27 26,-6 z m -44,-76 c -13,-13 -26,-3 -16,12 3,6 11,8 17,5 6,-4 6,-10 -1,-17 z m -61,-7 c 0,-11 -4,-20 -9,-20 -14,0 -23,18 -16,30 10,17 25,11 25,-10 z m -117,-5 c 4,-8 2,-17 -3,-20 -6,-4 -10,3 -10,14 0,25 6,27 13,6 z m 234,-21 c -3,-3 -12,-4 -19,-1 -8,3 -5,6 6,6 11,1 17,-2 13,-5 z M 305,521 c 7,-12 -12,-24 -25,-16 -11,7 -4,25 10,25 5,0 11,-4 15,-9 z" />
    <path
       id="path6-5"
       d="m 1160,1336 c 0,-13 7,-26 15,-30 8,-3 15,-12 15,-21 0,-17 -25,-21 -35,-5 -15,24 -24,7 -11,-19 9,-16 13,-31 9,-34 -3,-3 4,-18 16,-33 11,-15 21,-36 21,-47 0,-17 -2,-18 -17,-6 -9,8 -23,30 -31,49 -12,26 -17,31 -20,17 -2,-10 6,-38 18,-63 20,-44 20,-84 -1,-84 -12,0 -28,41 -22,56 2,6 -3,14 -11,17 -14,6 -15,0 -10,-36 4,-23 10,-46 14,-52 14,-18 15,-62 2,-77 -10,-13 -10,-17 3,-22 8,-3 15,0 15,7 0,8 4,7 10,-3 9,-13 11,-13 20,0 13,20 13,25 -5,40 -16,13 -21,50 -6,50 5,0 11,-9 14,-20 8,-30 24,-24 31,11 4,23 2,35 -11,44 -9,7 -14,19 -10,29 9,24 24,20 31,-9 4,-14 11,-25 17,-25 6,0 8,8 5,18 -17,57 -17,69 -1,76 13,4 15,13 10,36 -4,19 -2,36 5,45 9,11 8,26 -5,65 -9,27 -21,50 -26,50 -12,0 -12,0 6,-50 18,-50 18,-53 5,-45 -6,3 -19,26 -30,51 -23,50 -30,55 -30,20 z m 50,-110 c 0,-8 -4,-18 -10,-21 -5,-3 -10,-4 -10,-1 0,2 -3,11 -6,20 -4,11 -1,16 10,16 9,0 16,-6 16,-14 z" />
    <path
       id="path8-4"
       d="m 978,1263 c 7,-3 16,-2 19,1 4,3 -2,6 -13,5 -11,0 -14,-3 -6,-6 z" />
    <path
       id="path10-7"
       d="m 1070,1176 c 0,-9 7,-16 16,-16 17,0 14,22 -4,28 -7,2 -12,-3 -12,-12 z" />
    <path
       id="path12-4"
       d="m 1047,1103 c -4,-3 -7,-21 -7,-39 0,-18 -3,-34 -7,-37 -5,-2 -3,-3 3,-1 12,3 39,-58 50,-113 5,-24 3,-33 -7,-33 -11,-1 -11,-3 2,-13 8,-7 18,-21 22,-31 6,-14 11,-16 18,-9 7,7 8,17 3,25 -5,7 -18,46 -30,86 -16,57 -18,72 -7,72 21,0 15,27 -8,33 -18,5 -21,11 -16,36 6,29 -1,40 -16,24 z" />
    <path
       id="path14-4"
       d="m 955,1050 c 3,-5 8,-10 11,-10 2,0 4,5 4,10 0,6 -5,10 -11,10 -5,0 -7,-4 -4,-10 z" />
    <path
       id="path16-3"
       d="m 991,1000 c -1,-8 9,-38 21,-67 21,-52 21,-53 2,-68 -19,-14 -19,-14 1,-15 20,0 32,-19 56,-87 15,-44 24,-41 26,7 2,30 -1,40 -13,40 -8,0 -16,6 -18,13 -2,6 -10,32 -17,56 -10,35 -11,45 -1,49 19,6 14,21 -5,16 -13,-4 -23,6 -35,33 -9,21 -17,31 -17,23 z" />
    <path
       id="path18-0"
       d="m 940,946 c 5,-15 9,-30 8,-34 -1,-4 2,-14 5,-22 23,-56 33,-100 25,-108 -7,-7 -3,-14 10,-21 11,-6 22,-23 24,-38 4,-31 23,-41 32,-16 3,10 9,24 12,32 5,10 2,12 -11,7 -11,-4 -22,-1 -27,6 -12,20 -9,38 7,38 8,0 15,5 15,11 0,6 -8,8 -19,4 -15,-4 -22,3 -34,33 -8,21 -19,55 -22,75 -4,20 -14,42 -21,48 -12,10 -13,8 -4,-15 z" />
    <path
       id="path20-7"
       d="m 840,907 c 0,-9 7,-38 16,-64 15,-44 15,-48 -1,-60 -26,-18 -38,-6 -33,33 3,23 0,34 -9,34 -7,0 -14,-6 -14,-12 -5,-54 -2,-78 10,-83 9,-4 12,-16 8,-40 -5,-28 -2,-35 14,-40 22,-7 28,-65 7,-65 -35,-1 -39,-16 -18,-69 26,-66 25,-71 -5,-71 -23,0 -25,4 -25,44 0,30 -5,46 -15,50 -18,6 -19,-6 -5,-54 6,-22 6,-38 0,-44 -6,-6 -3,-14 7,-21 9,-7 16,-26 16,-43 0,-18 6,-34 14,-37 9,-3 13,-16 12,-32 -2,-16 5,-40 15,-56 10,-15 16,-36 13,-46 -3,-11 1,-22 9,-25 18,-7 29,13 15,27 -7,7 -5,14 7,24 16,12 16,14 0,26 -26,20 -41,66 -27,83 17,21 29,17 29,-8 0,-13 5,-30 11,-38 7,-11 8,2 3,43 -6,51 -4,57 12,57 11,0 26,4 34,10 12,8 12,11 -2,27 -21,25 -29,73 -12,73 21,0 17,18 -6,30 -22,12 -27,40 -7,40 6,0 21,-7 31,-15 11,-8 24,-15 30,-15 5,0 2,6 -7,13 -24,17 -69,159 -54,169 13,8 37,-9 37,-26 0,-6 16,-43 35,-81 32,-65 35,-67 29,-30 -4,22 -11,43 -16,46 -5,3 -6,13 -3,21 4,9 0,18 -8,21 -18,7 -44,58 -53,103 -7,39 -14,46 -34,34 -13,-8 -11,-12 8,-25 28,-20 30,-45 2,-38 -20,5 -40,55 -40,99 0,12 -7,27 -15,34 -12,10 -15,10 -15,-3 z m 38,-149 c 7,-7 12,-24 12,-39 0,-15 7,-32 15,-39 17,-14 20,-46 5,-55 -15,-9 -40,14 -40,35 0,10 6,20 13,23 7,3 0,9 -15,16 -22,8 -28,17 -28,41 0,31 17,39 38,18 z m 15,-236 c 15,-50 16,-66 7,-77 -10,-12 -16,-13 -26,-4 -17,14 -18,41 -2,57 8,8 6,16 -10,29 -11,10 -23,28 -27,41 -6,20 -4,23 16,20 19,-2 27,-15 42,-66 z M 858,417 c 2,-19 -1,-27 -12,-27 -18,0 -40,36 -31,51 13,19 40,4 43,-24 z" />
    <path
       id="path22-8"
       d="m 900,896 c 0,-14 5,-28 10,-31 6,-3 10,5 10,19 0,14 -4,28 -10,31 -6,3 -10,-5 -10,-19 z" />
    <path
       id="path24-6"
       d="m 1130,890 c 0,-5 5,-10 10,-10 6,0 10,5 10,10 0,6 -4,10 -10,10 -5,0 -10,-4 -10,-10 z" />
    <path
       id="path26-8"
       d="m 1272,857 c -10,-23 -10,-33 0,-50 13,-22 13,-22 16,6 2,15 2,37 0,49 -3,21 -4,21 -16,-5 z" />
    <path
       id="path28-8"
       d="m 756,749 c 13,-61 19,-77 29,-67 7,7 -27,128 -36,128 -3,0 0,-27 7,-61 z" />
    <path
       id="path30-4"
       d="m 1240,769 c 0,-10 -4,-21 -10,-24 -16,-10 -12,-38 5,-31 17,6 19,-2 5,-24 -6,-9 -10,-10 -10,-3 0,7 -9,9 -27,4 -20,-6 -27,-14 -26,-27 1,-10 5,-40 9,-66 5,-34 3,-48 -5,-48 -8,0 -10,-11 -5,-36 5,-25 3,-39 -7,-44 -10,-7 -10,-16 3,-48 11,-27 12,-45 6,-57 -7,-11 -7,-25 1,-42 16,-34 14,-56 -4,-49 -18,7 -19,-4 -3,-39 9,-21 9,-31 0,-46 -7,-10 -12,-30 -12,-43 0,-14 -4,-28 -10,-31 -5,-3 -10,-16 -10,-29 0,-12 -5,-27 -11,-33 -12,-12 -3,-53 12,-53 5,0 9,7 9,15 0,8 5,15 10,15 6,0 10,-7 10,-15 0,-18 21,-20 38,-3 9,9 12,9 12,0 0,-19 37,-14 44,5 6,15 8,15 16,3 6,-9 8,51 8,153 -1,114 -5,161 -11,145 -13,-33 -20,-6 -12,48 3,24 11,44 16,44 7,0 9,65 8,184 -2,102 -7,182 -11,180 -4,-3 -8,-1 -8,4 0,5 -7,9 -15,9 -8,0 -15,-8 -15,-18 z m 15,-158 c -6,-20 -25,-30 -25,-13 1,26 14,52 22,44 6,-6 7,-19 3,-31 z m 15,-112 c 0,-19 -5,-29 -15,-29 -15,0 -22,50 -9,63 12,12 24,-4 24,-34 z m -40,-169 c 0,-16 -4,-30 -10,-30 -5,0 -10,14 -10,30 0,17 5,30 10,30 6,0 10,-13 10,-30 z m 12,-137 c -2,-13 -8,-26 -13,-29 -11,-6 -12,46 -2,72 6,16 7,16 13,-1 4,-10 5,-29 2,-42 z m -41,-76 c -1,-4 -1,-19 -1,-33 0,-14 -4,-23 -10,-19 -14,8 -13,68 1,63 6,-2 10,-7 10,-11 z m 54,-31 c -4,-20 -11,-36 -16,-36 -12,0 -11,23 1,56 14,36 23,24 15,-20 z" />
    <path
       id="path32-31"
       d="m 1160,710 c 0,-5 5,-10 10,-10 6,0 10,5 10,10 0,6 -4,10 -10,10 -5,0 -10,-4 -10,-10 z" />
    <path
       id="path34-4"
       d="m 785,641 c -3,-5 -1,-12 5,-16 5,-3 10,1 10,9 0,18 -6,21 -15,7 z" />
    <path
       id="path36-9"
       d="m 750,618 c 0,-19 2,-20 10,-8 13,19 13,30 0,30 -5,0 -10,-10 -10,-22 z" />
    <path
       id="path38-2"
       d="m 660,590 c 0,-5 5,-10 10,-10 6,0 10,5 10,10 0,6 -4,10 -10,10 -5,0 -10,-4 -10,-10 z" />
    <path
       id="path40-0"
       d="m 717,563 c -11,-10 -8,-40 10,-116 13,-53 14,-72 5,-75 -17,-5 -15,-23 2,-20 8,2 22,-6 30,-17 15,-20 15,-19 15,5 0,14 -6,34 -14,44 -8,11 -15,30 -15,42 0,12 -7,38 -15,59 -11,25 -13,41 -6,49 11,13 -1,41 -12,29 z" />
    <path
       id="path42-6"
       d="m 535,500 c -3,-5 -1,-10 4,-10 6,0 11,5 11,10 0,6 -2,10 -4,10 -3,0 -8,-4 -11,-10 z" />
    <path
       id="path44-8"
       d="m 955,501 c -6,-11 9,-23 19,-14 9,9 7,23 -3,23 -6,0 -12,-4 -16,-9 z" />
    <path
       id="path46-9"
       d="m 685,460 c 3,-5 8,-10 11,-10 2,0 4,5 4,10 0,6 -5,10 -11,10 -5,0 -7,-4 -4,-10 z" />
    <path
       id="path48-2"
       d="m 581,434 c 0,-11 3,-14 6,-6 3,7 2,16 -1,19 -3,4 -6,-2 -5,-13 z" />
    <path
       id="path50-6"
       d="m 671,413 c -1,-12 4,-34 9,-49 8,-19 8,-30 0,-38 -14,-14 -13,-26 4,-26 15,0 29,-36 41,-100 4,-19 12,-53 20,-75 7,-22 19,-59 26,-82 7,-24 17,-43 22,-43 13,0 12,3 -70,265 -8,28 -16,59 -18,70 -2,20 -10,45 -25,80 -8,19 -9,19 -9,-2 z" />
    <path
       id="path52-6"
       d="m 480,400 c 0,-5 5,-10 10,-10 6,0 10,5 10,10 0,6 -4,10 -10,10 -5,0 -10,-4 -10,-10 z" />
    <path
       id="path54-4"
       d="m 616,353 c 9,-38 14,-42 14,-10 0,14 -5,29 -10,32 -7,4 -8,-3 -4,-22 z" />
    <path
       id="path56-9"
       d="m 917,364 c -8,-8 3,-34 14,-34 11,0 12,27 0,34 -4,3 -11,3 -14,0 z" />
    <path
       id="path58-5"
       d="m 530,333 c 0,-5 5,-15 10,-23 8,-12 10,-11 10,8 0,12 -4,22 -10,22 -5,0 -10,-3 -10,-7 z" />
    <path
       id="path60-0"
       d="m 575,330 c 3,-5 8,-10 11,-10 2,0 4,5 4,10 0,6 -5,10 -11,10 -5,0 -7,-4 -4,-10 z" />
    <path
       id="path62-4"
       d="m 777,295 c -4,-8 -2,-17 3,-20 15,-10 23,-85 10,-101 -7,-8 -10,-18 -6,-21 4,-4 11,-1 16,7 7,10 10,11 10,3 0,-7 -1,-15 -2,-16 -2,-2 3,-12 11,-21 11,-13 11,-20 3,-28 -17,-17 -15,-41 2,-35 15,6 26,-12 26,-44 0,-10 5,-19 10,-19 6,0 10,3 10,6 0,18 -80,304 -85,304 -1,0 -5,-7 -8,-15 z" />
    <path
       id="path64-8"
       d="m 630,282 c 0,-5 11,-55 25,-112 15,-57 24,-109 21,-117 -6,-14 26,-53 43,-53 5,0 -1,30 -14,68 -36,105 -38,120 -18,125 16,4 15,6 -4,12 -14,4 -23,18 -27,41 -6,30 -26,58 -26,36 z" />
    <path
       id="path66-7"
       d="m 505,270 c 3,-5 10,-10 16,-10 5,0 9,5 9,10 0,6 -7,10 -16,10 -8,0 -12,-4 -9,-10 z" />
    <path
       id="path68-1"
       d="m 551,264 c 0,-11 3,-14 6,-6 3,7 2,16 -1,19 -3,4 -6,-2 -5,-13 z" />
    <path
       id="path70-72"
       d="m 745,270 c 3,-5 8,-10 11,-10 2,0 4,5 4,10 0,6 -5,10 -11,10 -5,0 -7,-4 -4,-10 z" />
    <path
       id="path72-7"
       d="m 926,251 c -4,-5 -2,-12 3,-15 5,-4 12,-2 15,3 4,5 2,12 -3,15 -5,4 -12,2 -15,-3 z" />
    <path
       id="path74-2"
       d="m 420,186 c 0,-9 5,-16 10,-16 6,0 10,4 10,9 0,6 -4,13 -10,16 -5,3 -10,-1 -10,-9 z" />
    <path
       id="path76-2"
       d="m 480,188 c 0,-7 5,-20 10,-28 8,-12 10,-11 10,7 0,12 -4,25 -10,28 -5,3 -10,0 -10,-7 z" />
    <path
       id="path78-6"
       d="m 872,156 c 0,-24 4,-36 12,-33 12,4 10,47 -4,61 -4,4 -8,-8 -8,-28 z" />
    <path
       id="path80-1"
       d="m 596,103 c 9,-26 18,-58 21,-71 7,-28 23,-39 22,-15 -1,32 -35,127 -47,131 -8,2 -6,-13 4,-45 z" />
    <path
       id="path82-0"
       d="m 625,120 c 3,-5 8,-10 11,-10 2,0 4,5 4,10 0,6 -5,10 -11,10 -5,0 -7,-4 -4,-10 z" />
    <path
       id="path84-6"
       d="m 926,122 c -3,-6 -1,-14 5,-17 15,-10 25,3 12,16 -7,7 -13,7 -17,1 z" />
    <path
       id="path86-1"
       d="m 460,110 c 0,-5 5,-10 10,-10 6,0 10,5 10,10 0,6 -4,10 -10,10 -5,0 -10,-4 -10,-10 z" />
    <path
       id="path88-5"
       d="m 565,60 c 3,-5 8,-10 11,-10 2,0 4,5 4,10 0,6 -5,10 -11,10 -5,0 -7,-4 -4,-10 z" />
    <path
       id="path90-9"
       d="m 171,34 c 0,-11 3,-14 6,-6 3,7 2,16 -1,19 -3,4 -6,-2 -5,-13 z" />
    <path
       id="path92-4"
       d="m 461,28 c -1,-16 4,-28 9,-28 12,0 12,8 0,35 -8,18 -9,17 -9,-7 z" />
    <path
       id="path94-9"
       d="m 536,28 c 8,-27 12,-33 19,-27 7,8 -7,49 -17,49 -5,0 -6,-10 -2,-22 z" />
  </g>
</svg>
