<?xml version="1.0" standalone="no"?>
<!DOCTYPE svg PUBLIC "-//W3C//DTD SVG 20010904//EN"
 "http://www.w3.org/TR/2001/REC-SVG-20010904/DTD/svg10.dtd">
<svg version="1.0" xmlns="http://www.w3.org/2000/svg"
 width="677.000000pt" height="699.000000pt" viewBox="0 0 677.000000 699.000000"
 preserveAspectRatio="xMidYMid meet">
<metadata>
Created by potrace 1.14, written by Peter Selinger 2001-2017
</metadata>
<g transform="translate(0.000000,699.000000) scale(0.100000,-0.100000)"
fill="#000000" stroke="none">
<path d="M6449 6970 c13 -11 29 -20 35 -20 7 0 43 -21 82 -47 38 -25 99 -66
137 -90 l67 -43 0 64 c0 61 -1 65 -32 85 -18 11 -49 32 -68 45 -32 23 -45 25
-140 25 l-105 0 24 -19z"/>
<path d="M5411 6836 c-23 -28 -5 -65 42 -86 70 -32 117 -25 117 19 0 41 -40
73 -98 79 -36 3 -51 0 -61 -12z"/>
<path d="M5620 6702 c0 -23 77 -83 156 -123 49 -24 103 -53 119 -65 43 -31
204 -111 240 -120 17 -4 61 -23 100 -42 38 -19 92 -38 120 -42 86 -13 177 -40
253 -76 40 -19 77 -34 82 -34 5 0 25 -14 45 -31 l35 -31 0 68 0 69 -83 39
c-45 22 -98 45 -117 51 -51 18 -201 95 -232 121 -15 12 -44 28 -65 35 -21 6
-47 18 -58 25 -24 17 -51 18 -111 2 -43 -12 -49 -11 -107 18 -34 17 -81 39
-104 49 -23 10 -50 26 -59 36 -24 27 -117 59 -169 59 -25 0 -45 -4 -45 -8z"/>
<path d="M1365 6429 c-22 -5 -76 -13 -120 -18 -44 -5 -98 -13 -120 -18 -22 -5
-110 -8 -195 -6 -85 2 -299 5 -475 6 -176 1 -350 6 -387 11 l-68 8 0 -66 0
-66 43 -1 c23 0 87 -3 142 -6 55 -2 130 -4 168 -4 243 -1 466 -2 617 -3 154
-1 183 2 245 21 92 29 189 38 240 24 22 -7 75 -18 119 -26 43 -8 84 -19 91
-25 42 -35 254 -77 405 -81 69 -2 232 22 266 38 21 11 66 23 100 26 66 5 144
39 144 61 0 8 -12 24 -26 35 -51 40 -181 26 -327 -35 -55 -24 -61 -24 -175
-14 -140 13 -185 23 -234 57 -30 20 -59 27 -155 38 -65 7 -145 22 -178 34 -65
23 -62 23 -120 10z"/>
<path d="M0 5948 l0 -65 83 -16 c99 -19 232 -27 517 -32 180 -3 224 -7 270
-23 50 -17 71 -18 240 -11 151 6 213 13 335 39 120 26 169 32 248 30 225 -5
308 -4 407 4 150 12 251 8 360 -14 52 -10 124 -21 160 -25 36 -4 70 -11 75
-15 14 -10 301 -34 313 -26 6 4 37 -3 69 -14 31 -11 66 -20 78 -20 11 0 43
-12 70 -25 28 -14 56 -25 63 -25 8 0 26 -7 40 -15 44 -24 104 -46 162 -60 63
-15 234 -76 281 -100 26 -14 63 -16 247 -14 120 2 223 0 229 -4 7 -5 38 -12
69 -17 31 -5 77 -22 103 -38 25 -16 73 -40 106 -53 33 -13 70 -32 82 -42 44
-39 154 0 161 55 4 35 -39 68 -89 68 -21 0 -53 6 -71 14 -79 33 -138 46 -206
46 -45 0 -84 6 -102 15 -16 8 -46 14 -67 14 -25 -1 -55 8 -88 27 -47 27 -58
28 -220 36 -173 7 -229 18 -295 56 -19 11 -51 23 -70 27 -19 4 -51 16 -70 26
-19 11 -38 19 -43 19 -4 0 -25 13 -45 29 -46 35 -72 45 -197 71 -55 11 -116
26 -135 31 -19 6 -89 15 -155 20 -239 19 -380 38 -474 66 -61 17 -101 18 -616
10 -298 -5 -314 -6 -410 -32 -162 -44 -482 -57 -610 -24 -40 10 -150 15 -460
23 -112 3 -171 9 -195 19 -19 8 -61 18 -92 22 l-58 7 0 -64z"/>
<path d="M2 5634 l3 -59 70 -28 c109 -45 123 -48 243 -57 76 -6 119 -13 130
-23 29 -26 93 -37 172 -31 57 5 92 2 145 -12 55 -15 101 -19 215 -17 443 6
708 -2 905 -27 44 -5 98 -5 145 2 41 5 127 11 190 13 76 2 128 9 152 19 59 25
137 20 226 -14 98 -38 203 -53 255 -38 57 17 89 51 85 91 l-3 32 -91 -3 c-64
-2 -104 2 -135 13 -24 9 -80 18 -124 21 -44 3 -102 12 -128 21 -49 15 -88 14
-207 -5 -210 -35 -372 -41 -510 -18 -108 18 -596 28 -704 15 -60 -8 -104 -6
-189 6 -61 8 -141 15 -177 15 -36 0 -92 7 -123 15 -32 8 -73 15 -91 15 -19 0
-53 7 -76 15 -23 8 -60 15 -81 15 -21 0 -58 9 -81 19 -24 11 -72 26 -108 35
-36 8 -75 18 -88 22 -22 6 -23 5 -20 -52z"/>
<path d="M2962 5370 c-29 -27 -29 -66 0 -81 14 -8 81 -13 179 -14 85 -2 164
-7 175 -12 10 -6 60 -13 109 -16 50 -3 107 -12 127 -21 21 -9 81 -21 135 -27
54 -6 157 -19 229 -30 72 -10 148 -19 168 -19 20 0 69 -9 108 -20 40 -11 103
-20 139 -20 38 0 94 -8 131 -20 66 -20 79 -21 203 -20 81 0 172 -31 212 -74
28 -30 49 -32 96 -10 28 13 46 14 118 6 46 -6 118 -22 159 -36 41 -15 102 -29
135 -33 73 -7 193 -47 257 -84 56 -33 271 -119 298 -119 10 0 37 -9 61 -20 24
-11 53 -20 64 -20 26 0 148 -37 203 -61 23 -10 50 -19 59 -19 9 0 47 -18 84
-40 37 -22 74 -40 82 -40 8 0 26 -9 39 -20 14 -10 51 -29 84 -41 32 -12 80
-37 106 -56 l48 -35 0 80 0 81 -106 50 c-58 28 -113 51 -121 51 -9 0 -72 27
-140 60 -80 39 -150 66 -196 75 -117 23 -211 45 -232 54 -11 5 -47 21 -80 36
-33 15 -81 38 -107 51 -26 13 -59 24 -73 24 -14 0 -42 9 -62 20 -21 11 -45 20
-53 20 -9 0 -21 5 -27 11 -6 6 -57 26 -113 44 -55 18 -107 38 -114 44 -19 16
-104 31 -236 42 -164 13 -255 25 -335 43 -38 9 -89 16 -111 16 -23 0 -55 7
-70 15 -17 9 -56 15 -95 15 -45 0 -81 6 -110 20 -24 11 -65 20 -90 20 -25 0
-68 7 -95 15 -27 9 -107 20 -179 25 -315 21 -392 33 -503 74 -27 10 -72 16
-120 16 -42 -1 -142 3 -222 9 -192 14 -193 14 -218 -9z"/>
<path d="M2550 5128 c-135 -5 -265 -10 -290 -10 -25 0 -308 0 -630 1 -322 0
-602 -4 -623 -8 -42 -10 -80 -38 -71 -53 4 -6 23 -17 43 -25 20 -8 48 -24 63
-34 33 -24 45 -24 102 2 46 20 55 20 339 11 350 -11 863 -8 1152 7 261 14 597
14 650 0 22 -6 67 -17 100 -24 33 -8 75 -19 93 -24 18 -5 64 -13 103 -17 38
-4 72 -11 75 -15 3 -5 26 -9 52 -9 83 -1 243 -27 261 -44 10 -9 28 -16 40 -16
12 0 31 -5 42 -11 11 -6 65 -14 120 -18 73 -6 104 -12 119 -26 16 -14 29 -16
72 -11 38 5 66 2 98 -10 25 -8 88 -20 140 -26 225 -22 337 -39 430 -64 30 -9
78 -20 105 -25 68 -14 187 -50 201 -61 7 -5 56 -23 110 -41 55 -18 106 -37
114 -42 41 -26 118 -56 168 -65 76 -13 162 -37 176 -49 16 -13 78 -27 239 -52
129 -20 139 -20 163 -4 39 25 28 55 -28 83 -37 19 -70 25 -150 29 -90 5 -112
9 -174 39 -38 18 -106 42 -150 54 -43 11 -107 34 -141 50 -34 17 -69 30 -77
30 -25 0 -133 39 -205 75 -36 18 -87 35 -114 38 -26 4 -61 13 -77 22 -16 8
-44 15 -63 15 -19 0 -54 7 -78 16 -55 20 -241 45 -278 38 -15 -3 -60 4 -100
16 -63 19 -87 22 -162 16 -68 -5 -95 -3 -117 8 -15 8 -45 18 -67 22 -22 4 -62
18 -90 30 -27 13 -67 24 -88 24 -21 0 -47 5 -58 11 -32 17 -200 41 -249 36
-27 -3 -61 1 -85 10 -76 28 -170 51 -240 57 -38 4 -90 14 -115 23 -33 12 -90
17 -215 19 -93 2 -219 5 -280 8 -60 2 -220 0 -355 -6z"/>
<path d="M5960 5061 c0 -30 62 -67 145 -86 39 -9 99 -30 135 -48 36 -17 92
-39 125 -48 33 -9 92 -29 130 -44 39 -14 87 -31 108 -36 21 -5 65 -23 97 -39
33 -17 62 -30 65 -30 3 0 5 29 5 64 0 75 -8 84 -82 96 -65 10 -100 22 -208 73
-113 53 -150 65 -234 78 -39 6 -80 16 -91 22 -11 6 -59 12 -107 14 -83 4 -88
3 -88 -16z"/>
<path d="M1230 4419 c0 -30 58 -129 76 -129 8 0 14 9 14 20 0 29 -46 116 -65
124 -24 9 -25 8 -25 -15z"/>
<path d="M5738 4364 c-5 -4 -8 -19 -8 -34 0 -34 42 -74 95 -90 22 -6 58 -20
80 -30 22 -11 72 -29 110 -40 39 -12 96 -33 127 -46 77 -33 205 -55 303 -52
75 2 85 -1 137 -30 61 -35 77 -37 144 -21 l44 11 0 70 c0 53 -3 69 -13 65 -7
-2 -54 -10 -105 -17 -82 -11 -96 -11 -125 3 -37 19 -229 57 -288 57 -22 0 -52
6 -67 14 -15 7 -43 16 -63 20 -20 4 -56 18 -80 31 -106 60 -167 85 -224 91
-33 3 -63 3 -67 -2z"/>
<path d="M1332 4228 c-27 -27 -7 -61 48 -85 26 -11 75 -95 85 -145 6 -32 60
-97 89 -108 34 -12 46 -1 46 46 0 37 -5 47 -30 66 -16 12 -30 28 -30 35 0 7
-19 34 -43 61 -24 26 -53 65 -66 85 -33 53 -73 71 -99 45z"/>
<path d="M5828 3829 c-32 -18 -21 -47 29 -78 39 -24 62 -31 133 -36 83 -7 114
-13 275 -62 71 -22 91 -23 200 -18 66 4 162 16 213 27 l93 21 -3 55 c-3 52 -5
56 -32 63 -20 6 -47 2 -85 -10 -54 -18 -195 -30 -401 -34 -69 -1 -94 3 -130
21 -50 24 -202 62 -246 62 -16 0 -37 -5 -46 -11z"/>
<path d="M1600 3811 c-5 -11 -10 -29 -10 -41 0 -25 27 -80 39 -80 5 0 36 -25
70 -55 68 -61 125 -84 160 -66 45 24 27 59 -85 161 -109 101 -152 121 -174 81z"/>
<path d="M2036 3391 c-20 -22 -129 -57 -206 -66 -30 -4 -72 -15 -92 -25 -31
-16 -71 -20 -240 -26 -224 -8 -223 -8 -493 1 -104 3 -334 7 -510 7 -272 1
-328 -1 -370 -15 -27 -9 -67 -17 -87 -17 l-38 0 0 -49 0 -48 93 4 c50 3 119
12 152 21 74 21 308 19 380 -2 38 -12 53 -12 98 0 73 19 94 18 123 -12 25 -24
25 -26 8 -45 -21 -24 -33 -24 -111 0 -57 17 -80 18 -285 10 -176 -7 -238 -13
-288 -28 -36 -11 -89 -23 -118 -27 l-52 -7 0 -53 c0 -30 4 -54 9 -54 5 0 28 7
51 15 23 8 58 15 77 15 20 0 74 9 122 21 75 18 106 20 251 16 91 -3 192 -10
225 -16 33 -5 92 -14 130 -20 82 -11 155 -25 280 -51 51 -11 171 -24 280 -30
183 -9 258 -21 270 -40 7 -11 -42 -58 -73 -71 -13 -5 -74 -13 -135 -19 -62 -5
-132 -13 -157 -18 -25 -5 -103 -5 -175 -2 -112 5 -138 4 -187 -13 -63 -20
-138 -19 -241 3 -51 12 -66 11 -114 -4 -41 -13 -96 -18 -221 -20 -143 -2 -176
-5 -227 -24 -32 -12 -70 -22 -83 -22 -13 0 -37 -8 -53 -17 -27 -16 -29 -22
-29 -75 0 -40 4 -58 13 -58 18 1 116 26 167 44 61 21 234 36 276 24 24 -6 52
-4 101 8 64 16 347 30 503 25 30 -1 93 5 140 13 105 19 297 38 409 40 82 1 85
2 100 30 22 40 105 70 186 68 33 -1 128 -3 210 -5 88 -2 162 -8 178 -15 39
-17 75 -15 138 6 73 25 288 45 436 41 115 -4 123 -5 150 -30 48 -46 64 -49
222 -49 137 0 157 -2 218 -25 58 -22 77 -25 134 -19 46 4 82 2 120 -9 30 -8
72 -18 94 -22 22 -4 66 -18 97 -31 48 -20 74 -24 160 -24 57 0 123 -5 148 -10
59 -13 233 -67 292 -91 26 -11 58 -19 73 -19 14 0 37 -7 50 -16 24 -16 219
-39 236 -28 5 3 71 7 146 10 76 2 167 7 202 10 40 3 96 -2 155 -13 l91 -18
-60 -7 c-33 -5 -109 -18 -170 -31 -91 -18 -142 -22 -295 -22 -203 1 -513 28
-602 52 -49 14 -69 14 -152 3 -92 -13 -99 -13 -159 8 -41 15 -85 22 -132 22
-46 0 -88 7 -123 20 -43 17 -76 20 -195 20 -89 0 -163 5 -197 14 -30 8 -80 17
-110 21 -30 4 -88 15 -129 26 -41 10 -89 19 -107 19 -18 0 -86 14 -150 30 -65
17 -139 30 -164 29 -25 -1 -86 2 -135 6 -100 8 -111 5 -251 -79 -55 -34 -64
-36 -145 -36 -53 0 -100 -6 -121 -14 -30 -13 -44 -13 -104 0 -103 21 -424 21
-484 -1 -36 -13 -99 -17 -319 -21 -206 -4 -281 -9 -301 -19 -65 -34 -67 -82
-5 -104 33 -11 85 -11 292 -3 139 6 261 16 272 21 12 7 99 12 213 14 171 2
197 0 227 -16 26 -15 44 -17 80 -11 25 4 89 6 141 5 52 -1 133 5 180 13 61 11
121 14 215 9 116 -5 136 -9 185 -33 44 -23 73 -29 150 -34 94 -6 176 -23 217
-45 12 -6 95 -20 185 -31 160 -19 261 -41 273 -60 7 -11 -54 -44 -113 -59 -35
-10 -46 -9 -64 4 -17 11 -48 15 -123 15 -155 0 -403 19 -473 37 -51 13 -94 15
-235 10 -94 -3 -199 -11 -232 -18 -39 -7 -92 -9 -150 -4 -49 5 -119 8 -155 7
-36 0 -141 4 -235 9 -146 8 -182 7 -255 -7 -63 -12 -152 -17 -343 -19 -229 -3
-261 -5 -278 -21 -38 -35 -23 -62 52 -90 65 -25 572 -23 707 3 93 17 94 17
187 -7 82 -20 106 -22 187 -15 51 4 125 9 163 10 39 1 147 7 240 13 264 17
441 15 506 -5 56 -17 73 -17 414 -13 159 2 197 5 238 21 26 10 56 19 65 19 10
0 35 10 57 22 32 17 54 21 109 19 38 -1 86 -9 107 -17 33 -14 40 -14 67 0 17
9 34 21 37 27 18 27 -107 109 -167 109 -15 0 -51 9 -80 20 -29 11 -91 25 -138
31 -46 6 -102 18 -124 25 -21 8 -73 14 -116 14 -107 0 -218 26 -253 58 -30 28
-71 36 -268 50 -53 4 -102 12 -110 18 -8 6 -27 14 -44 18 -45 10 -145 50 -145
58 0 14 94 20 139 9 25 -7 75 -16 112 -21 36 -5 81 -17 100 -28 18 -11 54 -23
79 -27 24 -4 54 -13 65 -21 11 -7 70 -18 130 -23 61 -6 160 -18 220 -26 85
-11 125 -11 175 -3 62 10 72 9 192 -25 69 -20 166 -43 215 -53 48 -9 101 -18
116 -21 15 -3 54 2 86 11 59 17 76 15 206 -15 66 -16 689 -26 765 -13 72 12
191 29 322 44 86 10 138 6 138 -11 0 -21 -86 -61 -147 -70 -36 -5 -74 -14 -86
-21 -20 -11 -62 -18 -299 -52 -47 -7 -92 -17 -100 -23 -35 -29 -137 -51 -261
-57 -124 -5 -131 -7 -185 -39 l-57 -34 -285 -13 c-226 -10 -298 -17 -350 -32
-98 -30 -355 -54 -675 -64 -116 -4 -182 -11 -240 -26 -44 -11 -116 -24 -161
-28 -45 -5 -95 -15 -111 -24 -17 -8 -61 -18 -99 -22 -38 -4 -84 -13 -103 -20
-18 -8 -52 -14 -75 -14 -22 0 -75 -6 -116 -14 -41 -8 -131 -19 -200 -26 -69
-6 -152 -18 -185 -26 -136 -35 -415 -61 -710 -68 -175 -4 -314 -45 -374 -110
l-25 -26 34 -35 c19 -19 42 -35 52 -35 9 0 35 17 56 39 37 38 40 39 133 46 51
5 204 8 339 7 212 -1 255 2 319 19 41 10 101 19 133 19 32 0 75 7 95 15 20 8
70 19 112 24 87 11 191 26 306 47 44 8 140 21 213 29 73 8 163 23 200 34 147
43 290 71 356 71 39 0 96 5 128 12 44 9 75 9 130 0 52 -8 86 -8 118 -1 25 6
81 14 125 19 222 23 344 40 384 54 28 11 78 16 143 16 61 0 111 5 131 14 18 7
77 17 131 21 54 4 112 11 130 16 80 24 253 59 290 59 22 1 59 8 81 16 135 51
183 64 237 64 62 0 313 48 384 74 49 17 169 81 202 107 13 10 40 23 60 30 20
7 58 25 84 41 32 20 70 33 115 39 38 5 81 14 97 19 53 18 163 12 208 -11 23
-12 69 -24 102 -27 34 -3 76 -12 95 -19 64 -27 23 -38 -165 -43 -159 -5 -177
-7 -190 -24 -19 -27 -18 -33 9 -51 19 -12 61 -15 208 -16 183 -1 186 -1 280
31 178 61 189 74 189 223 l0 108 -44 -36 c-44 -35 -62 -67 -68 -115 -4 -34
-31 -36 -72 -5 -24 18 -42 25 -56 20 -11 -3 -46 -1 -77 5 -44 9 -66 21 -96 51
-48 47 -98 60 -140 35 -23 -13 -57 -16 -165 -16 -123 0 -142 2 -200 26 -59 23
-77 26 -191 24 -169 -1 -334 5 -348 13 -6 4 -78 3 -160 -3 -367 -24 -389 -23
-620 46 -48 14 -114 33 -146 42 -32 8 -61 22 -64 30 -10 25 27 44 72 38 130
-17 194 -28 225 -40 20 -8 100 -24 177 -36 l142 -22 90 22 c86 21 93 21 137 6
63 -21 72 -20 86 9 13 29 2 46 -52 80 -60 38 -85 39 -177 9 -78 -26 -87 -27
-151 -16 -37 6 -88 20 -113 31 -95 42 -158 52 -399 61 -242 9 -269 13 -323 54
-18 13 -48 27 -67 31 -19 4 -39 11 -45 15 -32 23 -116 43 -270 65 -95 14 -187
25 -203 25 -31 0 -161 41 -203 65 -14 8 -45 17 -67 21 -23 4 -63 20 -88 36
-45 28 -53 30 -183 34 -272 8 -347 20 -390 60 -12 11 -10 15 12 25 21 10 54
10 150 1 67 -7 143 -12 168 -12 25 0 59 -7 76 -15 37 -18 49 -19 443 -16 281
2 322 4 380 22 71 22 110 51 110 84 0 51 -51 58 -157 21 -83 -28 -256 -48
-310 -35 -65 16 -385 23 -437 10 -35 -9 -52 -9 -68 0 -12 7 -60 16 -106 20
-45 5 -91 13 -100 18 -32 17 -272 34 -383 28 -101 -6 -112 -5 -161 18 -64 30
-80 31 -102 6z m339 -121 c59 -22 2 -69 -67 -56 -40 7 -91 43 -83 57 8 12 117
12 150 -1z m-360 -145 c119 -1 176 -5 222 -18 57 -16 65 -16 109 -1 65 22 144
11 318 -43 46 -14 186 -21 204 -9 14 8 176 -20 209 -37 18 -10 37 -17 43 -17
7 0 24 -8 38 -19 15 -10 43 -22 62 -26 19 -3 67 -22 107 -41 72 -35 73 -35
230 -38 180 -4 244 -20 319 -81 23 -19 49 -35 58 -35 8 0 17 -4 20 -8 12 -19
-121 -10 -194 14 -41 13 -118 30 -171 38 -54 8 -105 19 -115 24 -11 5 -91 10
-179 11 -133 0 -170 4 -217 21 -32 11 -63 20 -70 20 -7 0 -33 16 -57 35 -49
39 -60 41 -99 21 -32 -17 -247 -28 -477 -26 -138 1 -165 4 -205 22 -62 28
-200 37 -234 14 -18 -11 -24 -24 -23 -43 3 -44 -29 -42 -50 4 -26 55 -81 78
-223 94 -63 7 -152 12 -197 11 -56 -2 -111 4 -168 18 -48 11 -110 19 -140 19
-53 -2 -105 19 -105 40 0 17 61 23 110 10 39 -10 60 -10 105 0 31 7 152 16
271 20 118 5 218 11 222 16 4 4 32 3 62 -1 30 -5 127 -9 215 -9z"/>
<path d="M6730 3210 c-19 -5 -144 -12 -278 -16 -261 -8 -304 -16 -310 -60 -6
-42 40 -49 310 -47 156 1 261 6 283 13 34 11 35 13 35 66 0 30 -1 54 -2 53 -2
-1 -19 -5 -38 -9z"/>
<path d="M6444 2649 c-41 -12 -58 -33 -50 -63 10 -40 33 -56 81 -56 36 0 48 5
69 31 31 37 32 39 5 73 -22 28 -49 32 -105 15z"/>
<path d="M739 2286 c-7 -8 -170 -27 -389 -46 -113 -10 -227 -23 -255 -29 -104
-22 -95 -15 -95 -83 l0 -61 63 7 c34 3 82 14 107 22 25 9 95 20 155 24 61 5
148 13 195 19 47 7 122 16 168 21 93 10 136 33 144 75 4 18 -1 30 -16 40 -19
14 -67 20 -77 11z"/>
<path d="M6700 2155 c-70 -44 -151 -75 -198 -75 -20 -1 -72 -9 -114 -19 -61
-14 -86 -26 -118 -55 -28 -25 -47 -35 -59 -31 -11 3 -52 -12 -102 -39 -66 -34
-108 -48 -198 -65 -63 -12 -137 -32 -165 -43 -47 -20 -74 -22 -341 -26 -159
-2 -346 1 -415 7 -132 11 -282 3 -301 -16 -18 -18 -2 -62 27 -73 51 -20 276
-32 594 -33 381 0 450 8 680 83 36 11 83 25 105 31 72 18 115 42 135 76 19 32
20 33 89 30 60 -2 73 1 93 20 15 15 41 24 73 28 28 3 64 7 81 10 31 5 72 42
93 83 10 18 20 22 61 22 l50 0 0 60 c0 33 -3 60 -7 60 -5 0 -33 -16 -63 -35z"/>
<path d="M6734 1879 c-42 -45 -155 -97 -242 -113 -76 -13 -131 -90 -83 -116
49 -26 194 6 297 67 l64 37 0 78 c0 43 -1 78 -3 78 -2 0 -16 -14 -33 -31z"/>
<path d="M200 1802 c-33 -37 -76 -55 -172 -76 -27 -6 -28 -9 -28 -62 0 -49 2
-55 18 -49 9 3 49 12 87 20 87 17 201 78 222 119 14 26 13 31 -5 55 -13 17
-30 27 -53 29 -29 2 -40 -3 -69 -36z"/>
<path d="M4194 1772 c-23 -9 -48 -22 -55 -28 -25 -21 -113 -53 -173 -64 -33
-5 -87 -21 -120 -34 -34 -14 -92 -30 -129 -36 -37 -6 -87 -17 -110 -25 -23 -8
-69 -21 -102 -28 -33 -8 -105 -27 -160 -42 -97 -27 -280 -48 -375 -44 -159 7
-195 3 -285 -30 -67 -24 -117 -35 -195 -41 -58 -4 -134 -16 -170 -26 -48 -12
-98 -16 -193 -15 -93 1 -144 -3 -183 -14 -30 -9 -69 -13 -87 -10 -18 3 -104 2
-192 -4 -147 -8 -166 -12 -228 -40 -38 -17 -75 -31 -83 -31 -28 0 -82 -33 -98
-61 -13 -23 -15 -33 -6 -50 15 -26 44 -23 190 20 87 26 119 31 185 29 76 -2
223 11 344 33 30 5 129 9 220 9 138 0 171 3 190 16 16 12 57 19 139 24 65 4
128 12 142 18 70 29 213 51 375 57 94 3 188 11 210 17 22 6 67 12 100 13 41 2
78 11 115 29 30 14 67 26 81 26 14 0 52 8 85 19 140 44 183 54 249 59 42 2 82
12 100 22 17 10 63 28 104 39 47 13 88 32 115 54 61 50 84 60 149 61 61 2 92
21 81 51 -16 41 -156 58 -230 27z"/>
<path d="M4025 1390 c-82 -10 -280 -62 -327 -86 -38 -20 -189 -75 -303 -111
-44 -14 -102 -33 -130 -43 -27 -10 -81 -21 -120 -25 -38 -4 -90 -14 -114 -22
-40 -13 -47 -13 -81 2 -31 14 -57 16 -166 10 -71 -4 -230 -8 -354 -10 -249 -3
-391 -14 -493 -39 -95 -23 -119 -36 -115 -60 5 -34 48 -42 141 -27 56 9 225
15 527 18 245 2 457 8 472 13 17 5 41 5 65 -2 50 -14 106 -5 177 28 46 21 68
25 108 22 59 -6 110 4 195 38 62 24 219 104 258 131 11 7 35 13 55 13 19 0 53
5 75 10 109 27 185 39 236 37 88 -3 129 46 72 87 -30 22 -82 27 -178 16z"/>
<path d="M3585 680 c-11 -5 -33 -9 -49 -9 -45 -1 -156 -31 -196 -52 -52 -28
-114 -48 -220 -74 -140 -33 -237 -65 -303 -97 -62 -31 -77 -49 -57 -73 26 -31
123 -13 324 59 55 20 109 36 120 36 12 0 41 10 66 21 25 11 72 25 105 30 80
13 158 50 185 88 13 16 36 33 52 36 19 5 28 13 28 26 0 20 -21 24 -55 9z"/>
<path d="M5717 643 c-16 -15 -5 -34 28 -50 28 -13 37 -14 50 -3 21 17 19 37
-4 50 -22 11 -64 13 -74 3z"/>
<path d="M6625 490 c-23 -24 -26 -32 -15 -45 23 -28 120 -10 120 22 0 58 -59
71 -105 23z"/>
<path d="M4400 500 c0 -5 12 -10 26 -10 14 0 23 4 19 10 -3 6 -15 10 -26 10
-10 0 -19 -4 -19 -10z"/>
</g>
</svg>
