<?xml version="1.0" standalone="yes"?>
<svg version="1.0" width="1040" height="1083" viewbox="0 0 1040 1083" xmlns="http://www.w3.org/2000/svg">
<path style="stroke:#ffffff; fill:none; stroke-width:8;stroke-linecap:round;" d="M5 10C239.267 10 473.73 15.2761 708 21.0146C790.373 23.0325 872.584 27.0787 955 27.0787C981.578 27.0787 1009.49 32.2776 1036 29M5 51L205 50.0146L811 63.9606L1035 69M4 89C196.718 90.5951 390.145 93.516 583 101.961C642.325 104.558 701.658 102.561 761 104.015C852.392 106.253 943.651 110.078 1035 114M5 128L402 135.985L818 143.749L1035 153M5 167L262 173.961L328 174.104L556 181.961L760 186.039L921 193.961L1034 198M5 209L52 209.921L132 210.961L170 210.129L334 214.961L362 214.043L734 226.039L927 234.089L1036 241M4 250C49.71 250 95.3291 253.66 141 253.66C324.339 253.66 507.937 258.023 691 266.039C770.313 269.512 849.769 273.57 929 277.039C964.552 278.596 1000.41 281.996 1036 282M2 296L105 299.996L440 303.015L667 309.985L858 311.259L901 313.996L997 316.961L1035 318M5 345C25.1381 349.794 49.3126 346.508 70 347.015C115.906 348.139 162.1 348.251 208 350.04C364.258 356.13 521.066 353.195 677 357.015C761.527 359.085 846.464 360.423 931 362.054C954.232 362.502 977.73 363.132 1001 364.039C1011.78 364.459 1024.46 366.509 1035 364M4 390L233 392.66L495 395.039L818 408.039L1035 415M4 431C187.878 431 371.079 438.329 555 442.871C602.491 444.044 650.311 443.872 698 445.961C779.981 449.55 862.069 448.405 944 451.961C966.566 452.94 989.355 452.969 1012 453.961C1019.55 454.291 1027.68 452.318 1035 454M5 475C103.877 475 203.159 479.921 302 479.921C384.264 479.921 466.699 481.458 549 484.961C583.677 486.437 618.458 484.527 653 486.039C780.064 491.603 907.878 495 1035 495M4 518L602 533.985L708 534.179L841 537.996L998 538.961L1035 539M352 550C333.344 572.057 377.035 564.985 388 566.424C403.683 568.484 420.191 566.816 436 567.004C461.005 567.301 485.964 568 511 568C685.768 568 860.361 576 1035 576M5 562C26.873 557.244 51.7268 563.421 74 562.871C140.212 561.236 206.642 565 273 565C297.177 565 321.957 568.039 346 565M5 606L388 610.996L709 610.054L1035 615M608 624L611 624M5 646L309 645.996L769 652.957L837 652.004L1036 653M4 686L178 679.039L291 679.921L409 679.004L1036 690M4 716L303 710.004L408 712.985L491 713.039L584 715.741L599 713.116L620 715.985L728 718.975L1034 724M34 1076L32 845L33 775L32 744C43.6358 738.168 64.0619 742.85 77 743.004C81.5785 743.058 88.1815 743.088 90.2577 748.059C93.9463 756.889 90.8488 771.543 90.8488 781C90.8488 807.556 90.9034 834.512 89.0895 861C87.9233 878.03 90.3958 895.023 89.9853 912C88.6659 966.574 90.006 1021.41 90 1076M5 1078C5 992.855 4.02188 907.317 5.00386 822C5.22207 803.041 5 784.002 5 765C5 760.068 2.8619 748.345 6.60339 744.603C11.4858 739.72 24.9044 742.738 31 743M90 745C105.065 738.641 122.3 746.006 138 746C145.58 745.997 152.48 743.369 160 743.039C184.232 741.977 208.952 743.005 233 744.64C243.27 745.339 252.698 740.653 263 745L262.961 819L262 1077M264 745C273.487 742 282.381 743.812 292 743.812C309.694 743.812 327.292 744.585 345 745.022C352.134 745.199 366.755 740.26 372.397 746.514C376.568 751.138 373.781 764.11 374.039 770C375.051 793.11 376.359 816.999 374.17 840C373.089 851.36 375.39 862.758 374.896 874C371.931 941.415 378.313 1009.68 373 1077M374 746C386.86 741.077 401.575 743.941 415 744.001C418.917 744.018 426.49 743.573 428.972 747.317C431.782 751.554 429.775 760.054 430.424 765C433.163 785.857 428.918 807.222 430.093 828C431.474 852.391 428.715 876.747 429.004 901C429.697 959.258 431 1017.67 431 1076M519 1076L519 837L519 772C519 765.969 516.224 752.325 519.067 747.228C521.294 743.237 527.181 744.001 531 744C542.805 743.995 554.157 744.221 566 743.515C576.891 742.865 588.181 745.752 599 746.352C611.309 747.034 624.581 744.837 637 745.129C656.706 745.591 676.212 748.001 696 748C706.705 747.999 717.257 748.996 728 749C731.373 749.001 736.746 748.198 738.972 751.434C742.115 756 739 766.65 739 772C738.999 790.206 737.846 808.839 739.089 827C740.948 854.145 738 881.738 738 909C738 965.109 738.994 1021.15 739 1077M430 746C441.549 741.222 461.681 745.417 474 745.961C478.23 746.147 485.256 745.1 487.972 749.303C491.354 754.536 489 766.91 489 773C489 794.371 488 815.629 488 837L488 1077M61 745L62 1075M176 745L177 990L178 1077M292 745L292 865L291 1077M318 745L318 1077M489 748C498.233 744.028 508.281 745.772 518 747M574 745L575 1077M205 746C211.484 780.923 206 820.482 206 856L206 1077M546 746L546.259 794L547 867L548 1077M234 747L233.004 913L235 1076M345 747L345 780L344.015 858L345.985 956L345 1077M123 748L120.996 799L120 862L121 1076M403 748L401 1077M460 748L459 1077M602 748L601 1077M628 748L627.999 780L628 851L627 1077M822 1076C821.991 993.974 820 911.847 820 830C820 810.333 820.432 790.609 819.089 771C818.74 765.903 816.886 753.252 821.318 749.723C825.006 746.786 833.516 748.973 838 749.001C853.426 749.095 868.609 750.717 884 750.039C888.855 749.826 898.825 748.577 901.107 754.134C904.414 762.19 901.001 773.556 901 782L901 849C901 925.205 902 1000.97 902 1077M655 749L656.871 833L655.985 983L656 1076M741 749C747.258 749.328 760.727 746.393 765.397 751.517C768.982 755.452 767 766.015 767 771C767 789.545 767.54 808.511 766.625 827C762.505 910.212 766 993.74 766 1077M767 751L795 750.892L819 751M982 1077L980.039 872L981 791L980 751C987.925 747.537 996.79 751.208 1005 751.763C1009.9 752.094 1015.01 750.891 1020 751.015C1023.68 751.106 1029.63 751.291 1031.4 755.228C1033.82 760.627 1032 770.144 1032 776C1032 794.226 1028.99 814.067 1030.32 832C1032.72 864.259 1029.61 896.782 1030.02 929C1030.64 978.221 1031.86 1027.77 1032 1077M684 750L684 1077M902 751L929 751L927.992 793L927.961 865L931 1077M929 751C934.869 749.91 948.642 747.426 953.512 751.858C956.971 755.005 955 765.664 955 770C955 787.946 955.746 806.072 954.961 824C951.281 908.04 956 992.887 956 1077M956 751L979 751M711 751L711.992 974L711.896 1028L711 1076M847 751L846.001 898L847.996 943L848.545 1033L849 1077M795 752C789.814 793.033 792.997 836.675 793 878C793.004 944.262 792 1010.65 792 1077M874 752L875 1077M1006 753L1005 1078M150 768C145.194 805.215 149.064 844.414 149.985 882C150.779 914.387 148.619 946.62 149.004 979C149.388 1011.3 152 1043.72 152 1076M958 1015L980 1016"/>
</svg>
