<?xml version="1.0" standalone="no"?>
<!DOCTYPE svg PUBLIC "-//W3C//DTD SVG 20010904//EN"
 "http://www.w3.org/TR/2001/REC-SVG-20010904/DTD/svg10.dtd">
<svg version="1.0" xmlns="http://www.w3.org/2000/svg"
 width="1040.000000pt" height="1083.000000pt" viewBox="0 0 1040.000000 1083.000000"
 preserveAspectRatio="xMidYMid meet">
<metadata>
Created by potrace 1.14, written by Peter Selinger 2001-2017
</metadata>
<g transform="translate(0.000000,1083.000000) scale(0.100000,-0.100000)"
fill="#ffffff" stroke="none">
<path d="M0 10740 c0 -55 2 -60 23 -61 150 -4 725 -11 907 -11 129 1 363 0
520 0 157 -1 314 0 350 2 36 2 76 3 90 2 61 -3 672 -14 1070 -18 239 -3 455
-6 480 -7 25 -1 68 0 95 2 94 4 880 -6 895 -13 8 -3 150 -9 315 -12 165 -3
361 -7 435 -10 74 -2 250 -6 390 -9 140 -3 336 -8 435 -10 99 -2 304 -6 455
-9 499 -8 822 -16 1045 -26 121 -5 364 -12 541 -15 177 -2 350 -7 385 -11 35
-3 188 -8 339 -10 151 -3 392 -6 535 -9 143 -2 292 -7 330 -10 86 -9 711 -15
743 -8 19 4 22 12 22 48 l0 43 -78 7 c-43 4 -201 8 -352 10 -151 2 -369 7
-485 12 -115 4 -253 6 -305 3 -112 -5 -136 -5 -520 -1 -162 2 -306 8 -320 13
-14 5 -171 11 -350 13 -179 2 -552 11 -830 20 -278 9 -568 16 -645 15 -77 -1
-189 1 -250 4 -505 21 -1527 50 -1574 43 -23 -3 -105 -1 -183 4 -217 15 -569
21 -1393 25 -1298 7 -2364 19 -2790 33 -171 6 -313 11 -317 11 -5 0 -8 -27 -8
-60z"/>
<path d="M13 10393 c-8 -3 -13 -26 -13 -62 l0 -58 45 -6 c50 -7 1072 0 1120 8
17 3 230 5 475 6 414 2 448 1 483 -17 36 -17 42 -17 160 -1 95 13 140 15 207
7 47 -5 177 -9 290 -8 113 0 387 -3 610 -6 223 -4 531 -9 685 -10 154 -2 324
-9 378 -16 63 -8 125 -10 170 -5 40 4 79 7 87 7 8 0 73 -3 143 -6 107 -5 1270
-20 1457 -19 30 1 132 -4 225 -10 94 -6 278 -11 410 -12 132 -1 326 -5 430 -8
105 -4 327 -12 495 -18 423 -15 476 -16 900 -23 206 -3 404 -9 440 -12 36 -3
173 -7 305 -9 132 -1 385 -6 563 -10 l322 -8 0 50 0 51 -47 6 c-38 5 -1018 23
-1203 22 -244 0 -614 8 -648 15 -23 5 -187 11 -365 14 -177 3 -349 10 -382 15
-145 23 -261 31 -320 21 -104 -17 -377 -24 -411 -9 -17 7 -77 12 -144 13 -214
1 -815 16 -827 20 -7 3 -370 7 -805 10 -442 3 -839 11 -898 17 -58 5 -274 12
-480 14 -206 2 -514 6 -685 9 -170 3 -463 8 -650 11 -187 4 -819 7 -1405 8
-586 0 -1074 4 -1085 8 -11 3 -26 4 -32 1z"/>
<path d="M0 9956 l0 -66 38 -2 c32 -2 164 -5 432 -11 36 -1 83 -1 105 0 172 8
1956 -14 2288 -27 136 -5 332 -10 435 -10 121 0 213 -5 262 -14 60 -12 97 -13
185 -4 79 7 143 7 225 -1 63 -6 165 -11 225 -10 61 1 196 -1 300 -3 105 -3
296 -8 425 -11 129 -3 370 -11 535 -16 324 -12 1381 -31 2010 -37 215 -2 482
-8 595 -14 113 -6 320 -12 460 -15 427 -7 963 -23 995 -30 17 -3 174 -10 350
-16 176 -6 368 -13 428 -16 l107 -5 0 50 0 50 -62 7 c-123 12 -426 27 -598 30
-96 2 -240 6 -320 9 -404 16 -738 26 -1030 31 -461 9 -672 15 -681 21 -8 5
-410 6 -579 2 -19 0 -102 2 -185 5 -82 3 -296 8 -475 11 -687 14 -786 16
-1150 26 -560 17 -715 20 -935 24 -110 2 -216 9 -235 15 -45 14 -102 14 -175
-1 -45 -9 -81 -9 -160 1 -113 14 -237 18 -855 26 -228 3 -545 10 -705 16 -282
10 -740 22 -800 22 -132 -2 -218 -2 -265 0 -30 1 -120 0 -200 -2 -180 -4 -908
7 -935 15 -11 3 -28 8 -37 10 -16 5 -18 -3 -18 -60z"/>
<path d="M0 9561 l0 -66 453 -1 c594 0 1456 -9 1732 -18 121 -3 329 -8 462
-10 132 -2 246 -7 251 -10 6 -4 158 -9 339 -12 180 -3 373 -8 428 -10 55 -2
314 -8 575 -13 261 -6 570 -13 685 -16 116 -3 228 -7 250 -7 22 -1 144 0 270
1 127 1 376 -1 555 -5 179 -4 411 -8 515 -9 105 -1 264 -5 355 -9 91 -4 287
-9 435 -12 149 -3 313 -7 365 -8 52 -2 223 -6 380 -9 157 -3 332 -8 390 -11
58 -3 157 -9 220 -12 63 -3 180 -7 260 -9 276 -5 685 -25 751 -36 48 -9 79 -9
118 0 54 11 299 2 482 -19 137 -16 129 -18 129 43 l0 54 -117 13 c-65 7 -210
14 -323 16 -113 2 -236 8 -275 14 -38 6 -97 10 -130 8 -33 -1 -220 1 -415 6
-195 4 -456 10 -580 12 -161 4 -244 9 -292 21 -56 14 -79 15 -140 6 -49 -8
-111 -9 -188 -3 -63 5 -236 11 -385 14 -716 15 -769 17 -819 33 -42 13 -59 14
-122 3 -45 -8 -99 -10 -137 -6 -34 4 -217 9 -407 12 -190 3 -363 9 -385 14
-23 5 -59 5 -85 0 -61 -12 -275 -12 -328 0 -29 7 -86 7 -170 1 -144 -12 -433
6 -489 30 -28 11 -39 11 -89 -5 -39 -12 -73 -16 -108 -12 -28 3 -298 8 -601
11 -302 3 -665 12 -805 20 -140 8 -419 17 -620 20 -201 3 -404 9 -451 14 -48
4 -165 6 -262 3 -144 -4 -187 -2 -246 13 -57 14 -82 15 -128 7 -52 -9 -1127
-7 -1255 2 l-48 3 0 -66z"/>
<path d="M13 9234 c-9 -4 -13 -28 -13 -68 l0 -63 318 0 c468 0 1190 -12 1402
-24 225 -12 836 -31 1170 -35 135 -2 367 -8 515 -14 319 -13 1021 -32 1185
-33 63 0 282 -4 486 -8 314 -7 378 -11 414 -25 36 -15 50 -15 89 -5 47 12 551
9 799 -5 63 -3 180 -7 260 -9 81 -1 318 -5 527 -9 209 -4 434 -11 500 -16 66
-5 325 -14 575 -20 484 -11 753 -24 856 -40 35 -6 134 -12 219 -14 86 -3 224
-9 308 -15 269 -19 566 -32 590 -26 13 4 51 -1 84 -9 102 -27 103 -26 103 48
l0 64 -57 6 c-32 4 -143 8 -248 11 -503 12 -878 26 -979 35 -61 6 -176 12
-256 15 -80 3 -237 9 -350 15 -113 6 -304 12 -425 15 -121 3 -391 12 -600 21
-209 8 -470 17 -580 19 -244 5 -434 11 -755 26 -135 6 -274 9 -310 7 -130 -6
-349 -1 -421 10 -46 7 -293 13 -649 16 -316 3 -631 10 -700 17 -133 12 -214
14 -945 23 -307 4 -520 11 -615 21 -80 8 -201 14 -270 13 -227 -4 -752 13
-825 27 -51 10 -84 11 -120 4 -27 -6 -63 -7 -80 -4 -32 7 -248 12 -755 19
-173 2 -342 6 -375 10 -33 3 -66 3 -72 0z"/>
<path d="M0 8757 l0 -66 113 -1 c61 -1 146 0 187 1 41 2 91 2 110 2 35 -2 682
-10 1310 -18 179 -2 523 -5 766 -8 242 -2 445 -7 452 -11 14 -8 469 -27 582
-24 130 4 288 1 595 -11 154 -6 370 -14 480 -16 110 -3 268 -7 350 -10 83 -2
242 -6 355 -9 207 -5 872 -24 900 -25 8 -1 86 -3 172 -5 87 -3 162 -7 167 -11
6 -3 169 -8 363 -10 369 -5 678 -19 763 -35 28 -4 211 -11 407 -15 196 -3 394
-10 440 -16 46 -6 157 -13 248 -15 91 -2 251 -6 355 -8 105 -2 226 -10 270
-16 44 -7 132 -13 195 -14 143 -3 488 -24 514 -32 10 -3 83 -7 162 -9 l144 -2
0 48 c0 32 -4 49 -12 49 -7 1 -60 6 -118 11 -58 6 -152 13 -210 15 -58 1 -159
8 -225 13 -212 18 -266 22 -505 31 -129 6 -329 15 -445 20 -342 17 -672 29
-965 35 -186 4 -298 10 -345 21 -38 8 -106 13 -150 12 -44 -2 -215 4 -380 12
-346 17 -406 19 -725 24 -134 2 -280 10 -340 19 -66 9 -150 13 -225 11 -168
-6 -391 -6 -515 -1 -186 8 -777 25 -1095 32 -170 3 -346 10 -390 15 -44 5
-213 9 -375 9 -164 0 -328 5 -370 11 -41 6 -140 11 -220 10 -80 0 -228 2 -330
4 -302 8 -1281 19 -1335 16 -58 -4 -24 -5 -460 5 -437 9 -526 12 -602 20 l-63
7 0 -65z"/>
<path d="M0 8342 l0 -50 115 -7 c63 -4 125 -5 137 -2 12 4 67 2 122 -3 122
-10 725 -21 1441 -25 292 -2 616 -8 720 -14 105 -7 228 -11 275 -9 147 4 961
-13 1040 -22 42 -5 164 -6 272 -4 123 4 223 2 268 -5 43 -7 287 -14 598 -17
289 -2 528 -7 532 -9 4 -3 129 -7 276 -10 148 -3 355 -10 459 -15 105 -5 285
-12 400 -15 116 -3 289 -13 385 -21 96 -8 274 -17 395 -19 121 -2 272 -8 335
-14 63 -6 185 -13 270 -15 333 -11 677 -26 715 -33 22 -4 94 -8 160 -8 273 -4
584 -16 635 -24 30 -5 123 -10 205 -10 83 -1 238 -6 345 -11 107 -5 219 -10
248 -10 l52 0 0 45 c0 42 -1 44 -32 49 -56 8 -416 25 -768 36 -184 5 -407 15
-495 20 -88 6 -250 15 -360 20 -110 6 -301 16 -425 24 -124 8 -317 17 -430 20
-377 9 -774 26 -855 37 -44 6 -127 10 -185 9 -58 0 -238 6 -400 14 -162 8
-479 19 -705 25 -225 6 -439 15 -475 21 -36 5 -346 12 -689 15 -344 4 -629 9
-634 12 -5 3 -147 7 -316 9 -168 1 -430 5 -581 8 -396 7 -810 8 -847 0 -17 -3
-71 -1 -118 6 -51 7 -225 13 -419 15 -426 3 -935 14 -961 21 -11 2 -174 7
-362 10 l-343 6 0 -50z"/>
<path d="M98 7912 l-98 -3 0 -33 0 -33 98 -7 c53 -4 207 -11 342 -15 137 -5
262 -14 283 -20 21 -7 82 -12 135 -11 54 0 327 0 607 -2 402 -3 519 -1 552 9
36 12 50 11 96 -2 54 -15 552 -26 1382 -30 424 -2 894 -13 1028 -25 59 -5 120
-7 135 -4 15 3 232 0 482 -7 250 -6 536 -13 635 -15 479 -8 738 -14 815 -19
47 -3 328 -7 625 -10 759 -7 1678 -23 1695 -29 8 -3 155 -7 325 -10 171 -3
387 -9 480 -15 94 -5 286 -12 428 -15 l257 -6 0 49 0 50 -52 5 c-29 3 -183 8
-343 11 -159 3 -364 10 -455 15 -91 5 -311 10 -489 11 -195 0 -335 5 -350 11
-16 6 -194 11 -461 13 -901 5 -1657 16 -1705 24 -27 5 -103 6 -168 1 -66 -4
-139 -3 -165 2 -26 5 -112 8 -192 7 -80 -2 -206 3 -280 9 -74 6 -373 14 -664
18 -292 3 -535 9 -541 12 -5 4 -221 8 -480 9 -472 2 -1523 19 -1775 29 -90 4
-152 1 -187 -7 -43 -10 -64 -10 -110 1 -44 10 -185 14 -563 15 -278 0 -510 4
-517 8 -11 7 -635 14 -805 9z"/>
<path d="M0 7396 c0 -36 5 -58 12 -61 12 -4 177 -8 828 -20 162 -3 329 -10
370 -16 51 -7 99 -8 150 -1 47 6 99 6 140 0 36 -5 182 -11 325 -13 143 -2 395
-6 560 -10 653 -13 797 -15 1531 -19 419 -2 767 -7 774 -11 7 -4 236 -9 509
-11 273 -3 573 -8 666 -13 100 -5 224 -4 300 1 91 7 145 7 180 -1 28 -6 122
-11 210 -10 88 0 178 1 200 1 41 0 641 -12 860 -17 142 -3 624 -13 990 -20
476 -8 749 -16 759 -23 6 -3 152 -7 326 -9 173 -2 404 -4 512 -6 l198 -2 0 56
0 56 -173 2 c-94 0 -296 3 -447 6 -151 2 -410 7 -575 10 -719 12 -836 14 -844
19 -4 3 -255 8 -557 11 -302 3 -697 10 -878 16 -181 6 -350 8 -377 5 -29 -4
-77 0 -126 10 -67 14 -88 14 -145 4 -70 -14 -240 -11 -673 10 -115 6 -413 9
-661 8 -247 -1 -455 2 -461 5 -6 4 -247 9 -535 11 -287 3 -698 7 -913 10 -214
3 -678 8 -1030 11 -355 3 -666 10 -698 16 -41 7 -81 7 -132 -1 -52 -8 -90 -8
-130 -1 -31 6 -151 11 -268 11 -198 0 -655 23 -739 36 l-38 6 0 -56z"/>
<path d="M13 6994 c-8 -3 -13 -26 -13 -58 l0 -53 183 -7 c302 -12 970 -20
1532 -17 799 3 1697 10 1725 13 14 2 99 -1 190 -5 161 -8 382 -17 585 -23 55
-2 208 -4 340 -4 132 0 294 -5 360 -10 103 -9 292 -15 700 -24 50 -1 117 -8
150 -15 42 -10 97 -12 185 -7 69 3 152 1 184 -4 32 -5 192 -12 355 -16 163 -3
314 -9 336 -13 22 -4 58 -4 80 0 22 4 117 1 210 -6 94 -8 227 -14 296 -14 70
0 153 -4 185 -10 33 -6 201 -12 374 -15 401 -7 881 -22 1270 -41 168 -8 377
-14 465 -14 88 0 210 -4 270 -10 61 -6 181 -11 268 -11 l157 0 0 56 0 55 -162
-2 c-137 -1 -170 1 -206 16 -39 16 -51 17 -112 5 -42 -8 -91 -10 -127 -6 -51
6 -431 17 -1068 31 -111 2 -230 8 -265 13 -36 5 -164 10 -285 11 -121 2 -312
7 -425 12 -113 5 -245 11 -295 12 -49 2 -205 9 -345 16 -140 7 -280 13 -310
14 -75 1 -633 24 -910 38 -283 14 -511 20 -666 18 -66 0 -138 4 -160 10 -22 6
-202 13 -414 16 -206 3 -469 10 -585 16 -115 6 -311 10 -435 9 -918 -5 -1156
-5 -1765 3 -264 3 -709 8 -990 11 -280 3 -586 7 -680 10 -94 3 -176 3 -182 0z"/>
<path d="M205 6590 c-38 -4 -100 -8 -137 -9 l-68 -1 0 -49 c0 -40 4 -51 19
-56 11 -3 419 -8 908 -10 563 -2 912 -8 954 -14 71 -12 144 -14 354 -11 72 1
177 3 235 3 58 1 218 -2 355 -6 290 -10 555 -15 1030 -21 424 -5 761 -15 800
-23 16 -3 102 -7 190 -9 88 -2 214 -5 280 -7 66 -2 332 -6 590 -11 259 -4 493
-11 520 -16 28 -5 147 -8 265 -6 118 2 233 -1 255 -5 22 -4 274 -10 560 -14
520 -5 905 -14 915 -20 3 -2 194 -6 425 -9 231 -4 454 -11 495 -16 77 -9 326
-17 913 -26 l337 -6 0 50 c0 64 -7 66 -154 58 -61 -4 -212 -1 -336 5 -124 7
-295 14 -380 15 -85 1 -243 5 -350 10 -107 4 -278 8 -380 9 -102 1 -279 6
-395 12 -115 6 -273 9 -350 7 -77 -2 -165 0 -195 5 -30 4 -104 5 -165 2 -60
-4 -177 -3 -260 1 -82 4 -278 10 -435 12 -157 3 -312 8 -345 11 -82 7 -546 18
-915 21 -288 3 -497 9 -690 20 -47 3 -159 6 -250 8 -522 8 -867 18 -1035 28
-104 7 -316 13 -470 13 -154 1 -388 5 -520 9 -132 3 -397 9 -590 11 -192 3
-476 9 -630 15 -154 5 -433 8 -620 6 -187 -1 -380 1 -430 6 -151 14 -227 16
-300 8z"/>
<path d="M0 6097 l0 -64 108 -7 c59 -3 507 -8 997 -10 557 -3 914 -8 955 -15
44 -7 87 -7 134 0 47 6 110 6 195 -2 69 -6 214 -9 321 -8 127 1 212 -2 245
-10 39 -10 69 -10 138 0 63 9 160 10 330 5 133 -4 438 -9 677 -11 239 -3 482
-9 540 -14 58 -6 301 -13 541 -16 239 -3 590 -11 780 -17 189 -7 376 -11 414
-9 83 4 133 3 280 -3 268 -13 779 -27 1110 -31 198 -3 457 -10 575 -15 262
-13 496 -19 1045 -25 231 -3 506 -7 610 -8 105 -2 238 -2 298 1 l107 5 0 47 0
48 -172 6 c-95 4 -229 6 -298 6 -390 -2 -677 1 -1024 10 -675 18 -832 22
-1426 34 -129 2 -361 9 -515 15 -244 10 -575 19 -990 27 -66 1 -217 5 -335 7
-118 3 -449 10 -736 16 -300 6 -542 15 -572 22 -33 7 -67 7 -94 2 -24 -5 -131
-6 -238 -2 -445 16 -562 19 -1825 34 -148 2 -328 8 -400 14 -71 5 -234 10
-361 9 -139 0 -253 4 -287 11 -40 9 -66 9 -96 1 -40 -11 -1004 -5 -1022 6 -5
3 -9 -24 -9 -59z"/>
<path d="M210 5721 c-14 -5 -67 -9 -117 -10 l-93 -1 0 -54 0 -54 58 -8 c31 -5
127 -9 212 -10 603 -4 1374 -14 1470 -19 63 -4 243 -9 400 -11 157 -2 420 -8
585 -14 165 -6 413 -13 550 -16 433 -8 567 -12 665 -19 52 -4 214 -9 360 -12
432 -7 975 -23 1205 -37 50 -3 110 -2 135 3 26 5 111 6 200 1 85 -5 402 -12
705 -15 302 -4 554 -10 560 -13 5 -4 228 -10 495 -14 267 -5 501 -9 520 -9 19
-1 249 0 510 1 261 2 766 0 1123 -3 l647 -7 0 53 0 53 -387 2 c-704 4 -989 10
-1051 23 -50 11 -68 10 -118 -3 -49 -13 -100 -15 -299 -11 -132 3 -269 5 -305
3 -36 -1 -85 -2 -110 -3 -103 0 -838 15 -875 18 -92 9 -373 16 -910 21 -313 3
-624 7 -690 8 -473 9 -729 17 -738 23 -7 4 -103 6 -214 4 -165 -2 -213 1 -262
15 -52 14 -69 15 -125 4 -50 -9 -109 -9 -263 -1 -109 7 -227 11 -263 10 -102
-4 -787 18 -799 25 -13 8 -217 13 -1209 31 -127 2 -236 6 -241 9 -7 5 -100 6
-336 3 -129 -2 -400 6 -490 15 -55 5 -165 11 -245 13 -80 2 -165 6 -190 9 -25
3 -56 1 -70 -3z"/>
<path d="M3475 5368 c-29 -17 -42 -38 -49 -80 -3 -21 -14 -41 -24 -47 -9 -5
-144 -7 -307 -5 -430 4 -706 5 -713 0 -4 -2 -63 0 -132 5 -69 4 -291 11 -495
15 -203 3 -392 7 -420 7 -27 1 -246 5 -485 9 -239 4 -522 10 -628 12 -106 3
-199 3 -207 -1 -11 -4 -15 -21 -15 -63 l0 -58 323 -3 c382 -3 442 -3 783 -1
143 1 275 -3 294 -8 19 -5 382 -12 864 -15 1613 -10 2119 -15 2129 -22 7 -4
241 -8 522 -9 719 -3 2004 -20 2220 -30 72 -3 171 0 221 5 59 7 102 7 124 1
39 -11 331 -17 1220 -26 349 -3 698 -8 775 -11 77 -2 310 -6 519 -8 208 -2
385 -6 392 -9 11 -4 14 7 14 52 l0 57 -328 3 c-180 1 -545 7 -812 12 -267 5
-705 12 -975 15 -269 3 -545 10 -611 16 -79 7 -134 7 -156 1 -22 -6 -142 -6
-319 -1 -156 5 -414 9 -574 9 -453 0 -1203 10 -1500 20 -175 5 -303 5 -364 -1
-51 -6 -101 -7 -110 -4 -18 8 -437 19 -521 14 -30 -2 -80 -2 -110 -2 -30 1
-149 4 -265 7 -115 3 -213 5 -217 5 -21 2 -4 40 35 79 40 42 41 44 23 58 -24
17 -93 18 -121 2z"/>
<path d="M0 4772 l0 -63 73 7 c39 4 81 7 92 6 11 0 218 -1 460 -1 242 0 449 0
460 0 11 0 121 -3 245 -5 581 -14 740 -17 805 -15 87 3 63 3 410 -5 452 -11
1238 -20 1360 -15 61 2 162 4 225 3 127 -1 938 -2 1010 -2 25 0 211 0 415 -1
203 -1 395 1 427 5 44 5 70 2 103 -11 36 -13 52 -15 77 -6 19 7 123 11 262 12
127 0 254 4 281 9 28 4 70 4 95 0 25 -5 254 -12 510 -16 256 -3 564 -8 685
-11 282 -7 296 -7 380 -2 39 2 259 0 490 -3 231 -4 671 -10 978 -14 l557 -7 0
52 0 51 -132 2 c-73 1 -236 3 -363 4 -126 1 -336 4 -465 8 -129 3 -435 8 -680
11 -245 2 -470 5 -500 7 -30 1 -93 0 -140 -2 -47 -1 -276 0 -510 4 -234 4
-873 8 -1420 9 -547 1 -1001 6 -1008 10 -6 5 -60 1 -118 -8 -58 -9 -115 -14
-127 -10 -12 3 -393 8 -847 11 -1588 8 -1803 11 -1835 24 -22 9 -61 10 -140 4
-135 -9 -107 -9 -425 -1 -626 17 -749 19 -1208 20 l-482 2 0 -63z"/>
<path d="M6098 4616 c-27 -20 -22 -38 10 -34 19 2 27 9 27 22 0 24 -15 29 -37
12z"/>
<path d="M1877 4453 c-9 -9 -156 -11 -982 -17 -346 -2 -648 0 -670 5 -25 6
-74 4 -132 -3 l-93 -12 0 -57 c0 -68 4 -70 105 -52 78 13 334 8 400 -8 27 -7
74 -7 145 1 58 6 407 15 775 21 884 15 1154 16 1430 6 127 -4 635 -10 1130
-12 495 -3 1037 -8 1205 -11 168 -4 328 -7 355 -7 28 0 158 -4 290 -9 132 -5
407 -12 610 -14 204 -3 525 -7 715 -10 284 -4 881 -12 1070 -15 46 0 333 -1
1235 -2 286 0 613 1 728 3 l207 3 0 44 0 45 -102 -2 c-131 -3 -735 17 -747 24
-4 3 -44 -1 -87 -10 -61 -12 -112 -14 -224 -9 -80 4 -464 8 -855 11 -390 2
-816 6 -945 8 -129 2 -563 7 -965 10 -607 5 -745 9 -820 22 -71 13 -105 14
-165 6 -41 -5 -181 -8 -310 -6 -129 2 -399 6 -600 9 -201 3 -491 7 -645 10
-154 2 -503 6 -775 8 -376 3 -504 7 -533 17 -31 11 -50 11 -97 2 -57 -12 -473
-9 -595 4 -28 3 -54 2 -58 -3z"/>
<path d="M2160 4114 c-24 -9 -91 -13 -216 -13 -100 -1 -273 -8 -385 -16 -112
-9 -214 -13 -225 -10 -12 2 -134 0 -270 -6 -137 -6 -343 -12 -459 -14 -116 -1
-250 -8 -300 -15 -50 -6 -114 -9 -143 -5 -28 4 -77 3 -107 0 l-55 -7 0 -53 0
-52 36 -6 c20 -3 143 1 273 9 130 8 297 14 371 12 135 -2 430 14 448 26 6 3
81 6 169 7 87 0 232 4 323 10 155 8 903 16 1165 12 66 -1 278 -1 470 1 193 2
415 -2 495 -7 80 -5 156 -9 170 -9 31 1 538 1 638 0 39 -1 92 -1 117 -1 200
-1 302 -2 685 -9 239 -4 550 -10 690 -13 432 -10 835 -15 1070 -13 230 2 349
1 965 -7 613 -8 923 -14 1210 -24 154 -6 451 -13 660 -15 209 -3 395 -8 413
-12 l32 -6 0 51 0 51 -182 0 c-101 0 -221 2 -268 5 -47 2 -317 7 -600 10 -283
3 -533 10 -555 15 -25 6 -66 5 -110 -2 -49 -7 -119 -7 -240 0 -93 6 -309 12
-480 13 -170 2 -346 4 -390 5 -118 3 -945 18 -1130 20 -88 1 -344 7 -568 12
-224 6 -582 13 -795 16 -214 2 -419 10 -460 16 -53 9 -86 9 -123 1 -64 -14
-225 -5 -302 16 -49 14 -67 14 -125 4 -78 -15 -226 -17 -692 -13 -184 2 -500
3 -702 2 -308 0 -373 2 -404 15 -43 18 -66 18 -114 -1z"/>
<path d="M5970 3793 c-8 -3 -28 -19 -44 -34 -39 -39 -94 -55 -138 -40 -22 8
-200 15 -553 21 -286 6 -857 17 -1270 27 -687 15 -1413 19 -1790 9 -1085 -29
-1879 -45 -2057 -43 l-118 2 0 -54 0 -53 668 6 c367 3 867 12 1112 20 245 8
465 14 490 14 25 0 223 5 440 9 244 6 489 6 640 0 135 -6 283 -8 330 -7 47 2
112 3 145 3 33 0 285 -3 560 -6 275 -3 640 -8 810 -11 171 -4 345 -3 387 2 42
4 114 4 160 0 46 -4 178 -10 293 -13 116 -2 233 -7 260 -10 28 -3 236 -7 463
-10 228 -3 418 -7 423 -10 5 -3 93 -8 196 -10 104 -3 379 -9 613 -15 234 -6
702 -13 1040 -15 338 -2 676 -7 750 -11 74 -3 244 -8 378 -9 l242 -4 0 44 c0
24 -4 47 -10 50 -5 3 -198 8 -427 10 -917 9 -1349 15 -1583 20 -686 17 -633
16 -1516 29 -127 1 -236 6 -243 10 -6 4 -124 7 -261 7 l-249 -1 -33 29 c-54
46 -77 55 -108 44z"/>
<path d="M5680 3482 c-29 -14 -72 -17 -260 -18 -124 -1 -243 -5 -265 -11 -39
-9 -137 -8 -570 2 -262 7 -272 7 -370 4 -44 -2 -132 3 -196 10 -75 9 -144 11
-200 6 -100 -9 -206 -9 -474 0 -110 4 -276 6 -370 5 -93 -1 -195 -1 -225 -1
-30 0 -107 0 -170 0 -63 1 -175 -4 -248 -10 -94 -7 -147 -7 -185 1 -56 11
-364 6 -610 -10 -89 -6 -147 -6 -164 1 -22 8 -590 24 -768 21 -33 0 -132 -1
-220 -1 -88 0 -211 -3 -273 -6 l-112 -7 0 -1734 0 -1734 58 0 57 0 2 87 c0 49
7 142 14 207 10 99 10 129 -1 180 -11 46 -15 171 -16 521 0 253 -4 712 -8
1020 -6 493 -5 565 8 604 19 51 20 99 5 138 -7 18 -12 125 -13 293 -1 241 0
266 16 282 22 22 57 23 103 4 48 -20 57 -43 44 -108 -7 -29 -13 -182 -15 -343
-2 -159 -5 -310 -5 -335 0 -25 2 -252 4 -505 3 -253 5 -557 4 -675 -1 -118 -1
-260 0 -315 1 -55 4 -305 6 -555 3 -250 5 -465 6 -477 1 -22 5 -23 77 -23 l76
0 -6 148 c-3 81 -5 210 -6 287 0 77 0 187 0 245 0 58 5 153 10 212 10 101 9
109 -12 149 -20 39 -21 45 -8 103 8 33 14 75 13 91 -16 512 -18 605 -16 780 1
72 1 207 0 300 -1 155 0 174 20 210 18 36 19 44 8 76 -9 25 -14 111 -15 270
-1 129 -3 288 -4 354 l-1 119 27 15 c24 14 30 14 61 -1 l35 -16 8 -119 c10
-161 6 -586 -7 -620 -7 -19 -7 -61 1 -138 8 -74 9 -124 2 -150 -5 -22 -7 -89
-5 -150 2 -60 3 -128 2 -150 -1 -22 -1 -56 0 -75 3 -45 10 -450 16 -830 2
-162 8 -310 14 -329 6 -18 8 -75 5 -125 -16 -320 -20 -628 -8 -648 3 -4 36 -8
73 -8 l68 0 0 83 c0 132 11 303 22 344 13 47 14 88 2 127 -26 84 -41 192 -31
226 7 24 6 119 -1 300 -6 146 -11 292 -10 325 6 164 4 224 -7 272 -9 42 -8 62
3 108 11 40 12 67 6 98 -6 24 -7 212 -3 452 7 476 7 503 2 571 -3 33 2 70 14
106 19 55 19 55 -3 109 -21 54 -21 54 -3 124 15 57 23 72 45 83 33 16 74 6 93
-22 21 -33 21 -180 0 -229 -16 -36 -16 -43 0 -95 14 -50 15 -74 4 -197 -6 -77
-10 -206 -9 -285 1 -80 -1 -377 -5 -660 -8 -621 -9 -533 4 -725 6 -88 8 -194
4 -236 -3 -44 -1 -100 5 -131 8 -38 9 -80 2 -141 -8 -67 -7 -96 3 -125 23 -66
27 -134 11 -195 -9 -35 -15 -103 -15 -172 l0 -115 78 0 77 0 -2 128 c-1 70 -2
192 -1 272 1 188 1 276 0 380 -2 126 -2 172 1 403 0 56 -1 318 -2 582 -2 264
-1 642 3 840 4 198 6 374 5 390 -1 17 -1 50 -1 75 2 48 1 138 -1 210 -2 39 1
46 24 57 35 17 92 0 119 -35 18 -23 21 -35 15 -80 -9 -74 -15 -533 -15 -1197
0 -337 -4 -593 -10 -626 -7 -40 -7 -65 1 -85 7 -19 12 -173 15 -444 2 -228 4
-422 4 -430 1 -8 0 -111 -2 -228 l-3 -212 73 0 72 0 0 43 c2 111 2 764 1 1027
-1 238 7 1513 13 2052 1 113 2 119 27 144 32 32 97 46 145 31 29 -9 39 -7 62
10 73 53 162 50 162 -6 0 -14 -7 -35 -15 -45 -20 -27 -19 -58 4 -103 18 -34
20 -62 21 -298 1 -143 2 -291 2 -330 1 -108 0 -488 -3 -825 -1 -168 -1 -332
-1 -365 8 -722 12 -902 20 -1015 5 -75 5 -148 0 -165 -9 -35 -10 -100 -2 -132
6 -21 12 -23 73 -23 l66 0 -2 308 c-2 310 -3 1441 -2 1520 3 112 2 248 -1 432
-3 132 5 328 14 372 6 27 3 50 -9 83 -19 48 -16 140 7 256 9 47 9 66 -5 115
-22 81 -26 206 -7 229 40 48 111 37 130 -19 13 -41 14 -535 1 -590 -6 -23 -6
-61 0 -95 7 -48 14 -1521 8 -1711 -5 -150 -2 -645 6 -768 l8 -132 70 0 70 0
-8 63 c-10 93 -6 756 6 842 6 48 7 95 1 132 -8 49 -9 1314 -2 1918 1 99 -1
219 -5 266 -7 80 -6 88 14 108 28 28 82 28 107 0 17 -19 19 -38 20 -163 0 -77
4 -208 8 -291 4 -82 4 -170 -1 -195 -5 -25 -5 -74 -1 -110 4 -44 2 -94 -9
-152 -12 -69 -12 -97 -4 -141 8 -37 9 -125 4 -288 -4 -129 -5 -295 -3 -369 3
-74 5 -469 5 -878 l0 -742 73 0 73 0 0 318 c2 417 2 381 -6 592 -4 102 -7 266
-7 365 0 99 0 216 0 260 -2 275 11 1362 18 1421 3 34 1 117 -6 185 -13 138 -7
172 34 190 36 17 74 3 97 -34 16 -26 19 -41 13 -82 -4 -27 -5 -79 -3 -115 1
-36 2 -92 2 -125 -2 -90 -12 -415 -14 -455 -1 -19 2 -71 6 -115 5 -60 3 -95
-8 -140 -13 -50 -14 -82 -7 -190 5 -71 10 -375 10 -675 1 -487 6 -1188 9
-1342 l1 -58 65 0 65 0 2 58 c4 144 7 584 6 747 -1 99 -2 245 -1 325 0 80 1
192 1 250 -1 916 1 1195 6 1410 3 140 1 306 -4 369 -12 131 -5 151 54 171 28
9 41 9 62 -2 44 -21 49 -38 35 -114 -10 -51 -10 -97 -4 -174 6 -58 7 -204 3
-325 -3 -121 -3 -294 1 -385 4 -91 3 -240 -2 -332 -6 -106 -6 -189 0 -227 6
-38 6 -74 -1 -102 -5 -24 -7 -69 -4 -99 7 -71 7 -211 -1 -675 -7 -397 -7 -424
1 -675 3 -85 5 -170 5 -187 l1 -33 65 0 65 0 1 153 c0 83 3 433 6 777 3 344 5
645 5 670 -1 95 0 1159 1 1240 1 98 -11 360 -19 408 -7 43 30 82 79 82 62 0
64 -9 60 -250 -2 -118 -3 -663 -2 -1210 0 -547 1 -1024 1 -1060 0 -36 0 -117
0 -180 0 -63 1 -231 0 -373 l0 -257 67 0 66 0 2 283 c0 155 1 408 1 562 0 154
0 303 0 330 0 305 -1 476 -4 610 -2 88 -3 221 -1 295 1 74 0 178 -2 230 -2 52
-3 133 -3 180 1 47 1 244 1 439 0 398 -1 391 71 391 46 0 82 -27 82 -60 -1
-14 -5 -113 -9 -220 -12 -259 -7 -1507 6 -1689 7 -97 7 -159 0 -189 -6 -30 -7
-104 0 -216 7 -135 6 -578 -1 -681 -1 -11 -1 -75 0 -142 l2 -123 65 0 65 0 1
98 c1 53 4 142 6 197 3 55 4 206 2 335 -1 129 -2 258 -1 285 2 127 1 433 -3
555 -3 74 -4 207 -3 295 0 88 0 223 -1 300 -1 77 -2 149 -2 160 5 245 12 765
11 780 0 11 -1 81 0 154 0 144 7 166 54 173 30 5 73 -11 81 -30 20 -48 20
-841 -1 -1397 -4 -121 -7 -238 -6 -260 4 -69 14 -436 14 -530 1 -190 0 -423
-3 -490 -2 -79 -2 -134 1 -325 1 -74 -1 -172 -5 -217 l-8 -83 70 0 70 0 9 142
c9 160 9 1052 -1 1338 -5 128 -2 231 7 335 10 106 12 198 7 314 -4 90 -5 261
-3 380 3 119 4 268 4 332 -1 63 3 134 9 156 9 34 8 58 -9 134 -18 84 -18 106
-3 162 12 46 109 53 131 10 5 -10 10 -76 11 -147 1 -70 4 -139 7 -152 3 -12
-2 -85 -11 -161 -13 -104 -16 -165 -10 -248 4 -60 7 -125 7 -142 0 -18 0 -124
0 -235 0 -112 -1 -259 -1 -328 -1 -69 -1 -363 -1 -655 1 -291 1 -543 0 -560 0
-16 -3 -119 -5 -227 -2 -109 -9 -223 -15 -253 -9 -43 -9 -69 0 -108 21 -94 14
-87 90 -87 l68 0 0 113 c0 61 5 124 11 139 7 20 6 41 -6 82 -13 48 -14 60 -1
98 11 34 12 68 5 168 -12 164 -11 267 4 366 7 49 9 104 4 140 -9 70 -10 138
-7 299 1 66 0 163 -3 215 -5 96 -5 529 1 785 2 77 3 305 2 506 0 201 3 376 7
388 16 51 113 46 134 -7 10 -27 10 -167 -3 -1042 -7 -463 -7 -712 1 -975 3
-121 5 -247 4 -280 -1 -33 -1 -105 0 -160 3 -156 3 -369 0 -495 -1 -63 -1
-166 -1 -227 l2 -113 75 0 76 0 -8 128 c-5 70 -8 199 -7 287 0 88 1 297 1 465
0 168 0 375 1 460 0 85 -4 242 -9 349 -7 163 -6 201 6 237 12 36 13 62 5 141
-5 57 -7 266 -4 493 7 501 7 496 -6 615 -14 132 -3 155 75 155 32 0 46 -5 60
-23 17 -23 18 -48 15 -423 -1 -219 -1 -460 0 -534 4 -159 2 -724 -2 -860 -1
-52 0 -342 3 -645 3 -302 6 -616 6 -697 l1 -148 65 0 65 0 0 61 c0 33 5 91 11
129 7 46 7 86 0 122 -7 39 -6 72 4 125 11 57 11 96 2 199 -18 218 -10 1112 11
1190 10 34 9 49 -9 99 -19 53 -20 69 -11 150 6 49 8 158 5 240 -3 83 -5 285
-5 450 1 540 0 503 22 525 24 24 76 26 107 5 21 -15 21 -15 23 -582 2 -666 2
-552 -5 -998 -3 -198 -8 -366 -10 -373 -3 -8 0 -120 5 -250 15 -336 19 -697 9
-767 -5 -33 -6 -120 -3 -192 l7 -133 62 0 62 0 7 103 c4 56 7 109 6 117 -1 8
0 168 1 355 1 187 1 358 0 380 -5 141 -1 362 9 414 8 44 8 77 0 121 -10 55
-14 439 -11 1135 1 138 1 341 1 451 1 190 2 203 21 220 31 28 97 23 124 -8 21
-25 21 -25 17 -609 -3 -321 -4 -667 -3 -769 1 -102 3 -239 3 -305 1 -66 1
-304 1 -530 -1 -226 -2 -560 -2 -743 l-1 -332 70 0 70 0 1 78 c1 42 3 230 6
417 2 187 4 354 5 370 0 17 0 296 -1 620 0 325 -1 617 -1 650 2 366 2 359 -3
740 -3 182 -8 350 -12 375 -8 56 6 78 57 86 32 6 41 2 69 -25 32 -32 32 -33
24 -99 -5 -37 -9 -105 -10 -152 -1 -47 -5 -112 -9 -146 -7 -46 -5 -67 6 -90
13 -24 15 -122 16 -624 1 -490 8 -1193 15 -1475 1 -33 0 -177 -3 -320 -2 -143
-3 -293 -2 -332 l2 -73 65 0 65 0 2 308 c1 169 1 323 0 342 -7 99 -7 394 0
454 5 42 4 110 -3 172 -8 77 -8 145 2 271 12 178 14 347 4 503 -4 52 -8 228
-9 390 -2 162 -5 422 -7 577 -3 206 -1 287 8 299 16 22 83 29 106 12 17 -13
19 -40 24 -358 7 -419 7 -460 -6 -519 -7 -35 -7 -62 3 -102 16 -70 12 -732 -5
-833 -6 -38 -9 -98 -5 -135 3 -36 6 -124 5 -196 -2 -177 7 -879 15 -1080 0
-22 -2 -55 -6 -72 l-7 -33 69 0 70 0 2 83 c1 45 1 93 0 107 -1 14 -4 288 -5
610 -2 322 -7 613 -12 647 -5 39 -3 79 4 110 7 27 13 155 15 293 3 159 8 261
17 292 11 39 10 59 -4 135 -13 70 -16 135 -13 313 2 124 -1 323 -7 444 -9 191
-8 222 6 251 31 65 116 52 140 -20 7 -20 6 -67 -2 -145 -7 -64 -10 -132 -6
-152 4 -19 1 -78 -6 -129 -7 -52 -12 -110 -11 -129 2 -73 12 -1887 10 -1930
-1 -25 -1 -83 0 -130 1 -47 4 -170 5 -275 2 -104 4 -232 5 -282 l2 -93 60 0
60 0 0 148 c0 81 3 199 7 262 4 63 5 144 2 180 -3 52 -3 1859 0 2335 1 61 0
126 0 145 0 19 3 80 8 135 8 94 9 100 36 115 24 13 30 13 55 0 l27 -16 6 -154
c4 -85 5 -429 2 -765 -6 -948 -5 -1631 2 -1777 6 -105 4 -152 -10 -224 -13
-71 -14 -100 -6 -130 6 -22 11 -87 11 -146 l0 -108 68 0 67 0 0 1642 c0 1206
3 1645 11 1657 16 21 78 19 103 -3 23 -21 29 -100 35 -509 4 -222 2 -276 -10
-310 -13 -35 -13 -51 -3 -94 8 -36 10 -88 5 -165 -10 -158 -10 -509 0 -943 5
-203 8 -413 8 -465 -1 -52 -4 -256 -6 -452 l-3 -358 77 0 78 0 -7 78 c-9 88
-9 215 -5 662 2 173 1 511 -1 750 -4 357 -3 442 9 476 12 37 12 50 -2 105 -12
45 -14 82 -9 135 17 189 20 298 12 479 -2 55 -8 205 -11 332 l-7 233 25 25
c31 31 83 33 117 6 20 -16 24 -27 22 -70 -1 -28 -9 -76 -17 -107 -12 -45 -12
-66 -3 -110 8 -40 8 -65 0 -95 -9 -33 -8 -59 5 -123 8 -44 15 -108 14 -141 -4
-358 -11 -1623 -10 -1840 3 -531 5 -750 6 -772 2 -21 7 -23 67 -23 l66 0 -1
423 c0 232 2 537 5 677 3 155 1 288 -6 340 -10 82 -11 210 -2 575 2 94 4 221
3 283 0 62 4 129 9 149 7 24 7 51 0 82 -6 25 -11 199 -11 395 -1 330 -1 349
17 362 27 20 89 18 108 -4 13 -14 17 -43 19 -133 1 -97 -2 -122 -20 -166 -20
-49 -20 -55 -6 -95 11 -32 16 -101 20 -273 2 -126 5 -239 6 -250 1 -11 -3
-105 -7 -210 -5 -104 -7 -266 -6 -360 6 -361 4 -1547 -3 -1668 l-8 -127 78 0
77 0 -6 121 c-3 67 -1 183 5 258 6 75 11 147 10 161 0 14 -3 295 -5 625 -3
330 -8 612 -12 626 -4 15 1 66 10 114 10 56 14 103 9 129 -4 23 -6 156 -5 296
1 140 2 260 2 265 -1 6 -3 156 -5 335 -4 364 -5 360 64 360 25 0 43 -7 58 -23
21 -23 23 -88 24 -787 0 -19 -3 -154 -8 -300 -4 -146 -6 -375 -5 -510 1 -135
4 -425 5 -645 3 -412 4 -432 44 -454 16 -9 15 -13 -9 -58 -24 -43 -27 -63 -33
-186 -4 -76 -4 -180 0 -232 l7 -95 64 0 63 0 1 147 c0 326 0 335 -26 374 l-23
35 26 55 c26 53 27 57 26 269 -1 118 -1 285 -1 370 0 85 -1 173 -2 195 -1 22
-1 240 1 485 2 478 2 469 -1 760 -2 107 0 216 4 241 4 26 2 63 -4 85 -10 35
-4 128 15 230 9 48 85 50 118 2 21 -30 21 -151 0 -237 -14 -55 -15 -74 -4
-131 15 -78 15 -114 7 -815 -4 -297 -11 -562 -16 -590 -8 -38 -6 -64 6 -110
12 -48 14 -85 7 -185 -4 -69 -7 -141 -6 -160 1 -19 4 -242 6 -495 1 -253 4
-475 4 -492 l2 -33 59 0 59 0 5 58 c2 31 3 287 1 567 -4 771 -4 745 12 804 13
46 13 59 1 95 -11 33 -12 88 -7 281 7 256 4 800 -5 850 -3 17 1 60 9 96 10 46
11 89 5 149 -13 139 -11 324 4 344 20 27 97 33 119 9 15 -17 16 -33 9 -146 -5
-70 -5 -145 -1 -168 8 -42 7 -90 -8 -438 -5 -110 -5 -253 0 -330 5 -75 6 -154
3 -176 -11 -87 -16 -884 -5 -923 7 -30 7 -53 -2 -89 -10 -36 -11 -111 -6 -293
4 -154 3 -266 -4 -301 -7 -40 -7 -72 1 -108 6 -29 11 -104 11 -166 l0 -115 69
0 c79 0 85 7 70 82 -4 23 -8 235 -8 469 0 234 -3 432 -6 440 -3 8 1 34 10 58
11 33 13 53 5 80 -12 45 -5 1351 8 1401 5 19 6 123 2 230 -3 107 -2 213 3 235
5 26 5 58 -3 91 -8 37 -8 64 0 100 14 60 34 84 71 84 53 0 57 -21 52 -260 -2
-118 -3 -260 -2 -315 4 -166 2 -294 -6 -402 -5 -68 -4 -123 4 -161 6 -32 11
-119 10 -193 -1 -74 0 -224 1 -334 5 -292 5 -388 4 -705 -1 -157 -1 -423 -1
-592 l1 -308 72 0 71 0 7 74 c4 41 2 103 -3 138 -6 34 -10 164 -10 288 0 124
-1 322 -3 440 -2 118 -2 294 -1 390 0 96 1 200 1 230 0 77 1 128 2 175 0 22
-2 83 -6 135 -3 52 -1 137 5 188 8 75 7 100 -4 133 -17 48 -20 269 -6 500 9
133 3 305 -15 495 -6 58 -5 62 21 82 15 12 36 22 47 22 29 0 76 -27 82 -47 14
-50 7 -1111 -9 -1353 -5 -66 -3 -120 4 -145 10 -38 14 -263 9 -515 -1 -63 1
-236 5 -385 9 -332 8 -520 -3 -570 -6 -25 -4 -55 6 -90 9 -35 11 -77 7 -119
l-6 -66 67 0 66 0 2 38 c0 20 0 44 -1 52 -1 14 -12 959 -11 990 0 8 0 175 -2
370 -2 434 -2 634 0 942 2 211 4 243 22 288 20 50 20 53 3 113 -13 46 -18 103
-19 217 -1 85 -5 171 -9 191 -6 30 -4 40 14 58 45 45 134 15 133 -45 0 -16 -3
-117 -7 -224 -4 -107 -5 -247 -4 -310 2 -63 3 -149 3 -190 -1 -41 -1 -115 -1
-165 0 -49 -1 -117 -3 -150 -3 -95 -3 -133 4 -435 10 -491 14 -1022 7 -1105
-4 -44 -4 -98 1 -120 4 -22 8 -147 8 -277 l0 -238 66 0 65 0 -4 684 c-3 376
-1 703 3 726 5 29 3 58 -5 88 -11 36 -12 80 -4 227 7 123 7 223 0 309 -7 90
-7 144 1 181 7 37 7 68 1 97 -7 27 -8 150 -5 323 6 305 6 409 1 528 -4 73 -2
80 20 98 33 27 68 24 102 -11 27 -26 29 -34 24 -77 -7 -67 -19 -991 -14 -1138
2 -66 4 -165 3 -220 0 -55 -1 -174 -2 -265 0 -91 2 -340 5 -555 7 -410 12
-761 12 -907 l1 -88 71 0 72 0 -6 93 c-3 50 -3 110 1 132 5 22 3 171 -3 330
-6 160 -9 369 -6 465 4 96 4 195 0 220 -11 71 -12 264 -4 870 8 720 8 680 2
918 -5 192 -5 204 14 223 42 42 113 15 111 -42 -4 -135 -2 -1039 2 -1229 3
-130 2 -249 -3 -265 -4 -17 -4 -61 0 -100 14 -113 25 -534 19 -745 -3 -107 -2
-211 2 -231 6 -30 8 -129 6 -394 0 -33 0 -102 1 -152 l1 -93 64 0 64 0 4 62
c3 35 0 121 -4 193 -8 105 -6 142 6 195 41 174 44 225 16 280 -18 35 -20 65
-25 342 -3 167 -8 404 -12 528 -3 124 -6 541 -7 927 -1 698 0 703 20 724 26
25 78 28 103 5 17 -15 18 -34 14 -314 -2 -163 -8 -318 -14 -344 -8 -33 -7 -68
1 -122 6 -41 10 -119 9 -173 -1 -54 0 -219 2 -368 2 -148 2 -290 -2 -314 -3
-24 -2 -100 4 -170 6 -69 11 -234 13 -366 2 -132 3 -262 4 -290 0 -27 0 -151
-1 -275 -1 -124 -1 -291 0 -372 l1 -148 60 0 60 0 1 88 c1 48 2 179 3 292 1
225 6 247 62 272 23 11 28 9 44 -12 24 -32 30 -65 21 -123 -5 -26 -6 -132 -4
-235 2 -103 3 -208 3 -234 l-1 -48 70 0 c67 0 71 1 77 25 3 14 1 69 -5 123 -7
55 -12 162 -11 238 0 76 0 204 -1 284 0 80 0 219 0 310 2 287 0 371 -10 536
-7 121 -7 172 2 205 7 24 11 69 10 99 -4 76 -4 228 -1 545 2 149 2 308 2 355
0 47 0 155 0 240 0 85 -3 184 -7 220 -9 76 3 94 58 92 48 -1 70 -34 62 -92 -9
-65 -8 -154 4 -324 6 -89 7 -173 2 -210 -5 -36 -5 -100 1 -157 8 -76 7 -118
-6 -205 -9 -63 -12 -124 -8 -144 4 -19 6 -96 4 -170 -1 -74 -1 -238 0 -365 2
-126 2 -318 1 -425 -2 -107 -2 -269 -1 -360 1 -91 2 -298 3 -460 1 -162 3
-310 4 -327 l1 -33 66 0 66 0 -7 48 c-12 74 -5 1227 7 1247 3 6 2 58 -3 117
-7 86 -6 115 6 149 14 38 14 48 -1 91 -13 40 -16 102 -16 365 0 345 5 597 17
793 5 78 3 179 -5 270 l-12 145 27 22 c34 30 60 29 90 -2 l25 -24 0 -238 c0
-132 -6 -278 -12 -328 -7 -49 -12 -112 -11 -140 2 -42 2 -680 1 -960 -1 -104
0 -215 2 -240 1 -11 4 -288 6 -615 3 -327 6 -619 7 -647 l2 -53 63 0 62 0 2
438 c1 240 2 455 2 477 -1 22 -2 94 -2 160 0 66 -1 152 -2 190 -3 149 -4 446
-2 819 1 214 -1 399 -4 411 -3 12 0 42 6 66 8 30 13 169 14 432 l2 387 -31 1
c-402 11 -420 13 -463 41 -61 41 -84 44 -118 15 -66 -55 -97 -57 -184 -11
l-44 24 -42 -25 c-62 -36 -128 -34 -174 5 -44 38 -77 38 -125 0 -57 -45 -78
-47 -146 -14 l-60 28 -55 -28 c-43 -22 -63 -27 -94 -22 -22 3 -58 9 -81 12
-23 4 -67 1 -99 -6 -51 -11 -66 -10 -139 9 -69 18 -91 20 -142 12 -49 -8 -69
-7 -103 5 -73 28 -91 28 -132 0 -44 -30 -86 -33 -155 -12 -31 10 -59 11 -90 6
-24 -5 -78 -6 -119 -4 -41 3 -118 1 -170 -4 -84 -8 -102 -7 -150 10 -87 30
-95 31 -143 10 -43 -19 -55 -20 -269 -10 -367 17 -398 17 -801 22 l-389 5 -45
26 c-52 29 -102 31 -153 7z m4064 -234 c22 -31 20 -103 -5 -183 -19 -64 -20
-70 -5 -109 14 -36 15 -103 11 -540 -3 -274 -7 -502 -10 -505 -2 -4 0 -49 5
-101 7 -72 5 -110 -6 -164 -11 -55 -12 -81 -4 -121 17 -78 25 -762 9 -791 -25
-48 -89 -15 -109 57 -13 44 -13 187 0 266 8 48 7 82 -5 149 -8 47 -13 90 -10
94 4 7 6 378 6 1000 -1 1004 -2 929 19 950 28 28 84 27 104 -2z"/>
<path d="M1467 3203 c-13 -21 -29 -48 -36 -60 -8 -15 -11 -113 -11 -320 -1
-439 9 -1215 16 -1235 2 -9 -2 -45 -11 -79 -10 -37 -13 -73 -9 -88 4 -14 9
-125 10 -246 2 -121 6 -389 10 -595 3 -206 6 -406 5 -445 -1 -38 1 -85 4 -103
l6 -32 68 0 69 0 4 48 c2 26 0 117 -4 202 -22 429 -27 1498 -7 1597 7 36 7 63
0 90 -11 42 -28 657 -22 783 11 194 1 463 -18 498 -18 33 -47 27 -74 -15z"/>
</g>
</svg>
