<?xml version="1.0" standalone="no"?>
<!DOCTYPE svg PUBLIC "-//W3C//DTD SVG 20010904//EN"
 "http://www.w3.org/TR/2001/REC-SVG-20010904/DTD/svg10.dtd">
<svg version="1.0" xmlns="http://www.w3.org/2000/svg"
 width="736.000000pt" height="832.000000pt" viewBox="0 0 736.000000 832.000000"
 preserveAspectRatio="xMidYMid meet">
<metadata>
Created by potrace 1.14, written by Peter Selinger 2001-2017
</metadata>
<g transform="translate(0.000000,832.000000) scale(0.100000,-0.100000)"
fill="#ffffff" stroke="none">
<path d="M1625 8313 c28 -1 88 -10 135 -18 47 -8 111 -17 143 -20 74 -8 101
-31 91 -80 -5 -28 -2 -36 20 -50 14 -10 55 -20 90 -22 57 -5 65 -3 79 17 19
27 14 41 -29 84 -24 24 -31 39 -27 54 9 37 -30 42 -300 40 -139 -1 -229 -3
-202 -5z"/>
<path d="M5275 8308 c17 -5 66 -11 110 -13 97 -4 241 -20 350 -39 44 -8 134
-20 200 -26 66 -6 161 -18 210 -25 50 -8 122 -17 160 -21 39 -3 120 -16 180
-29 118 -25 327 -38 334 -20 2 6 -16 17 -40 25 -24 8 -48 18 -54 21 -5 4 -27
9 -48 13 -21 4 -65 16 -99 27 -33 10 -83 19 -111 19 -28 0 -92 11 -141 24
-193 52 -243 56 -677 55 -284 0 -395 -4 -374 -11z"/>
<path d="M7218 8305 c18 -8 49 -17 70 -20 20 -4 45 -9 55 -12 13 -3 17 2 17
21 0 26 0 26 -87 26 -85 -1 -87 -1 -55 -15z"/>
<path d="M2480 8224 c-50 -17 -90 -39 -87 -48 2 -6 26 -19 53 -28 40 -13 92
-17 282 -17 187 -1 240 -4 270 -17 74 -31 137 -35 697 -40 432 -4 587 -9 640
-19 39 -8 138 -21 220 -30 83 -9 157 -18 165 -20 31 -9 196 -27 235 -26 59 1
173 -19 228 -40 35 -14 74 -19 145 -19 63 0 125 -7 177 -20 44 -11 94 -20 111
-20 16 0 64 -9 105 -19 56 -15 109 -20 219 -20 386 0 963 -11 1025 -20 39 -6
143 -13 233 -17 l162 -7 0 59 0 59 -77 18 -77 17 -52 -26 c-28 -14 -62 -26
-75 -26 -31 1 -189 20 -260 32 -74 13 -249 13 -364 -1 -69 -8 -128 -8 -222 0
-70 6 -193 16 -273 21 -80 6 -183 17 -230 25 -47 8 -128 19 -180 25 -52 6
-147 23 -210 39 -76 20 -164 33 -260 41 -80 6 -165 15 -190 20 -25 5 -108 14
-185 20 -77 6 -169 15 -205 20 -205 31 -329 42 -554 47 -428 11 -677 9 -727
-4 -74 -20 -248 -20 -286 0 -23 12 -58 17 -120 17 -48 0 -115 7 -148 15 -58
14 -155 18 -185 9z"/>
<path d="M965 8039 c-66 -5 -152 -6 -191 -3 -48 4 -93 0 -135 -10 -35 -8 -109
-18 -164 -21 -55 -3 -124 -13 -152 -21 -29 -8 -98 -21 -154 -30 -56 -8 -117
-21 -136 -29 -29 -12 -34 -19 -31 -42 5 -43 38 -54 138 -47 47 4 107 16 135
27 49 20 72 23 330 46 72 6 165 17 207 22 112 16 626 -9 763 -36 39 -8 108
-17 155 -19 56 -4 109 -15 155 -32 77 -28 186 -45 311 -48 80 -2 134 -21 134
-46 0 -5 14 -17 32 -26 29 -15 43 -15 128 -4 99 13 186 4 355 -35 96 -22 304
-49 380 -49 39 1 252 2 475 4 553 4 1069 -9 1095 -26 12 -9 50 -14 100 -15 94
0 192 -12 290 -33 39 -8 95 -15 126 -16 30 0 78 -7 106 -15 72 -21 1005 -27
1073 -7 25 8 124 17 221 21 142 5 181 10 203 24 34 22 33 45 -1 58 -31 12
-294 4 -403 -12 -102 -15 -393 -17 -525 -3 -66 8 -170 13 -230 14 -61 0 -139
4 -175 10 -36 5 -89 10 -119 10 -30 0 -77 6 -105 14 -28 8 -94 20 -146 25 -52
6 -129 18 -170 25 -41 8 -109 15 -150 16 -41 0 -94 5 -118 10 -78 18 -859 32
-970 17 -96 -12 -596 -13 -797 0 -115 7 -182 16 -207 27 -22 9 -64 16 -101 16
-36 0 -82 6 -104 14 -22 8 -75 17 -119 21 -43 4 -99 16 -124 27 -25 11 -83 23
-130 28 -47 5 -98 13 -114 20 -16 6 -66 14 -110 17 -45 3 -105 14 -135 25 -30
10 -82 18 -115 18 -34 0 -97 7 -141 15 -109 22 -200 34 -330 45 -60 5 -128 12
-150 14 -22 2 -94 0 -160 -5z"/>
<path d="M365 7578 c-60 -3 -126 -11 -145 -17 -19 -6 -50 -11 -69 -11 -19 0
-61 -5 -93 -12 l-58 -12 0 -50 0 -49 118 7 c64 3 133 10 152 16 136 36 145 37
365 33 121 -3 249 -6 285 -7 146 -5 422 -28 535 -46 66 -10 171 -24 234 -30
62 -6 136 -17 165 -24 28 -8 94 -17 146 -21 52 -3 129 -12 170 -20 177 -31
237 -37 259 -26 29 16 26 45 -8 74 -25 21 -42 25 -127 30 -55 3 -120 12 -145
21 -25 9 -110 27 -190 42 -79 14 -166 30 -193 34 -27 5 -95 12 -150 16 -56 3
-146 13 -201 21 -178 26 -816 45 -1050 31z"/>
<path d="M2505 7336 c-29 -23 -29 -25 -13 -42 29 -30 204 -44 683 -55 744 -17
977 -1 953 63 -3 7 -17 20 -32 27 -22 12 -31 12 -65 -4 -33 -14 -53 -16 -113
-10 -108 10 -221 16 -438 21 -308 8 -339 8 -455 5 -136 -4 -327 2 -420 13 -66
7 -72 6 -100 -18z"/>
<path d="M7190 7340 c-8 -6 -40 -17 -70 -26 -61 -18 -120 -57 -120 -80 0 -17
12 -18 27 -3 6 6 26 14 44 19 36 9 107 32 177 57 23 8 42 21 42 29 0 17 -76
20 -100 4z"/>
<path d="M7272 7235 c-39 -14 -93 -30 -119 -35 -67 -15 -269 -105 -363 -161
-25 -15 -62 -30 -82 -33 -20 -4 -62 -22 -92 -40 -31 -19 -87 -41 -124 -51 -37
-9 -110 -30 -162 -46 -52 -16 -102 -29 -110 -29 -8 0 -26 -6 -40 -13 -31 -16
-139 -44 -201 -52 -84 -11 -120 -73 -54 -95 58 -19 237 14 300 57 11 7 29 13
40 13 11 0 71 18 134 40 126 44 158 48 168 23 8 -21 -48 -69 -100 -85 -21 -6
-49 -24 -62 -40 -14 -16 -53 -46 -87 -66 -112 -66 -190 -124 -245 -181 -57
-60 -63 -75 -36 -90 20 -11 71 12 120 53 17 14 52 35 79 46 27 12 65 31 84 44
122 80 162 103 253 146 56 26 113 59 125 73 13 14 38 31 55 38 18 7 43 21 57
32 44 33 93 48 179 54 79 6 86 8 128 45 24 21 50 38 57 38 7 0 38 18 70 40 31
22 70 47 86 55 l30 16 0 114 c0 63 -3 115 -7 115 -5 0 -41 -12 -81 -25z m-184
-192 c-4 -21 -39 -39 -111 -58 -60 -15 -71 -12 -37 13 77 56 155 79 148 45z"/>
<path d="M6853 7195 l-28 -24 35 -1 c37 0 47 5 69 33 12 15 11 17 -17 17 -19
0 -42 -10 -59 -25z"/>
<path d="M6740 7150 c0 -5 5 -10 10 -10 6 0 10 5 10 10 0 6 -4 10 -10 10 -5 0
-10 -4 -10 -10z"/>
<path d="M470 7110 c-19 -5 -100 -9 -180 -10 -80 -1 -178 -2 -218 -3 l-72 -2
0 -46 0 -46 122 -1 c76 -1 152 -8 198 -18 123 -28 146 -28 201 -4 48 20 59 21
257 14 159 -5 224 -11 282 -26 59 -16 91 -19 152 -14 65 5 84 3 115 -13 21
-10 92 -30 158 -45 66 -15 143 -34 170 -43 55 -17 117 -27 302 -45 110 -10
124 -10 147 6 29 19 33 38 11 56 -25 21 -157 50 -269 60 -102 8 -112 11 -162
45 l-53 37 -164 -7 -163 -8 -16 25 c-25 38 -158 68 -318 73 -69 2 -147 8 -175
14 -59 12 -275 12 -325 1z"/>
<path d="M6565 7110 c-16 -4 -51 -8 -77 -9 -50 -1 -143 -22 -177 -41 -12 -6
-21 -18 -21 -26 0 -13 7 -15 33 -10 17 4 77 11 132 16 55 5 113 12 128 14 36
7 89 44 82 57 -7 10 -57 10 -100 -1z"/>
<path d="M5622 6986 c-23 -8 -73 -17 -111 -21 -66 -7 -144 -39 -144 -60 0 -27
50 -36 173 -32 101 2 134 7 173 25 37 17 47 26 47 45 0 14 -6 29 -12 35 -22
18 -82 22 -126 8z"/>
<path d="M4205 6905 c-55 -16 -190 -18 -275 -5 -49 7 -59 5 -90 -15 -51 -34
-227 -68 -285 -55 -86 19 -345 28 -665 23 -299 -5 -422 0 -615 23 -41 5 -55 3
-74 -13 l-24 -20 33 -23 c22 -16 52 -25 89 -28 31 -2 81 -12 111 -22 38 -12
91 -18 175 -19 66 0 153 -6 193 -12 57 -9 85 -9 125 0 34 9 160 14 372 15 217
2 343 7 390 16 39 7 99 13 135 12 68 -1 256 23 297 39 13 5 56 11 96 14 39 3
92 12 117 19 25 8 58 18 74 23 16 4 31 14 33 20 3 9 -13 13 -60 12 -35 -1 -73
1 -83 4 -11 3 -41 -1 -69 -8z"/>
<path d="M7200 6799 c-170 -84 -186 -90 -333 -125 -123 -30 -131 -35 -214
-147 -61 -81 -106 -107 -187 -107 -76 0 -107 -10 -152 -50 -35 -30 -151 -92
-194 -103 -33 -8 -100 -64 -100 -84 0 -12 7 -14 33 -9 46 9 150 63 190 100 42
38 126 71 133 51 6 -14 -22 -58 -86 -133 -42 -51 -92 -81 -222 -135 -20 -8
-44 -27 -53 -41 -9 -14 -47 -42 -83 -62 -36 -21 -86 -52 -109 -70 -24 -18 -59
-38 -79 -43 -19 -5 -54 -28 -77 -51 -22 -23 -66 -55 -97 -70 -31 -16 -79 -45
-105 -66 -27 -20 -65 -41 -83 -45 -31 -7 -38 -4 -63 23 l-28 31 -73 -26 c-40
-14 -98 -29 -128 -32 -30 -4 -113 -23 -185 -42 -71 -20 -157 -40 -190 -44 -33
-5 -85 -17 -115 -28 -120 -41 -222 -62 -400 -81 -58 -6 -136 -20 -173 -31 -37
-11 -96 -24 -130 -29 -34 -5 -93 -15 -132 -23 -38 -8 -97 -19 -130 -25 -33 -6
-98 -19 -145 -28 -47 -9 -130 -21 -185 -26 -55 -5 -131 -15 -170 -23 -38 -8
-104 -19 -145 -26 -41 -6 -87 -18 -102 -25 -15 -8 -48 -14 -73 -14 -25 0 -80
-7 -122 -16 -41 -8 -121 -17 -177 -18 -67 -2 -114 -9 -141 -20 -22 -9 -56 -21
-75 -26 -19 -5 -60 -16 -90 -25 -30 -9 -111 -27 -180 -40 -176 -32 -320 -65
-340 -75 -9 -5 -41 -12 -71 -15 -30 -3 -83 -13 -119 -21 -36 -8 -112 -19 -170
-24 -58 -6 -128 -13 -156 -16 -37 -5 -67 -1 -105 12 -41 14 -79 17 -161 16
-82 -2 -119 1 -155 15 -39 14 -85 17 -248 18 -110 1 -257 5 -327 10 -69 4
-138 5 -152 1 -25 -6 -26 -10 -26 -71 0 -74 -11 -69 97 -45 43 10 61 9 100 -3
34 -11 115 -17 273 -21 144 -4 241 -11 270 -20 29 -9 73 -12 126 -8 75 4 83 3
93 -16 17 -32 91 -37 186 -13 43 12 90 21 104 21 39 0 249 38 302 55 26 8 67
15 92 15 26 0 70 9 99 19 73 27 206 57 313 70 50 6 108 18 130 26 22 8 55 14
73 15 18 0 45 6 60 14 40 21 148 46 195 46 39 0 137 15 277 41 30 6 93 14 140
19 47 5 110 16 140 25 60 17 216 20 240 5 8 -5 12 -10 8 -10 -3 0 -51 -9 -105
-19 -54 -11 -134 -24 -179 -30 -44 -5 -91 -14 -106 -20 -14 -5 -65 -16 -114
-25 -49 -9 -123 -29 -164 -45 -44 -17 -105 -31 -148 -35 -40 -3 -90 -13 -110
-22 -20 -8 -66 -19 -102 -24 -128 -18 -206 -32 -290 -52 -49 -11 -136 -22
-205 -24 -120 -5 -172 -15 -295 -60 -36 -13 -80 -26 -98 -30 -39 -7 -66 -49
-41 -65 22 -14 103 -11 152 6 38 13 114 25 312 50 28 4 95 17 150 30 137 31
203 42 325 55 58 6 125 18 150 26 25 9 60 19 78 24 18 4 39 13 46 19 7 6 51
15 97 20 46 5 101 16 121 25 21 9 51 16 68 16 17 0 56 9 87 20 32 11 73 20 93
20 19 0 72 9 118 20 46 11 109 23 140 26 31 3 84 12 117 19 33 8 132 26 220
40 88 15 174 31 190 36 44 13 281 32 302 25 14 -6 15 -9 2 -20 -35 -34 -123
-69 -206 -81 -49 -7 -128 -20 -178 -29 -49 -9 -113 -16 -142 -16 -29 0 -62 -4
-75 -9 -85 -32 -229 -65 -381 -86 -53 -7 -112 -19 -131 -25 -19 -6 -56 -15
-82 -19 -121 -21 -270 -53 -286 -62 -10 -5 -53 -14 -97 -19 -44 -6 -95 -17
-114 -25 -19 -8 -77 -18 -130 -24 -53 -5 -101 -12 -106 -16 -5 -3 -57 -10
-116 -15 -112 -11 -202 -29 -300 -60 -167 -52 -288 -66 -435 -49 -58 6 -132
11 -165 11 -309 -5 -576 -4 -651 3 -62 5 -102 4 -124 -3 -17 -7 -117 -15 -221
-18 l-189 -7 0 -64 0 -64 143 6 c78 4 171 12 207 18 108 18 591 20 683 3 67
-13 84 -13 132 -1 31 8 86 14 123 14 112 -1 356 17 377 28 27 14 177 50 244
58 30 3 70 13 89 21 19 8 76 19 126 24 50 6 111 14 136 20 25 5 96 14 159 19
62 5 118 14 124 20 6 6 51 11 105 11 75 0 99 4 120 19 15 10 52 21 83 24 31 3
70 12 86 20 16 9 74 23 128 31 55 9 135 23 178 31 97 19 113 19 121 0 3 -10
-8 -24 -34 -41 -33 -22 -60 -29 -157 -39 -133 -15 -263 -39 -292 -54 -11 -6
-56 -11 -99 -11 -64 0 -91 -5 -134 -25 -38 -18 -70 -25 -114 -25 -34 0 -77 -6
-95 -14 -19 -7 -65 -17 -102 -21 -38 -4 -83 -13 -100 -20 -18 -7 -61 -15 -97
-19 -63 -6 -193 -33 -295 -62 -27 -7 -86 -18 -130 -24 -44 -6 -97 -18 -118
-26 -20 -7 -65 -14 -100 -14 -34 0 -93 -7 -130 -15 -45 -9 -167 -16 -355 -21
-190 -4 -309 -11 -352 -20 -35 -8 -134 -17 -220 -19 -85 -2 -219 -7 -298 -11
l-142 -7 0 -47 0 -47 133 4 c72 2 173 8 222 13 50 6 147 11 217 11 124 2 128
1 163 -25 19 -15 35 -31 35 -35 0 -21 60 -31 180 -31 72 0 130 -4 130 -9 0
-14 -66 -19 -190 -13 -69 3 -157 -1 -220 -9 -58 -7 -127 -12 -153 -11 -26 1
-64 -5 -83 -13 -41 -17 -67 -19 -139 -9 -46 5 -54 3 -83 -21 -31 -26 -34 -26
-82 -15 -28 7 -67 9 -90 5 -40 -7 -40 -7 -40 -52 l0 -46 61 6 c42 4 72 13 95
29 30 21 40 24 86 17 39 -5 59 -3 76 8 20 12 120 22 242 24 93 1 471 -20 495
-28 65 -22 804 23 1135 69 144 20 175 21 188 5 11 -12 6 -20 -28 -47 -31 -24
-56 -34 -108 -42 -37 -5 -93 -16 -124 -24 -32 -8 -84 -14 -115 -14 -32 0 -85
-5 -118 -10 -33 -5 -157 -17 -275 -25 -118 -8 -237 -19 -265 -25 -45 -8 -318
-30 -355 -28 -39 2 -470 -24 -533 -32 -40 -5 -111 -10 -159 -10 -76 0 -90 -3
-114 -23 -26 -23 -26 -24 -10 -56 9 -17 23 -34 31 -37 7 -3 57 4 112 15 82 17
148 22 413 26 173 3 349 10 390 16 41 5 107 14 145 19 91 13 441 47 669 66 77
6 78 6 71 -15 -4 -13 -1 -28 5 -36 21 -26 71 -16 154 28 99 53 152 72 237 86
114 19 178 12 167 -20 -2 -7 -31 -29 -63 -48 -71 -44 -104 -84 -89 -109 28
-44 106 -16 201 71 73 68 227 157 272 157 27 0 34 -5 46 -34 8 -18 22 -36 30
-40 52 -20 70 13 30 54 l-28 30 37 15 c39 16 92 13 120 -9 12 -8 13 -19 7 -48
-10 -42 0 -58 36 -58 36 0 82 26 198 111 56 41 145 79 188 79 15 0 44 7 64 15
87 36 83 9 -10 -87 -77 -77 -109 -134 -82 -144 33 -13 110 29 168 92 51 56
112 107 197 167 50 35 170 123 239 176 65 50 71 58 71 91 0 43 21 66 97 104
40 20 67 26 116 26 44 0 68 5 77 14 6 8 28 20 47 27 20 6 80 35 134 64 106 57
140 69 170 60 57 -19 -11 -105 -131 -165 -65 -33 -84 -47 -95 -74 -19 -44 -58
-68 -124 -75 -54 -6 -56 -7 -59 -38 -2 -24 2 -35 17 -45 27 -16 27 -48 0 -82
-25 -31 -69 -36 -69 -7 0 22 -25 45 -39 37 -13 -9 -61 -92 -61 -108 0 -19
-115 -130 -180 -173 -66 -44 -164 -95 -183 -95 -8 0 -34 -15 -59 -34 -47 -36
-137 -68 -248 -86 -103 -18 -286 -85 -324 -118 -61 -54 -186 -112 -256 -119
-30 -3 -65 -11 -77 -19 -43 -27 -109 -44 -175 -44 -36 0 -105 -9 -152 -20 -76
-18 -98 -20 -185 -11 -68 7 -117 7 -156 0 -45 -8 -80 -6 -188 11 -73 11 -149
24 -169 29 -20 4 -67 4 -104 -1 -44 -6 -110 -5 -193 3 -154 14 -177 14 -207
-6 -48 -31 -29 -52 78 -85 49 -15 117 -21 314 -29 186 -7 262 -14 289 -25 23
-10 73 -16 138 -18 83 -1 115 3 172 22 59 19 92 23 215 24 162 1 328 24 430
60 36 13 101 36 145 51 44 16 91 36 105 46 43 28 124 66 157 72 18 4 63 25
100 48 48 29 86 44 127 49 48 7 66 16 95 44 20 19 61 45 91 59 30 13 68 38 84
56 33 35 69 40 104 15 32 -22 28 -57 -12 -92 -19 -17 -44 -48 -54 -69 -30 -56
-77 -100 -158 -144 -64 -35 -75 -46 -101 -97 -28 -55 -31 -57 -73 -60 -25 -2
-51 -8 -58 -15 -18 -14 -9 -59 19 -98 20 -28 20 -31 4 -87 -13 -45 -28 -68
-68 -107 -29 -28 -60 -63 -70 -78 -10 -16 -51 -44 -97 -67 -44 -22 -89 -49
-99 -59 -10 -10 -47 -33 -81 -52 -51 -27 -66 -41 -80 -74 -12 -29 -28 -46 -50
-55 -17 -7 -39 -25 -48 -39 -30 -50 -55 -71 -91 -77 -49 -9 -68 -20 -76 -45
-9 -26 -28 -20 -35 12 -13 53 -77 31 -202 -68 -72 -57 -90 -91 -40 -78 97 26
127 25 149 -6 7 -9 24 -20 38 -23 14 -4 25 -13 25 -20 0 -37 -177 -275 -216
-290 -7 -3 -23 -24 -35 -48 -22 -45 -65 -88 -111 -113 -27 -15 -84 -92 -123
-166 -12 -21 -45 -63 -75 -91 -30 -29 -70 -74 -87 -101 -55 -80 -133 -100
-141 -35 -3 25 32 77 119 172 26 28 54 66 63 84 9 17 21 32 25 32 5 0 18 15
29 33 12 17 46 57 77 87 31 30 70 73 86 95 16 22 61 67 101 101 40 33 78 71
84 83 7 13 28 40 48 60 20 20 36 40 36 44 0 17 -37 4 -85 -29 -79 -54 -179
-58 -131 -5 9 10 16 23 16 29 0 15 -36 16 -45 2 -4 -6 -22 -21 -40 -33 -18
-12 -69 -47 -112 -78 l-79 -57 -53 11 c-51 10 -56 9 -132 -28 -74 -37 -81 -38
-114 -26 -33 12 -39 10 -90 -18 -48 -27 -70 -32 -207 -46 -84 -9 -177 -20
-207 -25 -30 -6 -139 -10 -242 -10 -103 0 -221 -4 -261 -9 -40 -5 -154 -15
-253 -21 -99 -7 -200 -18 -224 -26 -25 -8 -85 -14 -138 -14 -74 0 -106 -5
-159 -25 -36 -14 -82 -25 -100 -25 l-34 0 0 -60 c0 -69 -1 -69 89 -40 34 11
92 22 129 25 37 4 90 13 117 21 63 18 289 33 655 44 211 6 298 12 335 24 53
16 208 26 220 14 15 -15 -6 -59 -32 -69 -15 -5 -43 -24 -63 -42 -20 -18 -45
-40 -56 -49 -10 -9 -35 -33 -54 -53 -19 -19 -50 -40 -70 -46 -19 -5 -118 -14
-220 -19 -401 -22 -451 -27 -537 -54 -68 -22 -102 -27 -195 -27 -63 0 -137 -7
-168 -15 -30 -8 -76 -14 -102 -14 l-48 0 0 -45 0 -45 50 0 c82 0 303 21 335
31 38 13 238 37 375 46 141 10 381 10 403 1 16 -7 17 -10 2 -37 -8 -16 -39
-56 -68 -88 -30 -32 -59 -68 -65 -79 -6 -12 -31 -32 -54 -45 -38 -20 -58 -23
-169 -25 -70 -1 -131 -4 -135 -7 -5 -2 -52 1 -104 8 -61 9 -108 11 -130 5
-129 -32 -160 -41 -199 -54 -24 -9 -59 -16 -79 -16 -19 0 -63 -5 -98 -12 l-64
-11 0 -54 0 -53 80 0 c54 0 94 6 128 19 52 21 178 37 387 51 72 4 166 11 210
15 62 5 84 3 99 -8 20 -15 21 -13 -51 -132 -7 -11 -19 -36 -28 -55 -9 -19 -19
-42 -24 -50 -14 -26 -103 -68 -160 -75 -31 -4 -87 -18 -125 -31 -38 -13 -88
-24 -110 -24 -23 0 -59 -5 -81 -10 -22 -5 -87 -14 -145 -20 -58 -6 -122 -16
-142 -22 -35 -10 -38 -14 -38 -49 l0 -38 38 5 c20 3 59 10 85 15 26 5 102 9
168 9 78 0 131 5 152 14 39 16 197 31 226 21 35 -11 27 -55 -17 -103 -43 -46
-70 -52 -118 -27 -39 20 -241 21 -288 1 -19 -8 -69 -17 -112 -21 -139 -11
-134 -8 -134 -71 l0 -54 88 0 c73 0 94 4 133 25 36 18 293 85 331 85 4 0 15
-14 23 -31 15 -28 15 -34 -4 -87 -42 -120 -79 -197 -103 -215 -13 -10 -63 -27
-110 -38 -48 -10 -101 -27 -120 -38 -18 -11 -64 -24 -103 -30 -160 -25 -130
-29 203 -30 l333 -1 45 26 c49 29 52 38 24 74 -11 14 -20 35 -20 47 0 41 58
148 115 211 46 50 60 73 66 110 20 108 120 241 201 268 88 29 126 -2 90 -73
-11 -21 -23 -51 -26 -68 -9 -39 -23 -57 -70 -89 -25 -16 -52 -26 -76 -26 -42
0 -70 -23 -54 -44 56 -78 64 -119 30 -167 -14 -19 -32 -49 -40 -66 -8 -18 -19
-33 -25 -33 -5 0 -31 -25 -57 -55 -44 -52 -46 -57 -29 -69 11 -8 16 -20 12
-30 -6 -14 3 -16 71 -16 52 1 83 5 96 15 26 19 56 19 56 0 0 -12 14 -15 65
-15 l64 0 11 38 c7 27 25 51 60 81 55 47 59 62 30 106 -26 40 -25 52 9 84 15
14 32 38 36 51 21 66 100 153 141 153 55 -1 59 -62 8 -159 -20 -38 -49 -82
-64 -99 -38 -42 -48 -63 -48 -112 -1 -24 -3 -47 -6 -51 -3 -5 -9 -27 -15 -50
l-9 -42 54 0 54 0 23 48 c14 26 32 71 42 100 9 30 31 69 48 88 28 32 34 35 81
32 l51 -3 -1 -40 c0 -25 -16 -71 -42 -125 -23 -47 -42 -89 -42 -93 0 -4 55 -7
123 -7 l123 0 53 45 c29 25 62 45 72 45 34 0 60 -20 59 -43 -1 -12 -2 -28 -1
-34 1 -15 51 -18 51 -3 0 6 18 48 40 95 43 92 46 105 29 155 -13 37 -8 43 52
60 24 7 49 26 74 55 20 25 43 45 52 45 15 0 15 -2 -3 -67 -4 -16 1 -26 21 -39
35 -23 58 -9 65 37 4 29 10 35 49 46 70 20 81 -3 31 -60 -29 -34 -30 -35 -15
-72 21 -49 13 -69 -56 -142 -33 -34 -59 -68 -59 -77 0 -8 -10 -22 -22 -30 -21
-15 -14 -16 93 -16 l116 0 16 38 c9 20 21 54 27 74 16 51 32 62 85 55 74 -11
91 2 98 69 4 43 12 63 33 85 30 31 38 30 58 -9 32 -63 30 -86 -13 -136 -23
-26 -41 -54 -41 -63 0 -9 -16 -38 -35 -64 l-35 -49 70 0 71 0 62 68 c136 147
143 154 179 150 31 -3 33 -5 36 -45 2 -23 -1 -50 -6 -60 -6 -10 -13 -39 -17
-65 l-7 -48 60 0 c58 0 62 2 87 34 15 19 42 47 62 62 35 26 36 27 50 8 9 -11
13 -36 11 -61 l-3 -43 65 0 65 1 19 40 c10 23 23 60 28 82 17 76 71 103 104
52 14 -21 15 -39 10 -101 l-7 -75 77 3 77 3 15 45 c8 25 18 77 22 115 7 69 18
122 47 220 9 28 17 71 18 97 2 34 10 56 29 78 18 22 26 43 26 68 0 71 39 182
74 211 22 18 53 5 65 -29 15 -44 -10 -148 -47 -202 -25 -35 -31 -57 -36 -119
-4 -42 -11 -91 -16 -110 -6 -19 -10 -62 -10 -96 0 -34 -6 -82 -14 -105 -8 -24
-16 -73 -18 -110 l-4 -68 72 0 71 0 6 67 c4 38 7 88 7 113 0 26 10 66 23 95
13 28 27 79 31 115 3 36 15 107 26 159 11 52 20 110 20 130 0 20 10 52 22 71
34 56 66 173 61 222 -3 26 3 75 16 125 12 45 21 101 21 125 1 83 15 126 57
171 22 24 42 50 45 58 8 22 29 -3 39 -48 4 -21 11 -50 15 -65 4 -19 -2 -48
-18 -90 -14 -35 -33 -97 -43 -138 -9 -41 -26 -104 -36 -140 -29 -104 -49 -197
-49 -230 0 -17 -9 -49 -21 -72 -35 -70 -47 -127 -54 -273 -4 -77 -13 -156 -21
-175 -17 -45 -44 -164 -44 -196 0 -24 1 -25 68 -22 l67 3 9 38 c8 31 6 46 -13
85 -32 65 -39 143 -16 178 13 21 16 38 10 81 -6 51 -4 61 35 141 23 48 46 96
50 107 5 11 22 49 39 85 18 39 28 74 25 87 -7 26 20 163 46 231 13 34 20 77
20 122 0 47 6 83 19 112 11 24 30 72 43 108 20 54 29 66 53 75 17 5 31 10 33
11 2 1 -6 20 -17 43 -27 52 -26 68 5 114 14 21 28 55 31 75 3 20 11 51 19 69
8 17 14 37 14 43 0 7 16 37 35 66 19 29 38 67 41 83 4 17 23 50 44 74 20 23
41 58 45 77 8 37 49 103 84 134 11 11 21 30 21 43 0 29 15 59 45 93 12 14 28
41 34 62 7 20 30 57 51 81 29 33 40 54 40 79 0 18 10 53 21 78 25 56 87 150
99 150 5 0 10 -19 12 -42 4 -59 -36 -176 -71 -209 -16 -15 -31 -42 -35 -61 -4
-22 -26 -57 -56 -92 -28 -32 -50 -66 -50 -77 0 -11 -11 -39 -24 -62 -14 -23
-27 -60 -31 -82 -3 -22 -9 -53 -12 -68 -2 -15 -22 -47 -42 -71 -25 -28 -40
-58 -45 -84 -3 -22 -22 -73 -41 -113 -19 -41 -35 -80 -35 -87 0 -8 -20 -33
-45 -58 -49 -47 -53 -64 -34 -140 15 -58 2 -88 -46 -111 -40 -19 -40 -17 -20
-73 17 -49 8 -76 -30 -86 -29 -7 -27 1 -30 -111 -1 -49 -8 -126 -15 -173 -6
-47 -11 -108 -10 -136 1 -42 -4 -56 -30 -90 -29 -36 -31 -43 -25 -90 5 -46 3
-55 -29 -103 -24 -35 -36 -65 -36 -88 0 -19 -7 -66 -16 -104 -9 -38 -13 -77
-10 -85 3 -8 22 -22 41 -30 48 -20 51 -35 20 -82 -18 -27 -25 -48 -20 -61 3
-11 -2 -45 -11 -75 -29 -91 -46 -86 290 -86 l295 0 11 38 c6 20 14 55 18 77 6
29 15 43 35 53 66 32 117 -61 82 -150 -7 -17 6 -18 182 -18 l189 0 16 58 c12
41 15 77 11 130 -6 82 -18 88 -46 26 -35 -75 -42 -87 -69 -107 l-28 -21 -27
21 c-36 26 -40 55 -13 98 18 30 20 43 15 107 -5 50 -1 105 10 173 25 145 27
136 -30 165 -56 28 -64 46 -40 92 10 18 21 69 25 112 6 69 11 83 33 100 28 23
66 99 67 132 0 39 99 217 150 269 26 28 57 69 69 92 11 23 25 45 31 48 6 4 21
28 34 53 13 26 33 66 45 89 26 52 26 70 2 78 -26 8 -66 -9 -85 -37 -31 -44
-65 -93 -92 -132 -14 -21 -43 -57 -64 -80 -20 -22 -47 -59 -58 -81 -29 -53
-57 -85 -76 -85 -19 0 -19 -1 -5 131 8 87 17 118 50 190 21 47 39 91 39 97 0
7 15 29 33 49 18 21 48 62 67 91 18 28 37 52 41 52 4 0 41 51 82 112 41 62 85
122 97 133 30 27 66 108 75 169 l7 49 -33 -7 c-44 -9 -71 -27 -89 -62 -8 -16
-43 -57 -77 -91 -39 -40 -67 -79 -79 -110 -10 -26 -36 -69 -58 -94 -23 -26
-48 -57 -57 -70 -19 -28 -49 -20 -49 13 0 13 10 43 22 68 14 30 20 63 20 100
-1 42 5 64 24 92 14 22 24 52 24 74 0 29 10 47 59 102 32 37 75 96 96 132 20
36 50 79 65 97 41 46 83 121 75 133 -3 5 -18 10 -32 10 -19 0 -47 -20 -98 -67
-40 -38 -83 -78 -97 -91 l-26 -22 -41 27 c-29 19 -41 34 -41 50 0 36 34 96 98
170 31 38 69 84 84 104 15 20 45 56 68 80 23 24 52 67 66 94 28 59 48 86 130
174 80 86 137 180 132 217 -3 27 -6 29 -42 28 -28 -1 -45 -8 -55 -22 -9 -12
-31 -41 -49 -66 -19 -25 -42 -48 -51 -51 -17 -5 -51 -43 -162 -180 -108 -134
-165 -214 -204 -289 -45 -85 -87 -123 -107 -95 -13 21 -2 98 21 144 12 21 21
46 21 54 0 8 14 38 30 68 17 29 30 61 30 71 0 27 46 158 68 195 11 18 22 52
26 77 10 74 27 141 51 210 13 36 42 126 65 200 23 74 57 181 76 237 19 57 34
113 34 125 1 52 36 147 61 167 38 29 55 75 40 107 -6 14 -14 59 -18 100 l-6
73 45 45 c37 36 47 54 52 91 4 26 15 65 24 88 16 42 22 143 21 324 -1 90 0 94
37 153 37 60 37 62 21 89 -14 25 -15 32 -2 76 8 26 15 69 15 94 0 64 18 121
46 152 14 14 27 43 31 65 3 21 10 47 15 56 11 23 133 94 185 108 44 11 73 33
73 54 0 14 48 62 78 80 11 6 48 26 81 45 36 20 70 48 81 67 12 18 41 45 67 59
25 15 62 42 82 59 20 18 68 48 106 66 39 19 90 49 114 68 24 18 61 42 83 53
37 19 38 21 38 73 l0 54 -34 -12 c-36 -13 -131 -71 -372 -229 -56 -37 -105
-67 -109 -67 -3 0 -26 -16 -49 -35 -24 -19 -47 -35 -51 -35 -4 0 -28 -16 -53
-37 -24 -20 -63 -42 -85 -50 -23 -8 -61 -32 -85 -54 -34 -32 -49 -40 -75 -37
-46 4 -48 37 -3 85 19 21 55 63 80 94 27 34 67 69 101 88 30 17 55 35 55 40 0
5 24 17 53 26 28 10 72 30 97 45 69 43 274 139 311 146 47 9 79 27 112 63 15
16 45 38 67 47 39 18 40 19 40 71 0 29 -3 53 -7 53 -5 0 -73 -33 -153 -71z
m-1111 -863 c27 -33 -34 -96 -94 -96 -30 0 -34 25 -5 40 11 6 27 24 35 40 17
32 45 39 64 16z m-139 -159 c0 -28 -5 -36 -33 -49 -19 -9 -62 -40 -98 -70 -35
-30 -93 -68 -129 -85 -80 -39 -190 -143 -226 -216 -14 -28 -37 -64 -50 -78
-14 -14 -30 -48 -37 -75 -12 -47 -13 -49 -57 -56 -35 -6 -53 -16 -83 -49 -21
-23 -51 -52 -68 -65 -17 -12 -43 -42 -58 -66 -42 -66 -98 -100 -180 -107 -37
-4 -77 -13 -88 -21 -141 -101 -200 -130 -265 -130 -22 0 -28 5 -28 23 0 30 9
41 47 61 17 9 59 42 91 73 73 71 154 135 236 188 104 67 133 107 74 103 -24
-2 -33 2 -36 15 -2 12 3 17 18 17 13 0 36 15 54 35 25 26 45 37 84 45 73 13
103 32 156 93 25 29 71 71 103 92 32 22 60 42 63 46 8 10 183 125 215 142 17
8 53 36 80 61 80 73 135 106 178 106 35 0 37 -1 37 -33z m43 -267 c-1 -69 -34
-103 -92 -98 -31 3 -36 7 -39 31 -4 31 28 89 61 112 12 9 33 14 47 13 23 -3
25 -6 23 -58z m-733 10 c0 -12 -14 -27 -37 -40 -21 -11 -56 -31 -78 -43 -70
-39 -178 -76 -240 -83 -40 -4 -81 -17 -123 -40 -34 -18 -99 -45 -145 -58 -45
-13 -101 -32 -125 -40 -32 -12 -93 -18 -236 -21 -111 -3 -206 -9 -222 -16 -16
-6 -88 -14 -161 -17 -186 -7 -239 10 -110 35 79 15 226 49 299 70 41 11 76 14
123 9 57 -6 72 -3 118 19 30 14 62 25 73 25 18 0 92 19 233 61 35 10 82 19
104 19 22 0 54 8 71 19 17 10 67 26 111 36 44 9 105 25 135 35 30 10 82 23
114 29 33 6 62 13 64 16 13 12 32 3 32 -15z m416 -156 c26 -39 -36 -148 -81
-142 -27 4 -31 40 -10 94 16 43 50 77 69 71 5 -2 15 -12 22 -23z m385 -71
c-12 -20 -14 -14 -5 12 4 9 9 14 11 11 3 -2 0 -13 -6 -23z m-181 -73 c27 -27
25 -54 -11 -130 -45 -95 -74 -130 -109 -130 -41 0 -45 26 -21 115 12 41 21 86
21 99 0 53 81 85 120 46z m-1052 -52 c5 -24 -198 -222 -272 -267 -46 -27 -59
-31 -71 -21 -8 7 -15 22 -15 33 0 23 27 57 44 57 21 0 87 62 106 101 11 21 30
44 43 50 12 7 38 25 57 41 41 33 102 37 108 6z m-1293 -28 c-3 -5 -24 -10 -46
-10 -24 0 -38 4 -34 10 3 6 24 10 46 10 24 0 38 -4 34 -10z m915 -88 c-9 -15
-38 -39 -65 -54 -43 -23 -62 -26 -142 -27 -51 -1 -93 2 -93 7 0 39 125 98 237
111 70 9 83 0 63 -37z m1138 -16 c2 -11 -3 -42 -11 -70 -9 -28 -20 -73 -24
-100 -7 -41 -14 -53 -49 -78 -56 -40 -77 -31 -68 31 3 25 17 72 30 103 13 32
24 67 24 79 0 13 8 31 17 41 23 25 76 21 81 -6z m-290 -148 c7 -7 12 -36 12
-65 0 -45 -6 -62 -35 -104 -19 -28 -35 -60 -35 -71 0 -31 -60 -84 -104 -92
-22 -4 -53 -18 -70 -30 -17 -13 -52 -36 -78 -51 l-48 -27 0 27 c0 33 14 62 53
102 19 20 31 44 32 66 3 27 20 50 96 128 127 127 151 143 177 117z m-1050 -21
c23 -27 -40 -92 -100 -103 -18 -4 -76 -19 -128 -35 -116 -34 -233 -43 -238
-17 -4 22 63 65 138 89 30 9 89 31 130 48 81 32 179 42 198 18z m-431 -3 c-3
-3 -12 -4 -19 -1 -8 3 -5 6 6 6 11 1 17 -2 13 -5z m644 -23 c20 -16 22 -22 12
-44 -14 -30 -89 -49 -104 -26 -17 28 18 89 51 89 10 0 28 -8 41 -19z m-791
-11 c0 -10 -19 -15 -92 -25 -39 -5 -48 -3 -48 9 0 8 6 17 13 19 23 10 127 7
127 -3z m2296 -67 c8 -45 -12 -87 -43 -91 -43 -6 -40 59 5 111 22 25 30 21 38
-20z m-230 19 c23 -16 23 -45 -1 -96 -14 -29 -25 -59 -25 -66 0 -20 -31 -50
-51 -50 -25 0 -49 38 -49 80 0 50 39 123 70 131 35 10 43 10 56 1z m-1382 -58
c25 -10 19 -25 -32 -81 -43 -47 -53 -53 -112 -65 -76 -16 -100 -13 -100 11 0
41 131 124 222 140 3 0 13 -2 22 -5z m-719 -13 c8 -14 -53 -56 -100 -69 -22
-6 -80 -14 -130 -18 -80 -6 -88 -5 -77 9 40 47 287 110 307 78z m308 -121 c15
-14 -20 -65 -60 -86 -21 -12 -60 -25 -88 -29 -27 -4 -55 -11 -60 -15 -6 -5
-55 -19 -110 -30 -102 -23 -145 -18 -145 14 0 17 65 76 85 76 8 0 34 9 57 19
131 59 286 84 321 51z m1505 -15 c15 -32 15 -60 1 -127 -19 -88 -113 -167
-148 -124 -7 9 -8 22 -3 37 5 13 13 50 17 83 6 51 13 65 52 107 25 27 51 49
58 49 6 0 17 -11 23 -25z m-2438 -19 c-36 -35 -213 -82 -350 -92 l-85 -6 35
29 c39 32 112 63 150 63 14 0 48 7 75 14 28 8 84 15 125 15 l75 1 -25 -24z
m2914 -9 c15 -40 -7 -79 -41 -75 -41 5 -50 52 -17 85 29 29 46 26 58 -10z
m-2539 -62 c0 -19 -13 -29 -156 -126 -54 -37 -55 -37 -192 -44 -121 -6 -138
-5 -143 10 -14 35 87 105 192 134 175 48 230 59 269 51 21 -4 30 -12 30 -25z
m-877 -11 c23 -6 31 -24 11 -24 -6 0 -52 -18 -103 -41 -80 -36 -104 -42 -201
-50 -236 -18 -463 -45 -495 -57 -34 -13 -212 -26 -239 -17 -49 15 -16 31 99
46 36 5 85 13 110 18 25 6 95 13 155 17 88 5 129 13 204 40 51 19 112 34 135
34 22 0 75 9 116 19 76 20 166 26 208 15z m1566 -10 c31 -12 18 -51 -27 -83
-24 -16 -50 -37 -58 -47 -21 -26 -177 -126 -229 -147 -64 -25 -130 -37 -157
-26 -33 12 -29 28 12 44 19 8 47 26 62 40 30 28 103 83 134 101 11 6 27 18 36
26 20 18 182 97 200 98 6 0 18 -3 27 -6z m1084 -46 c19 -19 15 -42 -18 -106
-18 -37 -30 -75 -30 -99 0 -51 -29 -89 -80 -104 -46 -14 -70 -7 -70 21 0 21
28 52 86 96 27 21 28 22 11 47 -16 25 -16 29 -1 67 15 36 64 90 83 90 4 0 12
-5 19 -12z m-2361 -45 c4 -11 -6 -27 -33 -50 -90 -78 -175 -101 -403 -109
-116 -4 -184 -11 -227 -24 -34 -10 -128 -23 -215 -30 -85 -6 -170 -15 -189
-20 -40 -10 -428 -33 -439 -25 -5 2 -39 7 -76 10 -69 6 -84 10 -72 21 11 11
211 35 437 53 74 5 167 17 205 25 39 9 97 16 129 16 33 0 86 7 119 17 51 14
69 15 136 4 76 -12 76 -12 146 19 39 17 88 35 110 40 56 11 172 40 220 55 63
20 144 19 152 -2z m3071 -40 c4 -43 -29 -78 -58 -63 -26 14 -25 48 2 77 30 32
52 26 56 -14z m-274 -9 c20 -20 13 -131 -14 -219 -26 -86 -42 -163 -44 -220
-1 -27 -7 -60 -14 -72 -29 -51 -72 -195 -72 -240 -1 -52 -20 -115 -43 -141 -8
-9 -20 -35 -27 -57 -7 -22 -22 -56 -33 -75 -14 -23 -23 -61 -27 -110 -5 -63
-12 -84 -38 -122 -26 -38 -32 -56 -32 -101 0 -79 -25 -142 -66 -168 -19 -11
-34 -26 -34 -32 0 -52 -58 -147 -89 -147 -21 0 -11 71 19 130 17 33 30 69 30
80 0 23 15 56 65 140 18 30 38 82 45 115 6 33 16 79 21 102 5 23 9 60 9 83 0
23 9 61 20 86 11 24 28 75 36 113 16 69 24 85 82 162 31 40 33 48 27 94 -7 60
14 137 46 171 17 18 21 31 16 58 -11 68 11 167 49 225 31 47 35 59 30 94 -4
24 -2 45 5 53 14 17 14 17 33 -2z m-1994 -17 c0 -34 -101 -109 -265 -199 -56
-30 -66 -32 -144 -31 -88 2 -135 20 -129 50 7 37 212 143 278 143 25 1 77 12
115 25 80 26 145 32 145 12z m-2500 -37 c13 0 13 -1 0 -10 -19 -12 -67 -13
-74 -1 -8 12 14 21 39 16 11 -3 27 -5 35 -5z m130 0 c0 -5 -17 -10 -37 -9 -34
1 -35 2 -13 9 36 11 50 11 50 0z m90 0 c0 -5 -9 -10 -20 -10 -11 0 -20 5 -20
10 0 6 9 10 20 10 11 0 20 -4 20 -10z m-375 -10 c4 -6 -7 -10 -25 -10 -18 0
-29 4 -25 10 3 6 15 10 25 10 10 0 22 -4 25 -10z m3932 -6 c6 -17 -13 -81 -49
-164 -40 -94 -91 -168 -124 -180 -72 -28 -57 39 44 202 23 37 42 76 42 87 0
45 18 71 50 71 19 0 33 -6 37 -16z m938 -50 c20 -21 13 -59 -27 -135 -20 -39
-31 -81 -38 -137 -10 -88 -17 -107 -50 -137 -22 -20 -22 -20 -37 0 -23 31 -12
131 20 178 16 24 28 59 33 95 8 70 19 100 46 130 26 26 32 27 53 6z m-2915
-56 c0 -13 -4 -28 -8 -34 -15 -23 -120 -67 -177 -74 -33 -4 -92 -13 -131 -21
-65 -11 -74 -11 -98 4 -35 23 -33 42 7 57 17 6 48 18 67 25 68 25 156 47 225
54 115 14 115 14 115 -11z m2429 3 c21 -13 15 -73 -13 -129 -22 -43 -26 -65
-26 -132 0 -63 -6 -96 -24 -143 -14 -34 -36 -100 -50 -147 -33 -115 -103 -296
-125 -324 -5 -6 -11 -22 -14 -36 -3 -14 -12 -43 -21 -65 -8 -22 -16 -56 -16
-75 -1 -31 -16 -78 -95 -305 -25 -71 -104 -232 -121 -246 -8 -6 -14 -16 -14
-21 0 -5 -27 -60 -60 -120 -33 -61 -60 -117 -60 -124 0 -8 -23 -37 -50 -66
l-51 -53 7 -53 6 -53 -46 -45 c-26 -24 -51 -42 -56 -39 -6 4 -10 25 -10 48 0
35 7 49 41 86 37 40 39 45 26 65 -8 11 -24 22 -36 24 -31 5 -38 30 -14 47 12
8 28 34 38 57 32 80 118 263 137 290 10 15 25 45 33 68 8 23 24 53 35 67 11
14 20 33 20 42 0 19 56 140 75 161 15 16 55 164 55 202 0 13 9 40 20 61 11 20
20 43 20 51 0 8 16 45 36 83 22 42 38 88 41 121 7 59 53 156 83 172 27 14 57
88 59 144 1 28 10 62 19 78 13 23 14 36 5 79 -8 43 -7 62 8 110 18 58 44 107
64 121 14 10 57 10 74 -1z m-319 -210 c0 -38 -23 -81 -56 -106 -33 -25 -34
-27 -28 -81 6 -51 4 -60 -36 -137 -40 -77 -90 -212 -90 -244 0 -8 -15 -40 -34
-71 -19 -32 -39 -81 -45 -111 -7 -30 -16 -60 -21 -66 -6 -7 -19 -39 -30 -71
-11 -32 -39 -89 -61 -126 -29 -47 -43 -84 -49 -128 -9 -64 -51 -150 -100 -207
-18 -20 -32 -52 -40 -90 -6 -32 -22 -80 -35 -108 -14 -27 -27 -71 -31 -98 -3
-26 -10 -49 -14 -52 -5 -3 -18 -35 -30 -71 -12 -36 -35 -81 -51 -99 -16 -18
-39 -55 -50 -81 -12 -27 -34 -62 -49 -79 -32 -34 -75 -130 -85 -190 -4 -22
-20 -67 -36 -99 -16 -33 -29 -63 -29 -69 0 -5 -25 -53 -56 -107 -30 -54 -71
-142 -90 -196 -19 -54 -42 -109 -52 -122 -27 -39 -29 -43 -67 -123 -28 -62
-35 -88 -35 -140 0 -52 -6 -74 -30 -118 -18 -33 -30 -69 -30 -92 0 -122 -209
-552 -249 -513 -7 6 -13 55 -16 110 -3 94 -2 102 25 149 15 28 31 71 35 97 8
51 26 75 94 121 22 16 41 35 41 42 0 21 -30 33 -67 28 -45 -7 -52 17 -23 69
16 28 20 48 16 70 -4 21 0 45 13 72 10 23 22 64 25 91 4 30 19 71 40 105 18
30 36 69 40 85 7 28 24 60 131 240 23 39 53 102 68 140 16 42 43 88 67 114 23
25 44 61 51 85 13 51 67 184 85 211 8 11 14 31 14 46 0 31 36 113 89 202 43
74 79 122 145 194 l49 53 -2 70 c-1 74 6 98 44 140 12 14 27 40 33 58 6 18 25
51 42 72 16 21 30 46 30 56 1 29 35 99 80 162 35 49 41 63 39 102 -3 50 32
166 60 202 10 13 21 43 25 68 4 25 20 66 36 90 17 25 30 55 30 67 0 11 13 50
30 85 16 34 30 69 30 75 0 7 16 31 36 53 30 33 35 44 29 69 -4 20 -1 38 8 51
41 58 137 94 137 51z m-522 -40 c-3 -41 -39 -67 -70 -50 -17 9 -17 11 2 48 31
63 73 64 68 2z m-121 -177 c9 -24 -14 -87 -40 -113 -14 -12 -37 -23 -53 -24
-27 -2 -29 1 -32 35 -3 30 3 42 36 77 40 43 78 53 89 25z m1299 -81 c-4 -50
-14 -98 -22 -111 -9 -13 -29 -63 -45 -112 -16 -49 -38 -109 -48 -132 -11 -24
-23 -61 -28 -83 -5 -27 -14 -41 -27 -43 -17 -4 -18 0 -12 34 4 22 11 66 15
100 5 33 18 78 28 100 11 21 26 77 32 124 17 119 60 210 99 210 12 0 14 -14 8
-87z m-1126 -37 c0 -18 -17 -29 -30 -21 -8 5 -7 11 1 21 15 18 29 18 29 0z
m-43 -119 c24 -51 -41 -122 -105 -115 -21 2 -28 9 -30 31 -3 23 5 37 38 68 47
45 82 50 97 16z m-372 -224 c37 -36 -3 -133 -61 -147 -16 -4 -32 -23 -48 -55
-28 -53 -113 -125 -143 -119 -11 2 -19 14 -21 29 -2 20 11 42 61 96 51 55 65
79 71 112 13 80 96 130 141 84z m234 -135 c11 -31 -1 -86 -35 -148 -26 -49
-37 -59 -98 -88 -62 -30 -70 -32 -84 -18 -14 14 -14 19 0 53 9 21 21 52 28 69
6 17 37 58 68 92 44 47 64 62 85 62 19 0 30 -7 36 -22z m-945 -314 c11 -28
-22 -78 -110 -169 -48 -49 -93 -105 -101 -123 -8 -19 -33 -52 -57 -75 -23 -23
-50 -53 -59 -67 -21 -32 -73 -64 -82 -50 -4 6 -3 24 0 41 6 28 19 44 109 139
19 19 37 46 41 60 11 35 55 89 86 105 15 8 39 36 54 62 44 78 104 117 119 77z
m486 -24 c13 -8 13 -14 1 -42 -12 -31 -23 -61 -58 -165 -13 -38 -19 -44 -62
-57 -26 -8 -66 -23 -89 -35 -69 -35 -89 -26 -77 36 3 20 22 53 44 76 21 23 46
56 55 74 16 32 25 40 106 93 49 32 58 34 80 20z m260 -153 c0 -19 -3 -36 -6
-40 -4 -3 -16 -34 -28 -69 -26 -77 -87 -159 -168 -227 -64 -55 -66 -55 -87
-42 -10 6 -12 23 -9 59 4 39 16 67 54 124 64 96 116 156 167 195 57 43 77 43
77 0z m1494 -73 c7 -25 -64 -219 -113 -309 -11 -22 -21 -47 -21 -56 0 -19 -52
-79 -68 -79 -15 0 -42 29 -42 44 0 8 7 30 15 49 8 20 15 59 15 87 0 70 83 231
143 276 45 34 60 31 71 -12z m-604 -13 c0 -22 -25 -45 -40 -36 -13 8 -13 28 2
43 18 18 38 14 38 -7z m-1680 -163 c0 -46 -19 -85 -77 -156 -20 -24 -40 -62
-45 -85 -5 -23 -18 -51 -28 -62 -21 -23 -50 -99 -50 -132 0 -31 -35 -121 -56
-144 -38 -42 -48 -11 -27 82 12 56 21 75 44 91 25 19 29 29 29 69 0 86 -34 72
-97 -40 -21 -36 -45 -82 -54 -102 -9 -20 -22 -40 -28 -44 -7 -4 -23 -30 -37
-58 -13 -29 -31 -63 -38 -77 -8 -14 -21 -47 -30 -75 -46 -148 -65 -192 -96
-222 -36 -36 -82 -44 -114 -20 -21 16 -14 35 35 97 16 19 38 58 50 85 12 28
37 64 55 81 29 27 34 38 34 77 0 26 6 49 14 56 8 6 20 26 27 44 7 18 35 59 62
92 29 36 54 81 63 112 17 57 43 81 102 90 49 8 99 50 113 93 19 58 48 109 86
150 47 53 63 52 63 -2z m-498 -4 c-5 -28 -20 -40 -33 -27 -8 8 -8 17 1 33 13
25 36 21 32 -6z m2086 -35 c2 -16 -10 -45 -34 -80 -20 -30 -51 -83 -69 -119
-19 -36 -45 -78 -58 -95 -21 -25 -27 -28 -41 -16 -22 19 -20 34 14 99 16 31
32 73 35 92 4 24 22 53 59 93 59 63 89 72 94 26z m-1220 -31 c2 -9 -8 -35 -22
-57 -14 -22 -26 -47 -26 -54 0 -8 -13 -34 -30 -58 -16 -24 -30 -49 -30 -55 0
-17 -80 -104 -96 -104 -27 0 -17 69 16 106 16 19 34 52 40 75 26 95 84 172
125 167 11 -2 21 -11 23 -20z m-757 -51 c-8 -8 -11 -7 -11 4 0 20 13 34 18 19
3 -7 -1 -17 -7 -23z m-89 -118 c-17 -44 -50 -73 -78 -67 -28 5 -26 21 7 66 24
32 37 42 59 42 l28 0 -16 -41z m1011 -69 c-9 -88 -9 -88 -118 -204 -66 -70
-118 -106 -152 -106 -29 0 -29 12 1 58 14 20 27 49 30 65 3 15 8 38 11 52 6
29 51 72 132 126 66 44 99 48 96 9z m-1533 -3 c0 -7 -22 -34 -50 -62 -163
-165 -225 -223 -232 -219 -26 17 21 118 62 132 15 6 31 19 34 30 4 11 18 23
31 26 14 4 25 10 25 15 0 18 55 74 84 86 33 14 46 11 46 -8z m1077 7 c3 -9 -6
-40 -20 -69 -15 -28 -27 -60 -27 -70 0 -20 -65 -85 -85 -85 -47 0 -1 127 79
218 23 26 44 28 53 6z m1889 -68 c-3 -23 -10 -68 -15 -102 -10 -72 -25 -99
-64 -115 -64 -27 -78 24 -37 137 41 115 131 177 116 80z m-2560 -21 c15 -38
-61 -139 -114 -152 -40 -10 -99 -61 -105 -91 -10 -50 -55 -82 -86 -63 -21 13
-4 47 34 70 19 11 46 37 60 58 74 110 106 147 150 174 36 23 54 24 61 4z
m-696 -44 c0 -10 -30 -24 -37 -17 -3 3 -2 9 2 15 8 13 35 15 35 2z m2648 -45
c3 -38 -2 -52 -22 -77 -14 -16 -39 -56 -57 -89 -17 -33 -36 -60 -42 -60 -16 0
-3 151 18 190 19 38 74 91 90 86 6 -1 11 -24 13 -50z m-229 11 c8 -10 7 -24
-4 -53 -7 -21 -16 -52 -20 -67 -6 -32 -49 -57 -66 -40 -7 7 -4 24 10 56 12 25
21 55 21 66 0 20 24 51 39 51 5 0 14 -6 20 -13z m-2479 -16 c0 -38 -14 -53
-94 -107 -45 -30 -96 -66 -115 -79 -19 -14 -43 -25 -53 -25 -31 0 -17 32 25
59 32 21 38 30 35 55 -4 40 -31 44 -92 17 -53 -25 -75 -26 -82 -7 -9 23 14 55
56 76 47 24 79 25 106 5 26 -19 51 -18 99 4 22 11 57 20 78 20 30 1 37 -3 37
-18z m3511 -22 c10 -30 10 -48 1 -72 -6 -18 -14 -52 -18 -77 -3 -25 -19 -65
-35 -90 -15 -25 -33 -69 -39 -98 -20 -89 -100 -133 -100 -53 0 14 6 68 14 119
13 83 18 96 50 132 28 31 36 49 36 78 0 21 8 49 17 62 36 53 58 53 74 -1z
m-1221 -41 c0 -18 -12 -64 -26 -103 -14 -38 -29 -81 -34 -95 -4 -14 -15 -38
-24 -55 -9 -16 -16 -36 -16 -43 0 -7 -11 -34 -25 -60 -14 -26 -25 -54 -25 -62
0 -8 -9 -29 -19 -46 -10 -17 -22 -55 -26 -85 -9 -64 -17 -84 -59 -127 -28 -30
-31 -40 -34 -110 -2 -42 -9 -83 -15 -91 -19 -23 -67 -154 -74 -201 -3 -25 -19
-63 -34 -85 -28 -39 -31 -54 -55 -225 -9 -60 -16 -72 -69 -116 -32 -26 -49
-34 -56 -27 -20 20 -12 96 15 153 14 30 26 65 26 76 0 12 16 45 35 74 24 35
33 59 29 74 -3 12 0 35 6 50 6 16 13 52 16 80 3 28 19 79 35 113 16 35 34 84
39 109 6 25 17 59 26 75 8 16 24 60 35 97 12 37 31 85 44 107 12 22 26 51 30
65 4 14 20 52 35 85 15 33 31 71 35 85 4 14 21 44 36 67 16 23 29 48 29 56 0
8 11 34 24 59 13 24 27 55 31 69 8 26 43 69 57 69 4 0 8 -15 8 -32z m-2700
-93 c0 -20 -78 -68 -97 -61 -16 7 -14 10 26 59 18 21 71 23 71 2z m1650 5 c0
-13 -28 -25 -38 -16 -3 4 0 11 8 16 20 13 30 12 30 0z m1948 -22 c25 -25 5
-140 -28 -158 -42 -23 -67 17 -57 91 8 64 53 99 85 67z m-2135 -84 c-13 -75
-56 -169 -83 -184 -42 -23 -67 22 -35 64 8 11 15 36 15 56 0 38 15 66 63 118
43 45 54 30 40 -54z m-1049 67 c16 -26 -62 -146 -156 -241 -32 -32 -58 -65
-58 -74 0 -53 -92 -171 -129 -164 -34 7 -22 46 41 137 35 51 74 111 86 134 26
46 66 97 134 170 42 45 70 58 82 38z m1419 -54 c15 -46 -69 -157 -119 -157
-13 0 -15 6 -10 32 14 72 80 165 110 155 5 -2 14 -15 19 -30z m961 -10 c9 -13
6 -26 -11 -57 -14 -23 -23 -56 -23 -80 0 -34 -6 -47 -32 -71 -18 -16 -36 -29
-40 -29 -16 0 -8 56 12 85 13 19 20 47 20 76 0 32 7 55 21 73 23 29 36 30 53
3z m201 -6 c8 -28 -19 -87 -43 -93 -42 -11 -44 28 -4 78 31 39 38 41 47 15z
m-895 -11 c0 -22 -34 -44 -56 -36 -19 7 -18 33 4 45 28 17 52 13 52 -9z
m-1070 -19 c0 -12 -20 -25 -27 -18 -7 7 6 27 18 27 5 0 9 -4 9 -9z m-914 -35
c8 -21 -22 -74 -75 -132 -25 -28 -59 -73 -76 -100 -37 -61 -86 -94 -136 -94
-21 0 -40 4 -43 8 -9 15 55 125 99 172 23 25 51 62 60 83 11 24 31 45 54 57
43 23 109 26 117 6z m-336 -77 c0 -20 -42 -91 -74 -127 -18 -20 -43 -56 -55
-79 -25 -51 -60 -76 -98 -71 -55 6 -37 70 28 104 15 7 29 24 33 38 3 13 18 38
33 54 16 16 36 41 46 56 27 39 87 56 87 25z m1798 -59 c-8 -77 -86 -163 -104
-115 -16 40 55 165 93 165 13 0 15 -9 11 -50z m372 32 c0 -10 -29 -77 -65
-147 -36 -71 -65 -137 -65 -147 0 -24 -42 -107 -70 -135 -74 -79 -111 54 -41
149 17 23 41 73 52 111 23 76 69 137 128 167 47 23 61 24 61 2z m-1205 -22
c11 -18 -32 -96 -86 -155 -82 -88 -95 -100 -144 -126 -42 -22 -46 -23 -61 -7
-16 16 -16 19 9 57 15 22 40 50 57 62 16 13 30 29 30 36 0 22 62 84 114 114
54 31 71 35 81 19z m205 -10 c13 -25 6 -51 -20 -75 -29 -27 -25 -45 10 -45 33
0 80 -38 80 -64 0 -24 -11 -46 -24 -46 -7 0 -27 -11 -46 -25 -18 -14 -50 -28
-69 -31 -69 -12 -92 -58 -46 -88 32 -21 31 -37 -1 -75 -17 -21 -35 -31 -54
-31 -15 0 -44 -13 -65 -30 -50 -39 -105 -56 -134 -41 -11 7 -21 18 -21 26 0
32 119 203 187 268 49 46 103 136 103 170 0 78 72 140 100 87z m2731 -20 c25
-14 25 -80 0 -176 -28 -107 -60 -145 -110 -129 -27 8 -34 37 -22 82 6 21 11
53 11 71 0 18 13 59 30 91 35 70 52 81 91 61z m-2367 -92 c22 -30 20 -56 -5
-98 -12 -19 -33 -64 -46 -100 -14 -36 -44 -94 -67 -130 -57 -87 -63 -98 -71
-147 -8 -50 -24 -66 -62 -61 -35 4 -42 35 -20 87 9 20 18 51 21 68 3 18 16 50
29 70 62 98 97 162 97 175 0 38 24 89 57 121 20 21 40 37 44 37 4 0 15 -10 23
-22z m-933 2 c21 -12 26 -45 8 -56 -6 -3 -30 -36 -54 -73 -54 -83 -102 -129
-142 -137 -25 -5 -33 -2 -43 15 -15 28 -7 49 35 97 20 21 40 56 45 76 19 68
95 107 151 78z m2258 -136 c-7 -8 -13 -41 -15 -72 -2 -60 -47 -175 -77 -200
-37 -31 -47 15 -23 96 8 26 17 59 20 73 3 14 17 42 31 63 14 20 25 42 25 49 0
7 10 28 23 47 l22 35 3 -38 c2 -21 -2 -45 -9 -53z m1197 21 c3 -13 2 -70 -4
-125 -8 -84 -13 -105 -33 -126 -50 -53 -86 -10 -55 67 9 22 16 62 16 90 0 40
6 57 28 85 32 41 40 42 48 9z m-4021 -69 c14 -22 15 -28 1 -60 -16 -39 -75
-116 -116 -153 -31 -27 -107 -45 -132 -32 -28 15 -21 52 16 88 19 18 37 45 41
59 8 34 62 101 89 112 42 17 85 11 101 -14z m210 5 c10 -33 -21 -125 -49 -143
-16 -11 -54 -10 -61 2 -13 20 18 95 52 127 40 38 49 40 58 14z m-500 -45 c18
-13 16 -16 -28 -62 -26 -26 -51 -62 -57 -80 -6 -18 -26 -44 -45 -59 -20 -14
-38 -39 -43 -57 -9 -36 -26 -47 -36 -23 -3 10 3 25 17 39 18 17 22 32 19 57
-6 53 50 166 91 184 41 18 59 18 82 1z m969 -52 c18 -7 22 -39 6 -49 -15 -9
-110 -152 -110 -165 0 -25 -32 -69 -63 -89 -46 -28 -112 -29 -127 0 -13 24 4
65 75 174 25 38 45 72 45 75 0 10 62 43 94 51 41 9 61 10 80 3z m-404 -193
c16 -30 12 -57 -15 -111 -30 -59 -104 -140 -129 -140 -29 0 -56 20 -56 41 0
30 65 150 104 193 38 41 79 48 96 17z m1243 -42 c15 -21 27 -43 27 -48 0 -18
-32 -41 -56 -41 -26 0 -53 -43 -73 -117 -12 -43 -59 -93 -88 -93 -25 0 -11 81
25 137 16 26 32 66 35 88 5 31 16 49 49 77 24 21 45 37 48 37 3 0 17 -18 33
-40z m311 23 c3 -5 -1 -30 -9 -56 -8 -26 -12 -61 -8 -77 4 -22 0 -38 -16 -60
-12 -16 -26 -41 -31 -55 -9 -21 -13 -24 -25 -14 -8 7 -17 27 -21 46 -7 36 12
77 48 102 13 10 18 26 18 61 0 26 3 51 7 54 9 10 31 9 37 -1z m-946 -20 l23
-18 -41 -86 c-29 -61 -55 -100 -91 -133 -47 -44 -52 -46 -92 -40 -75 11 -97
24 -97 57 0 40 15 65 49 82 15 8 50 38 77 66 48 50 105 88 134 89 8 0 25 -7
38 -17z m-880 -40 c6 -41 -36 -127 -78 -161 -62 -49 -75 -41 -60 39 5 28 22
69 37 90 44 61 95 77 101 32z m3827 -33 c12 -19 -4 -59 -24 -59 -22 0 -35 38
-19 57 13 16 34 17 43 2z m-4385 -109 c0 -12 -10 -25 -25 -32 -31 -14 -39 -7
-31 27 8 32 56 37 56 5z m4549 -58 c0 -20 -4 -46 -8 -57 -5 -12 -1 -35 11 -63
27 -61 12 -101 -39 -102 -25 0 -63 44 -63 74 0 23 54 162 71 183 17 20 29 5
28 -35z m-3555 -12 c-3 -42 -50 -153 -74 -172 -34 -27 -118 -50 -141 -37 -31
16 -25 70 14 118 17 22 41 55 52 73 21 34 57 47 120 44 25 -1 30 -5 29 -26z
m1101 -51 c10 -31 -4 -73 -35 -110 -29 -33 -30 -33 -45 -15 -30 39 -13 125 29
144 27 12 44 6 51 -19z m1921 6 c13 -20 14 -31 5 -57 -33 -93 -96 -89 -93 6 2
71 55 102 88 51z m-2726 -25 c8 -15 7 -33 -4 -69 -10 -35 -12 -60 -6 -88 6
-24 5 -39 -1 -41 -5 -2 -33 -24 -62 -49 -116 -99 -186 -130 -236 -102 -41 23
-39 62 3 110 20 21 36 48 36 58 0 25 57 74 128 111 31 16 72 43 91 60 18 16
35 30 37 30 2 0 8 -9 14 -20z m1011 -51 c31 -21 39 -59 17 -76 -34 -25 -99
-46 -110 -35 -23 23 21 132 54 132 5 0 23 -9 39 -21z m-1917 -15 c22 -8 20
-36 -5 -67 -11 -15 -27 -47 -35 -71 -19 -56 -38 -74 -59 -56 -19 16 -19 50 0
87 8 15 17 40 20 55 3 16 17 34 33 42 33 18 27 17 46 10z m3843 -40 c23 -23
25 -31 20 -77 -6 -54 -47 -159 -74 -189 -28 -31 -62 -23 -79 18 -14 33 -14 41
5 102 12 36 21 79 21 96 0 71 58 99 107 50z m-307 -328 c0 -3 -4 -8 -10 -11
-5 -3 -10 -1 -10 4 0 6 5 11 10 11 6 0 10 -2 10 -4z"/>
<path d="M0 6598 l0 -54 58 4 c57 4 148 -8 447 -62 167 -30 210 -36 335 -41
69 -4 159 -12 200 -20 41 -7 147 -19 235 -25 88 -6 187 -18 220 -26 75 -18
318 -51 627 -84 113 -12 669 -12 806 1 42 4 138 13 212 19 74 7 155 19 180 27
38 13 53 13 93 3 57 -15 94 -2 103 37 10 38 -13 56 -65 49 -25 -3 -122 -10
-216 -15 -93 -6 -242 -16 -330 -22 -88 -6 -311 -13 -497 -15 -322 -5 -339 -4
-399 16 -37 13 -96 23 -144 25 -44 2 -91 8 -105 14 -14 6 -56 15 -95 20 -38 5
-90 16 -115 24 -82 27 -288 60 -338 54 -57 -7 -224 6 -352 27 -52 9 -126 15
-165 14 -54 -1 -88 5 -150 27 -66 23 -106 29 -230 37 -82 5 -187 11 -232 14
l-83 6 0 -54z"/>
<path d="M5615 6595 c-77 -13 -178 -29 -225 -34 -52 -6 -108 -20 -145 -36 -56
-25 -58 -28 -40 -41 28 -21 183 -18 355 7 313 44 320 46 320 79 0 48 -84 56
-265 25z"/>
<path d="M5859 6295 c-59 -42 -85 -54 -140 -64 -30 -5 -99 -28 -154 -51 -84
-35 -116 -43 -200 -50 -116 -10 -261 -28 -290 -37 -11 -3 -31 -13 -45 -23 -14
-10 -47 -20 -75 -24 -27 -4 -79 -15 -115 -26 -36 -10 -97 -23 -137 -28 -91
-13 -147 -39 -151 -71 -2 -13 2 -28 10 -32 20 -13 88 -10 133 6 22 8 85 24
140 36 55 11 159 37 230 56 72 19 156 39 188 44 31 5 83 13 115 18 66 11 136
26 207 46 28 8 66 17 86 20 20 3 52 17 70 30 19 13 70 42 114 63 83 40 117 76
92 101 -17 17 -41 13 -78 -14z"/>
<path d="M0 6149 c0 -24 5 -39 15 -43 40 -15 280 -47 346 -45 133 3 540 -25
604 -41 125 -31 279 -52 503 -69 63 -5 119 -14 125 -20 15 -15 189 -14 238 1
33 9 46 8 81 -7 64 -26 609 -33 817 -10 184 20 215 27 219 47 3 13 -12 17 -90
22 -169 11 -941 14 -978 3 -44 -12 -121 0 -335 53 -88 22 -198 42 -245 45 -47
4 -115 13 -152 21 -37 8 -93 14 -126 14 -32 0 -81 7 -108 15 -37 12 -73 14
-151 9 -58 -4 -135 -2 -180 4 -138 20 -355 36 -470 37 l-113 0 0 -36z"/>
<path d="M3467 6154 c-14 -15 -6 -34 14 -34 14 0 19 5 17 17 -3 18 -20 27 -31
17z"/>
<path d="M5928 6130 l-33 -29 32 -1 c22 0 37 7 47 22 34 48 3 53 -46 8z"/>
<path d="M5565 6008 c-75 -18 -170 -51 -200 -70 -18 -11 -50 -18 -80 -18 -27
-1 -81 -12 -120 -26 -38 -14 -130 -43 -204 -65 -74 -22 -143 -45 -154 -51 -20
-10 -132 -29 -297 -49 -47 -5 -110 -16 -140 -23 -30 -8 -73 -17 -94 -21 -22
-4 -61 -18 -88 -31 -26 -13 -60 -24 -75 -24 -34 0 -96 -36 -90 -53 6 -19 209
-22 277 -3 52 13 100 21 310 47 46 6 107 20 135 31 27 12 86 24 130 28 59 5
97 15 145 38 36 17 81 34 100 38 19 4 51 15 70 25 19 11 40 19 47 19 7 0 30 9
50 20 21 11 45 20 55 20 9 0 42 9 71 20 67 25 88 19 84 -24 -2 -28 1 -31 29
-34 22 -2 40 5 63 23 38 32 38 38 6 53 -32 15 -32 25 2 48 36 23 101 35 129
22 25 -12 64 4 64 27 0 17 -16 20 -25 5 -10 -17 -36 -11 -67 15 -32 27 -64 30
-133 13z"/>
<path d="M2 5859 l3 -54 80 -12 c44 -7 105 -19 135 -28 101 -31 115 -34 185
-45 39 -6 97 -20 130 -30 105 -31 139 -39 195 -45 50 -6 121 -20 220 -45 19
-5 79 -12 133 -16 93 -6 99 -5 95 12 -4 25 -158 81 -258 95 -41 6 -106 24
-145 39 -38 16 -92 32 -120 36 -27 4 -66 14 -85 24 -19 9 -87 27 -150 39 -63
12 -137 29 -165 37 -27 8 -89 19 -137 24 -48 6 -95 13 -103 17 -14 5 -16 -3
-13 -48z"/>
<path d="M2971 5731 c-48 -9 -61 -33 -35 -68 36 -48 69 -66 106 -59 70 14 105
76 68 120 -13 17 -72 19 -139 7z"/>
<path d="M1480 5530 c-30 -5 -88 -8 -128 -9 l-73 -1 3 -27 c3 -24 10 -30 53
-41 119 -30 472 14 432 54 -8 9 -172 34 -207 32 -14 0 -50 -4 -80 -8z"/>
<path d="M0 5434 c0 -29 4 -44 13 -44 24 0 87 21 87 29 0 14 -30 34 -66 47
l-34 12 0 -44z"/>
<path d="M132 5283 l-133 -4 3 -47 c3 -44 5 -47 33 -49 17 -2 68 -7 115 -13
128 -15 612 -22 649 -9 38 13 39 24 4 43 -44 22 -99 34 -213 46 -58 6 -127 15
-155 20 -73 13 -153 16 -303 13z"/>
<path d="M98 3677 l-98 -20 0 -47 0 -48 273 -2 c450 -4 510 -4 550 4 45 8 47
28 4 60 -26 20 -45 21 -265 26 -214 5 -242 8 -292 28 -30 12 -59 21 -65 21 -5
-1 -54 -11 -107 -22z"/>
<path d="M1088 3480 c-39 -12 -77 -42 -78 -62 0 -10 11 -25 25 -34 38 -25 94
-21 144 10 42 27 43 28 24 48 -15 17 -75 50 -85 47 -2 0 -15 -4 -30 -9z"/>
<path d="M823 3424 c-24 -38 -8 -58 52 -62 48 -3 85 16 85 44 0 21 -42 44 -82
44 -29 0 -41 -6 -55 -26z"/>
<path d="M7 3313 c-4 -3 -7 -40 -7 -81 l0 -75 113 8 c163 13 370 12 460 -2 94
-13 269 -1 304 23 28 18 29 40 3 54 -23 12 -184 26 -490 40 -126 6 -250 17
-281 26 -62 15 -92 18 -102 7z"/>
<path d="M3295 3109 c-21 -12 -89 -32 -149 -45 -61 -12 -130 -30 -154 -38 -23
-8 -77 -18 -120 -22 -42 -4 -91 -12 -108 -19 -17 -7 -55 -16 -85 -20 -30 -4
-70 -13 -89 -21 -19 -7 -71 -21 -115 -32 -70 -16 -115 -18 -360 -16 -154 1
-343 7 -419 12 -115 8 -146 7 -180 -5 -33 -11 -52 -12 -96 -4 -74 14 -296 15
-340 2 -48 -15 -132 -13 -215 4 -102 22 -199 19 -265 -6 -72 -28 -193 -43
-360 -43 -118 -1 -142 2 -187 21 l-53 23 0 -70 0 -69 54 21 55 20 37 -22 c66
-41 134 -51 238 -34 50 8 120 25 156 37 74 25 182 27 290 6 42 -9 110 -12 190
-9 69 3 195 4 280 3 85 -1 234 -1 330 -1 267 0 296 0 425 -5 80 -3 147 0 200
10 146 26 199 33 337 43 75 5 159 17 185 27 29 10 83 17 138 18 83 1 95 4 155
37 36 20 81 39 100 43 19 4 60 21 90 38 37 20 75 32 115 36 59 6 60 6 63 39 2
18 -2 40 -9 48 -17 21 -88 17 -134 -7z"/>
<path d="M45 2571 l-40 -6 -3 -58 c-2 -44 0 -57 9 -51 7 4 96 11 198 15 257
11 376 24 412 47 l29 18 -57 19 c-48 16 -81 18 -198 15 -209 -5 -216 -5 -265
1 -25 4 -63 4 -85 0z"/>
<path d="M2250 2405 c-58 -8 -125 -18 -150 -24 -25 -6 -67 -11 -95 -11 -27 0
-67 -5 -88 -11 -22 -6 -71 -12 -110 -14 -40 -1 -114 -6 -165 -10 -63 -6 -114
-4 -160 5 -58 10 -79 10 -157 -5 -97 -19 -363 -34 -480 -27 -82 5 -301 -6
-334 -17 -19 -6 -49 -24 -66 -41 -25 -25 -40 -30 -80 -31 -58 -1 -273 16 -328
27 l-37 7 0 -61 c0 -50 3 -62 18 -66 10 -3 76 -5 147 -4 114 1 130 0 139 -16
27 -45 42 -57 75 -58 47 -1 74 32 65 78 -13 73 -18 69 81 71 50 2 169 8 265
13 96 6 220 13 275 15 55 2 139 7 187 12 90 8 255 -2 296 -18 12 -5 22 -16 22
-25 0 -9 7 -14 18 -12 9 2 16 11 14 20 -1 9 6 19 15 23 33 14 177 28 263 27
51 -1 103 4 130 13 44 14 125 28 260 45 121 15 191 58 154 94 -18 18 -31 18
-174 1z"/>
<path d="M1233 2153 c-20 -7 -15 -31 7 -38 23 -7 40 1 40 20 0 10 -25 28 -33
24 -1 0 -8 -3 -14 -6z"/>
<path d="M6795 1456 c-22 -16 -15 -50 11 -54 25 -4 47 19 38 41 -8 22 -29 28
-49 13z"/>
<path d="M431 917 c-33 -16 -36 -32 -13 -55 17 -17 33 -20 113 -18 52 0 100 5
107 9 15 10 16 49 0 65 -16 16 -175 16 -207 -1z"/>
<path d="M75 884 c-73 -11 -75 -12 -75 -54 l0 -40 53 1 c104 2 165 14 192 39
23 21 24 25 10 39 -15 16 -116 24 -180 15z"/>
<path d="M6915 750 c-3 -5 3 -10 14 -10 12 0 21 5 21 10 0 6 -6 10 -14 10 -8
0 -18 -4 -21 -10z"/>
<path d="M5926 661 c-4 -5 -2 -12 3 -15 5 -4 12 -2 15 3 4 5 2 12 -3 15 -5 4
-12 2 -15 -3z"/>
<path d="M2256 40 c-7 -38 -5 -43 21 -38 17 3 18 5 2 37 l-16 34 -7 -33z"/>
</g>
</svg>
